rx_controller/simulation/qsim/rx_controller.msim.vcd
$comment
	File created using the following command:
		vcd file rx_controller.msim.vcd -direction
$end
$date
	Thu Feb 08 19:42:07 2024
$end
$version
	ModelSim Version 10.1d
$end
$timescale
	1ps
$end
$scope module rx_controller_vlg_vec_tst $end
$var reg 1 ! SW [0:0] $end
$var reg 1 " clk $end
$var reg 1 # ctrl_counter $end
$var reg 1 $ ctrl_half_baud $end
$var reg 1 % ctrl_irda_half_baud $end
$var reg 1 & ctrl_rx $end
$var reg 1 ' reset $end
$var wire 1 ( ctrl_reset_baud $end
$var wire 1 ) ctrl_sr_load $end
$var wire 1 * current_state $end
$var wire 1 + sampler $end
$scope module i1 $end
$var wire 1 , gnd $end
$var wire 1 - vcc $end
$var wire 1 . unknown $end
$var tri1 1 / devclrn $end
$var tri1 1 0 devpor $end
$var tri1 1 1 devoe $end
$var wire 1 2 clk~input_o $end
$var wire 1 3 ctrl_sr_load~output_o $end
$var wire 1 4 current_state~output_o $end
$var wire 1 5 ctrl_reset_baud~output_o $end
$var wire 1 6 ctrl_half_baud~input_o $end
$var wire 1 7 ctrl_counter~input_o $end
$var wire 1 8 reset~input_o $end
$var wire 1 9 current_state~0_combout $end
$var wire 1 : current_state~reg0_q $end
$var wire 1 ; SW[0]~input_o $end
$var wire 1 < ctrl_irda_half_baud~input_o $end
$var wire 1 = ctrl_sr_load~0_combout $end
$var wire 1 > ctrl_rx~input_o $end
$var wire 1 ? ctrl_reset_baud~0_combout $end
$upscope $end
$upscope $end
$enddefinitions $end
#0
$dumpvars
b0 !
0"
0#
0$
0%
1&
1'
0(
0)
0*
x+
0,
1-
x.
1/
10
11
02
03
04
05
06
07
18
09
0:
0;
0<
0=
1>
1?
$end
#10000
1"
12
0+
#20000
1$
0"
16
02
1+
#30000
1"
12
0+
#36000
1%
1<
1+
#40000
0$
0"
0%
06
02
0<
0+
#50000
1"
12
1+
#60000
1$
0"
16
02
0+
#70000
1"
12
1+
#76000
1%
1<
0+
#80000
0$
0"
0%
06
02
0<
1+
#90000
1"
12
0+
#100000
1$
0"
16
02
1+
#110000
1"
12
0+
#116000
1%
1<
1+
#120000
0&
0$
0"
0%
0>
06
02
0<
0+
0?
19
15
1(
#130000
1"
12
1+
1:
1?
14
1*
05
0(
#140000
1$
0"
16
02
0+
1=
13
1)
#150000
1"
12
1+
#156000
1%
1<
0+
#160000
0$
0"
0%
06
02
0<
1+
0=
03
0)
#170000
1"
12
0+
#180000
1$
0"
16
02
1+
1=
13
1)
#190000
1"
12
0+
#196000
1%
1<
1+
#200000
1&
0$
0"
0%
1>
06
02
0<
0+
0=
03
0)
#210000
1"
12
1+
#220000
1$
0"
16
02
0+
1=
13
1)
#230000
1"
12
1+
#236000
1%
1<
0+
#240000
0$
0"
0%
06
02
0<
1+
0=
03
0)
#250000
1"
12
0+
#260000
1$
0"
16
02
1+
1=
13
1)
#270000
1"
12
0+
#276000
1%
1<
1+
#280000
0&
0$
0"
0%
0>
06
02
0<
0+
0=
03
0)
#290000
1"
12
1+
#300000
1$
0"
16
02
0+
1=
13
1)
#310000
1"
12
1+
#316000
1%
1<
0+
#320000
1&
0$
0"
0%
1>
06
02
0<
1+
0=
03
0)
#330000
1"
12
0+
#340000
1$
0"
16
02
1+
1=
13
1)
#350000
1"
12
0+
#356000
1%
1<
1+
#360000
0&
0$
0"
0%
0>
06
02
0<
0+
0=
03
0)
#370000
1"
12
1+
#380000
1$
0"
16
02
0+
1=
13
1)
#390000
1"
12
1+
#396000
1%
1<
0+
#400000
1&
0$
0"
0%
1>
06
02
0<
1+
0=
03
0)
#410000
1"
12
0+
#420000
1#
1$
0"
17
16
02
1+
09
1=
13
1)
#430000
1"
12
0+
0:
04
0*
0=
03
0)
#436000
1%
1<
1+
#440000
0#
0$
0"
0%
07
06
02
0<
0+
#450000
1"
12
1+
#460000
1$
0"
16
02
0+
#470000
1"
12
1+
#476000
1%
1<
0+
#480000
0$
0"
0%
06
02
0<
1+
#490000
1"
12
0+
#500000
1$
0"
16
02
1+
#510000
1"
12
0+
#516000
1%
1<
1+
#520000
b1 !
0$
0"
0%
1;
06
02
0<
0+
#530000
1"
12
1+
#540000
1$
0"
16
02
0+
#550000
1"
12
1+
#556000
1%
1<
0+
#560000
0&
0$
0"
0%
0>
06
02
0<
1+
0?
19
15
1(
#570000
1"
12
0+
1:
1?
14
1*
05
0(
#580000
1$
0"
16
02
1+
#590000
1"
12
0+
#596000
1%
1<
1+
1=
13
1)
#600000
0$
0"
0%
06
02
0<
0+
0=
03
0)
#610000
1"
12
1+
#620000
1$
0"
16
02
0+
#630000
1"
12
1+
#636000
1%
1<
0+
1=
13
1)
#640000
0$
0"
0%
06
02
0<
1+
0=
03
0)
#650000
1"
12
0+
#660000
1&
1$
0"
1>
16
02
1+
#670000
1"
12
0+
#676000
1%
1<
1+
1=
13
1)
#680000
0$
0"
0%
06
02
0<
0+
0=
03
0)
#690000
1"
12
1+
#700000
1$
0"
16
02
0+
#710000
1"
12
1+
#716000
1%
1<
0+
1=
13
1)
#720000
0&
0$
0"
0%
0>
06
02
0<
1+
0=
03
0)
#730000
1"
12
0+
#740000
1$
0"
16
02
1+
#750000
1"
12
0+
#756000
1%
1<
1+
1=
13
1)
#760000
0$
0"
0%
06
02
0<
0+
0=
03
0)
#770000
1"
12
1+
#780000
1&
1$
0"
1>
16
02
0+
#790000
1"
12
1+
#796000
1%
1<
0+
1=
13
1)
#800000
0$
0"
0%
06
02
0<
1+
0=
03
0)
#810000
0&
1"
0>
12
0+
#820000
1$
0"
16
02
1+
#830000
1"
12
0+
#836000
1%
1<
1+
1=
13
1)
#840000
0$
0"
0%
06
02
0<
0+
0=
03
0)
#850000
1"
12
1+
#860000
1&
1$
0"
1>
16
02
0+
#870000
1"
12
1+
#876000
1%
1<
0+
1=
13
1)
#880000
1#
0$
0"
0%
17
06
02
0<
1+
09
0=
03
0)
#890000
1"
12
0+
0:
04
0*
#900000
1$
0"
16
02
1+
#910000
0#
1"
07
12
0+
#916000
1%
1<
1+
#920000
0$
0"
0%
06
02
0<
0+
#930000
1"
12
1+
#940000
1$
0"
16
02
0+
#950000
1"
12
1+
#956000
1%
1<
0+
#960000
0$
0"
0%
06
02
0<
1+
#970000
1"
12
0+
#980000
1$
0"
16
02
1+
#990000
1"
12
0+
#996000
1%
1<
1+
