rx_uart/simulation/qsim/rx_uart.msim.vcd
$comment
	File created using the following command:
		vcd file rx_uart.msim.vcd -direction
$end
$date
	Wed Feb 07 11:23:48 2024
$end
$version
	ModelSim Version 10.1d
$end
$timescale
	1ps
$end
$scope module rx_uart_vlg_vec_tst $end
$var reg 1 ! CLOCK_50 $end
$var reg 1 " KEY [0:0] $end
$var reg 1 # SW [0:0] $end
$var reg 1 $ UART_RXD $end
$var wire 1 % HEX0 [6] $end
$var wire 1 & HEX0 [5] $end
$var wire 1 ' HEX0 [4] $end
$var wire 1 ( HEX0 [3] $end
$var wire 1 ) HEX0 [2] $end
$var wire 1 * HEX0 [1] $end
$var wire 1 + HEX0 [0] $end
$var wire 1 , HEX1 [6] $end
$var wire 1 - HEX1 [5] $end
$var wire 1 . HEX1 [4] $end
$var wire 1 / HEX1 [3] $end
$var wire 1 0 HEX1 [2] $end
$var wire 1 1 HEX1 [1] $end
$var wire 1 2 HEX1 [0] $end
$var wire 1 3 LEDG [6] $end
$var wire 1 4 LEDR [2] $end
$var wire 1 5 ctrl_load_counter $end
$var wire 1 6 ctrl_state $end
$var wire 1 7 parity_7sd [6] $end
$var wire 1 8 parity_7sd [5] $end
$var wire 1 9 parity_7sd [4] $end
$var wire 1 : parity_7sd [3] $end
$var wire 1 ; parity_7sd [2] $end
$var wire 1 < parity_7sd [1] $end
$var wire 1 = parity_7sd [0] $end
$var wire 1 > sr_parity [10] $end
$var wire 1 ? sr_parity [9] $end
$var wire 1 @ sr_parity [8] $end
$var wire 1 A sr_parity [7] $end
$var wire 1 B sr_parity [6] $end
$var wire 1 C sr_parity [5] $end
$var wire 1 D sr_parity [4] $end
$var wire 1 E sr_parity [3] $end
$var wire 1 F sr_parity [2] $end
$var wire 1 G sr_parity [1] $end
$var wire 1 H sr_parity [0] $end
$var wire 1 I sampler $end
$scope module i1 $end
$var wire 1 J gnd $end
$var wire 1 K vcc $end
$var wire 1 L unknown $end
$var tri1 1 M devclrn $end
$var tri1 1 N devpor $end
$var tri1 1 O devoe $end
$var wire 1 P baud_rx|count[2]~17_combout $end
$var wire 1 Q baud_rx|count[5]~23_combout $end
$var wire 1 R counter_rx|count[1]~5_combout $end
$var wire 1 S counter_rx|Add0~0_combout $end
$var wire 1 T counter_rx|count[2]~9_combout $end
$var wire 1 U CLOCK_50~combout $end
$var wire 1 V CLOCK_50~clkctrl_outclk $end
$var wire 1 W baud_rx|count[0]~13_combout $end
$var wire 1 X baud_rx|count[1]~16 $end
$var wire 1 Y baud_rx|count[2]~18 $end
$var wire 1 Z baud_rx|count[3]~19_combout $end
$var wire 1 [ baud_rx|count[3]~20 $end
$var wire 1 \ baud_rx|count[4]~21_combout $end
$var wire 1 ] baud_rx|Equal2~0_combout $end
$var wire 1 ^ baud_rx|count[4]~22 $end
$var wire 1 _ baud_rx|count[5]~24 $end
$var wire 1 ` baud_rx|count[6]~25_combout $end
$var wire 1 a baud_rx|count[6]~26 $end
$var wire 1 b baud_rx|count[7]~27_combout $end
$var wire 1 c baud_rx|count[7]~28 $end
$var wire 1 d baud_rx|count[8]~30 $end
$var wire 1 e baud_rx|count[9]~31_combout $end
$var wire 1 f baud_rx|count[9]~32 $end
$var wire 1 g baud_rx|count[10]~33_combout $end
$var wire 1 h baud_rx|Equal2~2_combout $end
$var wire 1 i baud_rx|count[8]~29_combout $end
$var wire 1 j baud_rx|Equal2~1_combout $end
$var wire 1 k baud_rx|Equal2~3_combout $end
$var wire 1 l baud_rx|count[4]~35_combout $end
$var wire 1 m baud_rx|count[0]~14 $end
$var wire 1 n baud_rx|count[1]~15_combout $end
$var wire 1 o ctrl_rx|ctrl_sr_load~0_combout $end
$var wire 1 p ctrl_rx|ctrl_sr_load~combout $end
$var wire 1 q counter_rx|count[2]~7_combout $end
$var wire 1 r counter_rx|count[0]~4_combout $end
$var wire 1 s counter_rx|count[3]~6_combout $end
$var wire 1 t counter_rx|count[0]~8_combout $end
$var wire 1 u counter_rx|Equal0~0_combout $end
$var wire 1 v ctrl_rx|current_state~2_combout $end
$var wire 1 w ctrl_rx|current_state~regout $end
$var wire 1 x UART_RXD~combout $end
$var wire 1 y sr_rx|tmp_data~11_combout $end
$var wire 1 z sr_rx|tmp_data[4]~1_combout $end
$var wire 1 { sr_rx|tmp_data~10_combout $end
$var wire 1 | sr_rx|tmp_data~9_combout $end
$var wire 1 } sr_rx|tmp_data~8_combout $end
$var wire 1 ~ sr_rx|tmp_data~7_combout $end
$var wire 1 !! sr_rx|tmp_data~6_combout $end
$var wire 1 "! sr_rx|tmp_data~5_combout $end
$var wire 1 #! sr_rx|tmp_data~4_combout $end
$var wire 1 $! sr_rx|tmp_data~3_combout $end
$var wire 1 %! sr_rx|tmp_data~2_combout $end
$var wire 1 &! sr_rx|tmp_data~0_combout $end
$var wire 1 '! msb_rx|WideOr6~0_combout $end
$var wire 1 (! msb_rx|WideOr5~0_combout $end
$var wire 1 )! msb_rx|Decoder0~0_combout $end
$var wire 1 *! msb_rx|WideOr3~0_combout $end
$var wire 1 +! msb_rx|WideOr2~0_combout $end
$var wire 1 ,! msb_rx|WideOr1~0_combout $end
$var wire 1 -! msb_rx|WideOr0~0_combout $end
$var wire 1 .! lsb_rx|WideOr6~0_combout $end
$var wire 1 /! lsb_rx|WideOr5~0_combout $end
$var wire 1 0! lsb_rx|WideOr4~0_combout $end
$var wire 1 1! lsb_rx|WideOr3~0_combout $end
$var wire 1 2! lsb_rx|WideOr2~0_combout $end
$var wire 1 3! lsb_rx|WideOr1~0_combout $end
$var wire 1 4! lsb_rx|WideOr0~0_combout $end
$var wire 1 5! parity_rx|p_check_out~1_combout $end
$var wire 1 6! parity_rx|p_check_out~0_combout $end
$var wire 1 7! parity_rx|p_check_out~combout $end
$var wire 1 8! KEY~combout [0] $end
$var wire 1 9! counter_rx|count [3] $end
$var wire 1 :! counter_rx|count [2] $end
$var wire 1 ;! counter_rx|count [1] $end
$var wire 1 <! counter_rx|count [0] $end
$var wire 1 =! baud_rx|count [10] $end
$var wire 1 >! baud_rx|count [9] $end
$var wire 1 ?! baud_rx|count [8] $end
$var wire 1 @! baud_rx|count [7] $end
$var wire 1 A! baud_rx|count [6] $end
$var wire 1 B! baud_rx|count [5] $end
$var wire 1 C! baud_rx|count [4] $end
$var wire 1 D! baud_rx|count [3] $end
$var wire 1 E! baud_rx|count [2] $end
$var wire 1 F! baud_rx|count [1] $end
$var wire 1 G! baud_rx|count [0] $end
$var wire 1 H! sr_rx|tmp_data [10] $end
$var wire 1 I! sr_rx|tmp_data [9] $end
$var wire 1 J! sr_rx|tmp_data [8] $end
$var wire 1 K! sr_rx|tmp_data [7] $end
$var wire 1 L! sr_rx|tmp_data [6] $end
$var wire 1 M! sr_rx|tmp_data [5] $end
$var wire 1 N! sr_rx|tmp_data [4] $end
$var wire 1 O! sr_rx|tmp_data [3] $end
$var wire 1 P! sr_rx|tmp_data [2] $end
$var wire 1 Q! sr_rx|tmp_data [1] $end
$var wire 1 R! sr_rx|tmp_data [0] $end
$upscope $end
$upscope $end
$enddefinitions $end
#0
$dumpvars
0!
b1 "
bx #
1$
0+
1*
1)
1(
0'
0&
0%
02
01
00
1/
1.
1-
1,
03
14
05
06
1=
1<
1;
1:
19
18
17
1H
1G
1F
1E
1D
1C
1B
1A
1@
1?
1>
xI
0J
1K
xL
1M
1N
1O
0P
0Q
0R
0S
0T
0U
0V
1W
1X
0Y
0Z
1[
0\
0]
0^
1_
0`
0a
0b
1c
0d
0e
1f
0g
1h
0i
1j
1k
0l
0m
0n
1o
1p
0q
1r
0s
0t
0u
0v
0w
1x
0y
0z
0{
0|
0}
0~
0!!
0"!
0#!
0$!
0%!
0&!
0'!
0(!
0)!
1*!
1+!
1,!
1-!
0.!
1/!
10!
11!
02!
03!
14!
05!
06!
07!
18!
0<!
0;!
0:!
09!
0G!
0F!
0E!
0D!
0C!
0B!
0A!
0@!
0?!
0>!
0=!
0R!
0Q!
0P!
0O!
0N!
0M!
0L!
0K!
0J!
0I!
0H!
$end
#10000
1!
1U
1V
0I
1G!
1]
1m
0W
1n
#20000
0!
0U
0V
1I
#30000
1!
1U
1V
0I
1F!
0G!
0k
0X
0n
0]
0m
1W
1l
1P
1k
1X
1n
0l
0P
#40000
0$
0!
0x
0U
0V
1I
1y
1v
1l
#50000
1!
1U
1V
0I
1w
0F!
0o
0l
0n
16
#60000
0!
0U
0V
1I
#70000
1!
1U
1V
0I
1G!
1]
1m
0W
0p
1n
1z
1t
15
#80000
0!
0U
0V
1I
#90000
1!
1U
1V
0I
1H!
1<!
1F!
0G!
1{
0t
1R
1o
0k
0X
0n
0]
0m
1W
13
0>
1p
1l
1P
1k
1X
1n
0z
1t
0R
0l
0P
05
#100000
0!
0U
0V
1I
#110000
1!
1U
1V
0I
1G!
1]
1m
0W
0k
0X
0n
1l
1P
#120000
1$
0!
1x
0U
0V
1I
0y
#130000
1!
1U
1V
0I
0F!
0G!
0o
1k
1X
1n
0]
0m
1W
0l
0P
0n
#140000
0!
0U
0V
1I
#150000
1!
1U
1V
0I
1G!
1]
1m
0W
0p
1n
1z
0t
1R
15
#160000
0!
0U
0V
1I
#170000
1!
1U
1V
0I
1I!
0H!
0<!
1F!
0G!
1;!
15!
1|
0{
1t
1o
0k
0X
0n
0]
0m
1W
03
0?
1>
17!
1p
1l
1P
1k
1X
1n
0z
0t
0l
0P
04
05
#180000
0!
0U
0V
1I
#190000
1!
1U
1V
0I
1G!
1]
1m
0W
0k
0X
0n
1l
1P
#200000
0!
0U
0V
1I
#210000
1!
1U
1V
0I
0F!
0G!
0o
1k
1X
1n
0]
0m
1W
0l
0P
0n
#220000
0!
0U
0V
1I
#230000
1!
1U
1V
0I
1G!
1]
1m
0W
0p
1n
1z
1t
15
#240000
0!
0U
0V
1I
#250000
1!
1U
1V
0I
1J!
0I!
1<!
1F!
0G!
0-!
0*!
1}
0|
0t
1T
0R
1o
0k
0X
0n
0]
0m
1W
0@
07
1?
1q
1p
1l
1P
1k
1X
1n
0,
0/
0z
1t
0q
1R
0l
0P
05
#260000
0!
0U
0V
1I
#270000
1!
1U
1V
0I
1G!
1]
1m
0W
0k
0X
0n
1l
1P
#280000
0!
0U
0V
1I
#290000
1!
1U
1V
0I
0F!
0G!
0o
1k
1X
1n
0]
0m
1W
0l
0P
0n
#300000
0!
0U
0V
1I
#310000
1!
1U
1V
0I
1G!
1]
1m
0W
0p
1n
1z
0t
1q
0R
15
#320000
0!
0U
0V
1I
#330000
1!
1U
1V
0I
1K!
0J!
0<!
1:!
1F!
0G!
0;!
16!
0,!
1(!
1~
05!
0}
1t
1o
0k
0X
0n
0]
0m
1W
0A
08
1@
17
1p
1l
1P
1k
1X
1n
0-
11
0z
0t
0l
0P
05
#340000
0!
0U
0V
1I
#350000
1!
1U
1V
0I
1G!
1]
1m
0W
0k
0X
0n
1l
1P
#360000
0$
0!
0x
0U
0V
1I
1y
#370000
1!
1U
1V
0I
0F!
0G!
0o
1k
1X
1n
0]
0m
1W
0l
0P
0n
#380000
0!
0U
0V
1I
#390000
1!
1U
1V
0I
1G!
1]
1m
0W
0p
1n
1z
1t
15
#400000
0!
0U
0V
1I
#410000
1!
1U
1V
0I
1L!
0K!
1H!
1<!
1F!
0G!
0+!
1!!
0~
1{
0t
1R
1o
0k
0X
0n
0]
0m
1W
13
0B
09
1A
18
0>
1p
1l
1P
1k
1X
1n
0.
0z
1t
0R
0l
0P
05
#420000
0!
0U
0V
1I
#430000
1!
1U
1V
0I
1G!
1]
1m
0W
0k
0X
0n
1l
1P
#440000
0!
0U
0V
1I
#450000
1!
1U
1V
0I
0F!
0G!
0o
1k
1X
1n
0]
0m
1W
0l
0P
0n
#460000
0!
0U
0V
1I
#470000
1!
1U
1V
0I
1G!
1]
1m
0W
0p
1n
1z
0t
1R
15
#480000
0!
0U
0V
1I
#490000
1!
1U
1V
0I
1M!
0L!
1I!
0<!
1F!
0G!
1;!
04!
13!
12!
00!
0/!
1"!
06!
1-!
1,!
1+!
1*!
0(!
0!!
1|
1t
1o
0k
0X
0n
0]
0m
1W
0C
0:
1B
19
0?
07!
1p
1l
1P
1k
1X
1n
1&
1'
0)
0*
1,
1-
1.
1/
01
1%
0z
0t
0l
0P
14
05
#500000
0!
0U
0V
1I
#510000
1!
1U
1V
0I
1G!
1]
1m
0W
0k
0X
0n
1l
1P
#520000
1$
0!
1x
0U
0V
1I
0y
#530000
1!
1U
1V
0I
0F!
0G!
0o
1k
1X
1n
0]
0m
1W
0l
0P
0n
#540000
0!
0U
0V
1I
#550000
1!
1U
1V
0I
1G!
1]
1m
0W
0p
1n
1z
1t
15
#560000
0!
0U
0V
1I
#570000
1!
1U
1V
0I
1N!
0M!
1J!
0H!
1<!
1F!
0G!
15!
14!
03!
02!
01!
1/!
1.!
1#!
0"!
0-!
0*!
1}
0{
0t
0T
1S
0R
1o
0k
0X
0n
0]
0m
1W
03
0D
0;
1C
1:
0@
07
1>
17!
0q
1s
1p
1l
1P
1k
1X
1n
0&
0'
0(
1*
1+
0,
0/
0%
0z
1t
0s
1q
1R
0l
0P
04
05
#580000
0!
0U
0V
1I
#590000
1!
1U
1V
0I
1G!
1]
1m
0W
0k
0X
0n
1l
1P
#600000
0$
0!
0x
0U
0V
1I
1y
#610000
1!
1U
1V
0I
0F!
0G!
0o
1k
1X
1n
0]
0m
1W
0l
0P
0n
#620000
0!
0U
0V
1I
#630000
1!
1U
1V
0I
1G!
1]
1m
0W
0p
1n
1z
0t
1s
0q
0R
15
#640000
0!
0U
0V
1I
#650000
1!
1U
1V
0I
1O!
0N!
1K!
0I!
1H!
0<!
19!
0:!
1F!
0G!
0;!
13!
0/!
1$!
0#!
1-!
1*!
1'!
1~
0|
1{
1t
1o
0k
0X
0n
0]
0m
1W
13
0E
0<
1D
1;
0A
08
1?
0>
1p
1l
1P
1k
1X
1n
1&
0*
1,
1/
12
0z
0t
0l
0P
05
#660000
0!
0U
0V
1I
#670000
1!
1U
1V
0I
1G!
1]
1m
0W
0k
0X
0n
1l
1P
#680000
1$
0!
1x
0U
0V
1I
0y
#690000
1!
1U
1V
0I
0F!
0G!
0o
1k
1X
1n
0]
0m
1W
0l
0P
0n
#700000
0!
0U
0V
1I
#710000
1!
1U
1V
0I
1G!
1]
1m
0W
0p
1n
1z
1t
15
#720000
0!
0U
0V
1I
#730000
1!
1U
1V
0I
1P!
0O!
1L!
0J!
1I!
0H!
1<!
1F!
0G!
16!
03!
10!
1/!
0.!
1%!
0$!
0-!
0,!
1!!
0}
1|
0{
0t
1R
1o
0k
0X
0n
0]
0m
1W
03
0F
0=
1E
1<
0B
09
1@
17
0?
1>
07!
1p
1l
1P
1k
1X
1n
0&
1)
1*
0+
0,
0-
0z
1t
0R
0l
0P
14
05
#740000
0!
0U
0V
1I
#750000
1!
1U
1V
0I
1G!
1]
1m
0W
0k
0X
0n
1l
1P
#760000
0!
0U
0V
1I
#770000
1!
1U
1V
0I
0F!
0G!
0o
1k
1X
1n
0]
0m
1W
0l
0P
0n
#780000
0!
0U
0V
1I
#790000
1!
1U
1V
0I
1G!
1]
1m
0W
0p
1n
1z
0t
1R
15
#800000
0!
0U
0V
1I
#810000
1!
1U
1V
0I
1Q!
0P!
1M!
0K!
1J!
0I!
0<!
1F!
0G!
1;!
1&!
04!
13!
12!
11!
00!
0/!
0%!
05!
1"!
1,!
0+!
0*!
1)!
0'!
0~
1}
0|
1u
1t
1o
0k
0X
0n
0]
0m
1W
0G
1F
1=
0C
0:
1A
18
0@
07
1?
17!
0v
0t
0r
1p
1l
1P
1k
1X
1n
1&
1'
1(
0)
0*
1-
0.
0/
10
02
1%
0s
0R
0z
0l
0P
04
05
#820000
0!
0U
0V
1I
#830000
1!
1U
1V
0I
0w
09!
1G!
0;!
0u
0S
1]
1m
0W
06
1r
0k
0X
0n
1l
1P
#840000
0!
0U
0V
1I
#850000
1!
1U
1V
0I
0F!
0G!
1k
1X
1n
0]
0m
1W
0l
0P
0n
#860000
0!
0U
0V
1I
#870000
1!
1U
1V
0I
1G!
1]
1m
0W
1n
#880000
0$
0!
0x
0U
0V
1I
1y
1v
1l
#890000
1!
1U
1V
0I
1w
0G!
0o
0l
0]
0m
1W
16
0n
#900000
0!
0U
0V
1I
#910000
1!
1U
1V
0I
1G!
1]
1m
0W
0p
1n
1z
1t
15
#920000
0!
0U
0V
1I
#930000
1!
1U
1V
0I
1R!
0Q!
1N!
0L!
1K!
0J!
1H!
1<!
1F!
0G!
0&!
14!
01!
1#!
0,!
1+!
0)!
1(!
0!!
1~
0}
1{
0t
1R
1o
0k
0X
0n
0]
0m
1W
13
0H
1G
0D
0;
1B
19
0A
08
1@
17
0>
1p
1l
1P
1k
1X
1n
0(
0-
1.
00
11
0%
0z
1t
0R
0l
0P
05
#940000
0!
0U
0V
1I
#950000
1!
1U
1V
0I
1G!
1]
1m
0W
0k
0X
0n
1l
1P
#960000
0!
0U
0V
1I
#970000
1!
1U
1V
0I
0F!
0G!
0o
1k
1X
1n
0]
0m
1W
0l
0P
0n
#980000
0!
0U
0V
1I
#990000
1!
1U
1V
0I
1G!
1]
1m
0W
0p
1n
1z
0t
1R
15
#1000000
0!
0U
0V
1I
#1010000
1!
1U
1V
0I
0R!
1O!
0M!
1L!
0K!
1I!
0<!
1F!
0G!
1;!
06!
03!
1$!
0"!
0+!
1!!
0~
1|
1t
1o
0k
0X
0n
0]
0m
1W
1H
0E
0<
1C
1:
0B
09
1A
18
0?
07!
1p
1l
1P
1k
1X
1n
0&
0.
0z
0t
0l
0P
14
05
#1020000
0!
0U
0V
1I
#1030000
1!
1U
1V
0I
1G!
1]
1m
0W
0k
0X
0n
1l
1P
#1040000
0!
0U
0V
1I
#1050000
1!
1U
1V
0I
0F!
0G!
0o
1k
1X
1n
0]
0m
1W
0l
0P
0n
#1060000
0!
0U
0V
1I
#1070000
1!
1U
1V
0I
1G!
1]
1m
0W
0p
1n
1z
1t
15
#1080000
0!
0U
0V
1I
#1090000
1!
1U
1V
0I
1P!
0N!
1M!
0L!
1J!
1<!
1F!
0G!
11!
1.!
1%!
15!
0#!
1"!
1,!
1+!
0(!
0!!
1}
0t
1T
0R
1o
0k
0X
0n
0]
0m
1W
0F
0=
1D
1;
0C
0:
1B
19
0@
07
17!
1q
1p
1l
1P
1k
1X
1n
1(
1+
1-
1.
01
0z
1t
0q
1R
0l
0P
04
05
#1100000
0!
0U
0V
1I
#1110000
1!
1U
1V
0I
1G!
1]
1m
0W
0k
0X
0n
1l
1P
#1120000
1$
0!
1x
0U
0V
1I
0y
#1130000
1!
1U
1V
0I
0F!
0G!
0o
1k
1X
1n
0]
0m
1W
0l
0P
0n
#1140000
0!
0U
0V
1I
#1150000
1!
1U
1V
0I
1G!
1]
1m
0W
0p
1n
1z
0t
1q
0R
15
#1160000
0!
0U
0V
1I
#1170000
1!
1U
1V
0I
1Q!
0O!
1N!
0M!
1K!
0H!
0<!
1:!
1F!
0G!
0;!
1&!
02!
0.!
0$!
1#!
0"!
1-!
1*!
1'!
1~
0{
1t
1o
0k
0X
0n
0]
0m
1W
03
0G
1E
1<
0D
0;
1C
1:
0A
08
1>
1p
1l
1P
1k
1X
1n
0'
0+
1,
1/
12
0z
0t
0l
0P
05
#1180000
0!
0U
0V
1I
#1190000
1!
1U
1V
0I
1G!
1]
1m
0W
0k
0X
0n
1l
1P
#1200000
0!
0U
0V
1I
#1210000
1!
1U
1V
0I
0F!
0G!
0o
1k
1X
1n
0]
0m
1W
0l
0P
0n
#1220000
0!
0U
0V
1I
#1230000
1!
1U
1V
0I
1G!
1]
1m
0W
0p
1n
1z
1t
15
#1240000
0!
0U
0V
1I
#1250000
1!
1U
1V
0I
1R!
0P!
1O!
0N!
1L!
0I!
1<!
1F!
0G!
16!
13!
01!
1.!
0%!
1$!
0#!
0,!
0+!
0*!
0'!
1!!
0|
0t
1R
1o
0k
0X
0n
0]
0m
1W
0H
1F
1=
0E
0<
1D
1;
0B
09
1?
07!
1p
1l
1P
1k
1X
1n
1&
0(
1+
0-
0.
0/
02
0z
1t
0R
0l
0P
14
05
#1260000
0!
0U
0V
1I
#1270000
1!
1U
1V
0I
1G!
1]
1m
0W
0k
0X
0n
1l
1P
#1280000
0$
0!
0x
0U
0V
1I
1y
#1290000
1!
1U
1V
0I
0F!
0G!
0o
1k
1X
1n
0]
0m
1W
0l
0P
0n
#1300000
0!
0U
0V
1I
#1310000
1!
1U
1V
0I
1G!
1]
1m
0W
0p
1n
1z
0t
1R
15
#1320000
0!
0U
0V
1I
#1330000
1!
1U
1V
0I
0Q!
1P!
0O!
1M!
0J!
1H!
0<!
1F!
0G!
1;!
0&!
03!
1/!
0.!
1%!
0$!
1"!
0-!
1+!
1*!
1'!
0}
1{
1t
1o
0k
0X
0n
0]
0m
1W
13
1G
0F
0=
1E
1<
0C
0:
1@
17
0>
1p
1l
1P
1k
1X
1n
0&
1*
0+
0,
1.
1/
12
0z
0t
0l
0P
05
#1340000
0!
0U
0V
1I
#1350000
1!
1U
1V
0I
1G!
1]
1m
0W
0k
0X
0n
1l
1P
#1360000
1$
0!
1x
0U
0V
1I
0y
#1370000
1!
1U
1V
0I
0F!
0G!
0o
1k
1X
1n
0]
0m
1W
0l
0P
0n
#1380000
0!
0U
0V
1I
#1390000
1!
1U
1V
0I
1G!
1]
1m
0W
0p
1n
1z
1t
15
#1400000
0!
0U
0V
1I
#1410000
1!
1U
1V
0I
0R!
1Q!
0P!
1N!
0K!
1I!
0H!
1<!
1F!
0G!
1&!
13!
12!
0/!
0%!
1#!
0+!
0*!
1(!
0'!
0~
1|
0{
0t
0T
1S
0R
1o
0k
0X
0n
0]
0m
1W
03
1H
0G
1F
1=
0D
0;
1A
18
0?
1>
0q
1s
1p
1l
1P
1k
1X
1n
1&
1'
0*
0.
0/
11
02
0z
1t
0s
1q
1R
0l
0P
05
#1420000
0!
0U
0V
1I
#1430000
1!
1U
1V
0I
1G!
1]
1m
0W
0k
0X
0n
1l
1P
#1440000
0$
0!
0x
0U
0V
1I
1y
#1450000
1!
1U
1V
0I
0F!
0G!
0o
1k
1X
1n
0]
0m
1W
0l
0P
0n
#1460000
0!
0U
0V
1I
#1470000
1!
1U
1V
0I
1G!
1]
1m
0W
0p
1n
1z
0t
1s
0q
0R
15
#1480000
0!
0U
0V
1I
#1490000
1!
1U
1V
0I
1R!
0Q!
1O!
0L!
1J!
0I!
1H!
0<!
19!
0:!
1F!
0G!
0;!
0&!
04!
11!
1.!
1$!
1,!
1+!
0(!
0!!
1}
0|
1{
1t
1o
0k
0X
0n
0]
0m
1W
13
0H
1G
0E
0<
1B
19
0@
07
1?
0>
1p
1l
1P
1k
1X
1n
1(
1+
1-
1.
01
1%
0z
0t
0l
0P
05
#1500000
0!
0U
0V
1I
#1510000
1!
1U
1V
0I
1G!
1]
1m
0W
0k
0X
0n
1l
1P
#1520000
1$
0!
1x
0U
0V
1I
0y
#1530000
1!
1U
1V
0I
0F!
0G!
0o
1k
1X
1n
0]
0m
1W
0l
0P
0n
#1540000
0!
0U
0V
1I
#1550000
1!
1U
1V
0I
1G!
1]
1m
0W
0p
1n
1z
1t
15
#1560000
0!
0U
0V
1I
#1570000
1!
1U
1V
0I
0R!
1P!
0M!
1K!
0J!
1I!
0H!
1<!
1F!
0G!
14!
03!
02!
01!
0.!
1%!
05!
0"!
0,!
1(!
1~
0}
1|
0{
0t
1R
1o
0k
0X
0n
0]
0m
1W
03
1H
0F
0=
1C
1:
0A
08
1@
17
0?
1>
17!
1p
1l
1P
1k
1X
1n
0&
0'
0(
0+
0-
11
0%
0z
1t
0R
0l
0P
04
05
#1580000
0!
0U
0V
1I
#1590000
1!
1U
1V
0I
1G!
1]
1m
0W
0k
0X
0n
1l
1P
#1600000
0!
0U
0V
1I
#1610000
1!
1U
1V
0I
0F!
0G!
0o
1k
1X
1n
0]
0m
1W
0l
0P
0n
#1620000
0!
0U
0V
1I
#1630000
1!
1U
1V
0I
1G!
1]
1m
0W
0p
1n
1z
0t
1R
15
#1640000
0!
0U
0V
1I
#1650000
1!
1U
1V
0I
1Q!
0N!
1L!
0K!
1J!
0I!
0<!
1F!
0G!
1;!
1&!
15!
04!
10!
1/!
0#!
1,!
0+!
1)!
0(!
1!!
0~
1}
0|
1u
1t
1o
0k
0X
0n
0]
0m
1W
0G
1D
1;
0B
09
1A
18
0@
07
1?
07!
0v
0t
0r
1p
1l
1P
1k
1X
1n
1)
1*
1-
0.
10
01
1%
0s
0R
0z
0l
0P
14
05
#1660000
0!
0U
0V
1I
#1670000
1!
1U
1V
0I
0w
09!
1G!
0;!
0u
0S
1]
1m
0W
06
1r
0k
0X
0n
1l
1P
#1680000
0!
0U
0V
1I
#1690000
1!
1U
1V
0I
0F!
0G!
1k
1X
1n
0]
0m
1W
0l
0P
0n
#1700000
0!
0U
0V
1I
#1710000
1!
1U
1V
0I
1G!
1]
1m
0W
1n
#1720000
0!
0U
0V
1I
#1730000
1!
1U
1V
0I
1F!
0G!
0k
0X
0n
0]
0m
1W
1l
1P
1k
1X
1n
0l
0P
#1740000
0!
0U
0V
1I
#1750000
1!
1U
1V
0I
1G!
1]
1m
0W
0k
0X
0n
1l
1P
#1760000
0!
0U
0V
1I
#1770000
1!
1U
1V
0I
0F!
0G!
1k
1X
1n
0]
0m
1W
0l
0P
0n
#1780000
0!
0U
0V
1I
#1790000
1!
1U
1V
0I
1G!
1]
1m
0W
1n
#1800000
0!
0U
0V
1I
#1810000
1!
1U
1V
0I
1F!
0G!
0k
0X
0n
0]
0m
1W
1l
1P
1k
1X
1n
0l
0P
#1820000
0!
0U
0V
1I
#1830000
1!
1U
1V
0I
1G!
1]
1m
0W
0k
0X
0n
1l
1P
#1840000
0!
0U
0V
1I
#1850000
1!
1U
1V
0I
0F!
0G!
1k
1X
1n
0]
0m
1W
0l
0P
0n
#1860000
0!
0U
0V
1I
#1870000
1!
1U
1V
0I
1G!
1]
1m
0W
1n
#1880000
0!
0U
0V
1I
#1890000
1!
1U
1V
0I
1F!
0G!
0k
0X
0n
0]
0m
1W
1l
1P
1k
1X
1n
0l
0P
#1900000
0!
0U
0V
1I
#1910000
1!
1U
1V
0I
1G!
1]
1m
0W
0k
0X
0n
1l
1P
#1920000
0!
0U
0V
1I
#1930000
1!
1U
1V
0I
0F!
0G!
1k
1X
1n
0]
0m
1W
0l
0P
0n
#1940000
0!
0U
0V
1I
#1950000
1!
1U
1V
0I
1G!
1]
1m
0W
1n
#1960000
0!
0U
0V
1I
#1970000
1!
1U
1V
0I
1F!
0G!
0k
0X
0n
0]
0m
1W
1l
1P
1k
1X
1n
0l
0P
#1980000
0!
0U
0V
1I
#1990000
1!
1U
1V
0I
1G!
1]
1m
0W
0k
0X
0n
1l
1P
#2000000
0$
0!
0x
0U
0V
1I
1y
1v
#2010000
1!
1U
1V
0I
1w
0F!
0G!
0o
1k
1X
1n
0]
0m
1W
16
0l
0P
0n
#2020000
0!
0U
0V
1I
#2030000
1!
1U
1V
0I
1G!
1]
1m
0W
0p
1n
1z
1t
15
#2040000
0!
0U
0V
1I
#2050000
1!
1U
1V
0I
1R!
0O!
1M!
0L!
1K!
0J!
1H!
1<!
1F!
0G!
06!
14!
00!
0$!
1"!
0,!
1+!
0)!
1(!
0!!
1~
0}
1{
0t
1R
1o
0k
0X
0n
0]
0m
1W
13
0H
1E
1<
0C
0:
1B
19
0A
08
1@
17
0>
17!
1p
1l
1P
1k
1X
1n
0)
0-
1.
00
11
0%
0z
1t
0R
0l
0P
04
05
#2060000
0!
0U
0V
1I
#2070000
1!
1U
1V
0I
1G!
1]
1m
0W
0k
0X
0n
1l
1P
#2080000
1$
0!
1x
0U
0V
1I
0y
#2090000
1!
1U
1V
0I
0F!
0G!
0o
1k
1X
1n
0]
0m
1W
0l
0P
0n
#2100000
0!
0U
0V
1I
#2110000
1!
1U
1V
0I
1G!
1]
1m
0W
0p
1n
1z
0t
1R
15
#2120000
0!
0U
0V
1I
#2130000
1!
1U
1V
0I
0P!
1N!
0M!
1L!
0K!
1I!
0H!
0<!
1F!
0G!
1;!
16!
1.!
0%!
05!
1#!
0"!
0+!
1!!
0~
1|
0{
1t
1o
0k
0X
0n
0]
0m
1W
03
1F
1=
0D
0;
1C
1:
0B
09
1A
18
0?
1>
1p
1l
1P
1k
1X
1n
1+
0.
0z
0t
0l
0P
05
#2140000
0!
0U
0V
1I
#2150000
1!
1U
1V
0I
1G!
1]
1m
0W
0k
0X
0n
1l
1P
#2160000
0!
0U
0V
1I
#2170000
1!
1U
1V
0I
0F!
0G!
0o
1k
1X
1n
0]
0m
1W
0l
0P
0n
#2180000
0!
0U
0V
1I
#2190000
1!
1U
1V
0I
1G!
1]
1m
0W
0p
1n
1z
1t
15
#2200000
0!
0U
0V
1I
#2210000
1!
1U
1V
0I
0Q!
1O!
0N!
1M!
0L!
1J!
0I!
1<!
1F!
0G!
0&!
12!
0.!
1$!
0#!
1"!
1,!
1+!
0(!
0!!
1}
0|
0t
1T
0R
1o
0k
0X
0n
0]
0m
1W
1G
0E
0<
1D
1;
0C
0:
1B
19
0@
07
1?
1q
1p
1l
1P
1k
1X
1n
1'
0+
1-
1.
01
0z
1t
0q
1R
0l
0P
05
#2220000
0!
0U
0V
1I
#2230000
1!
1U
1V
0I
1G!
1]
1m
0W
0k
0X
0n
1l
1P
#2240000
0$
0!
0x
0U
0V
1I
1y
#2250000
1!
1U
1V
0I
0F!
0G!
0o
1k
1X
1n
0]
0m
1W
0l
0P
0n
#2260000
0!
0U
0V
1I
#2270000
1!
1U
1V
0I
1G!
1]
1m
0W
0p
1n
1z
0t
1q
0R
15
#2280000
0!
0U
0V
1I
