rx_uart/simulation/qsim/rx_uart.msim.vcd
$comment
	File created using the following command:
		vcd file rx_uart.msim.vcd -direction
$end
$date
	Fri Feb 09 12:40:59 2024
$end
$version
	ModelSim Version 10.1d
$end
$timescale
	1ps
$end
$scope module rx_uart_vlg_vec_tst $end
$var reg 1 ! CLOCK_50 $end
$var reg 1 " IRDA_RXD $end
$var reg 1 # KEY [0:0] $end
$var reg 1 $ SW [0:0] $end
$var reg 1 % UART_RXD $end
$var wire 1 & HEX0 [6] $end
$var wire 1 ' HEX0 [5] $end
$var wire 1 ( HEX0 [4] $end
$var wire 1 ) HEX0 [3] $end
$var wire 1 * HEX0 [2] $end
$var wire 1 + HEX0 [1] $end
$var wire 1 , HEX0 [0] $end
$var wire 1 - HEX1 [6] $end
$var wire 1 . HEX1 [5] $end
$var wire 1 / HEX1 [4] $end
$var wire 1 0 HEX1 [3] $end
$var wire 1 1 HEX1 [2] $end
$var wire 1 2 HEX1 [1] $end
$var wire 1 3 HEX1 [0] $end
$var wire 1 4 LEDG [6] $end
$var wire 1 5 LEDR [2] $end
$var wire 1 6 ctrl_load_counter $end
$var wire 1 7 ctrl_state $end
$var wire 1 8 parity_7sd [6] $end
$var wire 1 9 parity_7sd [5] $end
$var wire 1 : parity_7sd [4] $end
$var wire 1 ; parity_7sd [3] $end
$var wire 1 < parity_7sd [2] $end
$var wire 1 = parity_7sd [1] $end
$var wire 1 > parity_7sd [0] $end
$var wire 1 ? sr_parity [10] $end
$var wire 1 @ sr_parity [9] $end
$var wire 1 A sr_parity [8] $end
$var wire 1 B sr_parity [7] $end
$var wire 1 C sr_parity [6] $end
$var wire 1 D sr_parity [5] $end
$var wire 1 E sr_parity [4] $end
$var wire 1 F sr_parity [3] $end
$var wire 1 G sr_parity [2] $end
$var wire 1 H sr_parity [1] $end
$var wire 1 I sr_parity [0] $end
$var wire 1 J sampler $end
$scope module i1 $end
$var wire 1 K gnd $end
$var wire 1 L vcc $end
$var wire 1 M unknown $end
$var tri1 1 N devclrn $end
$var tri1 1 O devpor $end
$var tri1 1 P devoe $end
$var wire 1 Q baud_rx|count[2]~15_combout $end
$var wire 1 R counter_rx|Add0~0_combout $end
$var wire 1 S CLOCK_50~combout $end
$var wire 1 T CLOCK_50~clkctrl_outclk $end
$var wire 1 U IRDA_RXD~combout $end
$var wire 1 V ctrl_rx|current_state~0_combout $end
$var wire 1 W counter_rx|count[0]~4_combout $end
$var wire 1 X baud_rx|count[0]~11_combout $end
$var wire 1 Y baud_rx|count[10]~19_combout $end
$var wire 1 Z baud_rx|count[3]~18 $end
$var wire 1 [ baud_rx|count[4]~21_combout $end
$var wire 1 \ baud_rx|count[4]~22 $end
$var wire 1 ] baud_rx|count[5]~23_combout $end
$var wire 1 ^ baud_rx|count[5]~24 $end
$var wire 1 _ baud_rx|count[6]~25_combout $end
$var wire 1 ` baud_rx|count[6]~26 $end
$var wire 1 a baud_rx|count[7]~28 $end
$var wire 1 b baud_rx|count[8]~29_combout $end
$var wire 1 c baud_rx|count[7]~27_combout $end
$var wire 1 d baud_rx|Equal3~1_combout $end
$var wire 1 e baud_rx|count[1]~13_combout $end
$var wire 1 f baud_rx|Equal3~0_combout $end
$var wire 1 g baud_rx|count[8]~30 $end
$var wire 1 h baud_rx|count[9]~31_combout $end
$var wire 1 i baud_rx|count[9]~32 $end
$var wire 1 j baud_rx|count[10]~33_combout $end
$var wire 1 k baud_rx|Equal3~2_combout $end
$var wire 1 l baud_rx|Equal3~3_combout $end
$var wire 1 m baud_rx|count[10]~20_combout $end
$var wire 1 n baud_rx|count[0]~12 $end
$var wire 1 o baud_rx|count[1]~14 $end
$var wire 1 p baud_rx|count[2]~16 $end
$var wire 1 q baud_rx|count[3]~17_combout $end
$var wire 1 r ctrl_rx|ctrl_sr_load~0_combout $end
$var wire 1 s ctrl_rx|ctrl_sr_load~1_combout $end
$var wire 1 t counter_rx|count[3]~6_combout $end
$var wire 1 u counter_rx|count[0]~8_combout $end
$var wire 1 v counter_rx|count[1]~5_combout $end
$var wire 1 w counter_rx|count[2]~7_combout $end
$var wire 1 x counter_rx|count[2]~9_combout $end
$var wire 1 y counter_rx|Equal0~0_combout $end
$var wire 1 z ctrl_rx|current_state~1_combout $end
$var wire 1 { ctrl_rx|current_state~regout $end
$var wire 1 | UART_RXD~combout $end
$var wire 1 } sr_rx|tmp_data~11_combout $end
$var wire 1 ~ sr_rx|tmp_data[5]~1_combout $end
$var wire 1 !! sr_rx|tmp_data~10_combout $end
$var wire 1 "! sr_rx|tmp_data~9_combout $end
$var wire 1 #! sr_rx|tmp_data~8_combout $end
$var wire 1 $! sr_rx|tmp_data~7_combout $end
$var wire 1 %! sr_rx|tmp_data~6_combout $end
$var wire 1 &! sr_rx|tmp_data~5_combout $end
$var wire 1 '! sr_rx|tmp_data~4_combout $end
$var wire 1 (! sr_rx|tmp_data~3_combout $end
$var wire 1 )! sr_rx|tmp_data~2_combout $end
$var wire 1 *! sr_rx|tmp_data~0_combout $end
$var wire 1 +! msb_rx|WideOr6~0_combout $end
$var wire 1 ,! msb_rx|WideOr5~0_combout $end
$var wire 1 -! msb_rx|Decoder0~0_combout $end
$var wire 1 .! msb_rx|WideOr3~0_combout $end
$var wire 1 /! msb_rx|WideOr2~0_combout $end
$var wire 1 0! msb_rx|WideOr1~0_combout $end
$var wire 1 1! msb_rx|WideOr0~0_combout $end
$var wire 1 2! lsb_rx|WideOr6~0_combout $end
$var wire 1 3! lsb_rx|WideOr5~0_combout $end
$var wire 1 4! lsb_rx|WideOr4~0_combout $end
$var wire 1 5! lsb_rx|WideOr3~0_combout $end
$var wire 1 6! lsb_rx|WideOr2~0_combout $end
$var wire 1 7! lsb_rx|WideOr1~0_combout $end
$var wire 1 8! lsb_rx|WideOr0~0_combout $end
$var wire 1 9! parity_rx|p_check_out~1_combout $end
$var wire 1 :! parity_rx|p_check_out~0_combout $end
$var wire 1 ;! parity_rx|p_check_out~combout $end
$var wire 1 <! counter_rx|count [3] $end
$var wire 1 =! counter_rx|count [2] $end
$var wire 1 >! counter_rx|count [1] $end
$var wire 1 ?! counter_rx|count [0] $end
$var wire 1 @! baud_rx|count [10] $end
$var wire 1 A! baud_rx|count [9] $end
$var wire 1 B! baud_rx|count [8] $end
$var wire 1 C! baud_rx|count [7] $end
$var wire 1 D! baud_rx|count [6] $end
$var wire 1 E! baud_rx|count [5] $end
$var wire 1 F! baud_rx|count [4] $end
$var wire 1 G! baud_rx|count [3] $end
$var wire 1 H! baud_rx|count [2] $end
$var wire 1 I! baud_rx|count [1] $end
$var wire 1 J! baud_rx|count [0] $end
$var wire 1 K! sr_rx|tmp_data [10] $end
$var wire 1 L! sr_rx|tmp_data [9] $end
$var wire 1 M! sr_rx|tmp_data [8] $end
$var wire 1 N! sr_rx|tmp_data [7] $end
$var wire 1 O! sr_rx|tmp_data [6] $end
$var wire 1 P! sr_rx|tmp_data [5] $end
$var wire 1 Q! sr_rx|tmp_data [4] $end
$var wire 1 R! sr_rx|tmp_data [3] $end
$var wire 1 S! sr_rx|tmp_data [2] $end
$var wire 1 T! sr_rx|tmp_data [1] $end
$var wire 1 U! sr_rx|tmp_data [0] $end
$var wire 1 V! SW~combout [0] $end
$var wire 1 W! KEY~combout [0] $end
$upscope $end
$upscope $end
$enddefinitions $end
#0
$dumpvars
0!
0"
b1 #
b1 $
1%
x,
x+
x*
x)
x(
x'
x&
x3
x2
x1
x0
x/
x.
x-
x4
x5
x6
x7
x>
x=
x<
x;
x:
x9
x8
xI
xH
xG
xF
xE
xD
xC
xB
xA
x@
x?
xJ
0K
1L
xM
1N
1O
1P
xQ
xR
0S
xT
0U
xV
xW
xX
xY
xZ
x[
x\
x]
x^
x_
x`
xa
xb
xc
xd
xe
xf
xg
xh
xi
xj
xk
xl
xm
xn
xo
xp
xq
xr
xs
xt
xu
xv
xw
xx
xy
xz
0{
1|
x}
x~
x!!
x"!
x#!
x$!
x%!
x&!
x'!
x(!
x)!
x*!
x+!
x,!
x-!
x.!
x/!
x0!
x1!
x2!
x3!
x4!
x5!
x6!
x7!
x8!
x9!
x:!
x;!
0?!
0>!
0=!
0<!
0J!
0I!
0H!
0G!
0F!
0E!
0D!
0C!
0B!
0A!
0@!
0U!
0T!
0S!
0R!
0Q!
0P!
0O!
0N!
0M!
0L!
0K!
1V!
1W!
$end
#118
0T
#460
0!!
#463
0"!
#466
0%!
#467
0f
#599
0$!
#639
0'!
#658
0#!
#674
1r
#710
1i
1^
#711
0n
#735
0y
#738
1X
#739
1d
#745
0g
#750
1o
0p
#779
0R
#815
1Z
#816
03!
02!
#817
06!
#818
0)!
#861
0&!
#880
1k
#883
0`
#884
0\
#910
0.!
#912
0/!
#916
1a
#939
08!
#940
07!
04!
#1010
05!
1l
#1013
0(!
#1054
1s
#1120
0_
0j
#1121
0e
#1148
0v
#1155
0h
#1160
0q
0Q
#1170
0,!
#1173
0+!
#1221
0w
#1225
0[
0*!
#1293
0c
#1294
0]
#1298
09!
#1326
0b
#1476
0t
#1616
0x
#1744
0:!
#1892
0u
#1947
11!
#1971
00!
#1977
0-!
#2338
0;!
#3516
0;
0D
#3525
0@
#3538
0H
#3543
0<
#3553
0E
#3587
0>
0G
#3716
0?
#3754
0A
0I
#3765
07
#3766
14
#3784
08
#3789
0=
0F
#3821
0:
#3841
0C
#3877
0B
#3944
00
#4006
0/
#4097
09
#4371
02
#4414
03
#4773
06
#5051
01
#5290
0.
#5292
1-
#5295
0Y
#5299
0V
#5472
0,
#5582
0'
#5880
0+
#5974
0z
#6002
1m
#6023
15
#6207
0(
#6263
1&
#6342
0)
#6487
0*
#6624
1W
#6857
1}
#6863
0~
#10000
1!
0J
#10999
1S
#11117
1T
#20000
0!
1J
#20999
0S
#21117
0T
#30000
1!
0J
#30999
1S
#31117
1T
#40000
0%
0!
1J
#40882
0|
#40999
0S
#41117
0T
#50000
1!
0J
#50999
1S
#51117
1T
#60000
0!
1J
#60999
0S
#61117
0T
#70000
1!
0J
#70999
1S
#71117
1T
#80000
0!
1J
#80999
0S
#81117
0T
#90000
1!
0J
#90999
1S
#91117
1T
#100000
0!
1J
#100999
0S
#101117
0T
#110000
1!
0J
#110999
1S
#111117
1T
#120000
0!
1J
#120999
0S
#121117
0T
#130000
1!
0J
#130999
1S
#131117
1T
#140000
0!
1J
#140999
0S
#141117
0T
#150000
1!
0J
#150999
1S
#151117
1T
#160000
0!
1J
#160999
0S
#161117
0T
#170000
1!
0J
#170999
1S
#171117
1T
#180000
0!
1J
#180999
0S
#181117
0T
#190000
1!
0J
#190999
1S
#191117
1T
#200000
1"
0!
1J
#200872
1U
#200999
0S
#201117
0T
#206167
1Y
#206171
1V
#206174
0}
#206846
1z
#206874
0m
#210000
1!
0J
#210999
1S
#211117
1T
#212944
1J!
1{
#213655
1n
#213682
0X
#213843
0V
#214065
1e
#216709
17
#220000
0"
0!
1J
#220872
0U
#220999
0S
#221117
0T
#226174
1}
#230000
1!
0J
#230999
1S
#231117
1T
#232944
1I!
0J!
#233655
0n
#233682
1X
#240000
0!
1J
#240999
0S
#241117
0T
#250000
1!
0J
#250999
1S
#251117
1T
#252944
1J!
#253655
1n
#253682
0X
#253726
0o
#254065
0e
#254136
1Q
#260000
0!
1J
#260999
0S
#261117
0T
#270000
1!
0J
#270999
1S
#271117
1T
#272944
1H!
0I!
0J!
#273655
0n
#273682
1X
#273694
1p
1o
#273765
0p
#280000
0!
1J
#280999
0S
#281117
0T
#290000
1!
0J
#290999
1S
#291117
1T
#292944
1J!
#293655
1n
#293682
0X
#294065
1e
#300000
0!
1J
#300999
0S
#301117
0T
#310000
1!
0J
#310999
1S
#311117
1T
#312944
1I!
0J!
#313655
0n
#313682
1X
#320000
0!
1J
#320999
0S
#321117
0T
#330000
1!
0J
#330999
1S
#331117
1T
#332944
1J!
#333651
1f
#333655
1n
#333682
0X
#333726
0o
#333797
1p
#334065
0e
#334136
0Q
#334207
1q
#340000
0!
1J
#340999
0S
#341117
0T
#350000
1!
0J
#350999
1S
#351117
1T
#352944
0H!
0I!
0J!
1G!
#353411
0f
#353655
0n
#353682
1X
#353694
0p
1o
0q
#353835
0r
#354104
1q
#360000
1%
0!
1J
#360882
1|
#360999
0S
#361117
0T
#370000
1!
0J
#370999
1S
#371117
1T
#372944
1J!
#373655
1n
#373682
0X
#374065
1e
#380000
0!
1J
#380999
0S
#381117
0T
#390000
1!
0J
#390999
1S
#391117
1T
#392944
1I!
0J!
#393655
0n
#393682
1X
#400000
0!
1J
#400999
0S
#401117
0T
#410000
1!
0J
#410999
1S
#411117
1T
#412944
1J!
#413655
1n
#413682
0X
#413726
0o
#414065
0e
#414136
1Q
#420000
0!
1J
#420999
0S
#421117
0T
#430000
1!
0J
#430999
1S
#431117
1T
#432944
1H!
0I!
0J!
#433655
0n
#433682
1X
#433694
1p
1o
#433765
0p
#440000
0!
1J
#440999
0S
#441117
0T
#450000
1!
0J
#450999
1S
#451117
1T
#452944
1J!
#453655
1n
#453682
0X
#454065
1e
#460000
0!
1J
#460999
0S
#461117
0T
#470000
1!
0J
#470999
1S
#471117
1T
#472944
1I!
0J!
#473655
0n
#473682
1X
#480000
0!
1J
#480999
0S
#481117
0T
#490000
1!
0J
#490999
1S
#491117
1T
#492944
1J!
#493651
1f
#493655
1n
#493682
0X
#493726
0o
#493797
1p
#493956
0Z
#494065
0e
#494136
0Q
#494194
0l
#494207
0q
#494238
0s
#494366
1[
#494592
1m
#494645
1~
#495076
1u
#497957
16
#500000
0!
1J
#500999
0S
#501117
0T
#510000
1!
0J
#510999
1S
#511117
1T
#512943
1?!
#512944
0H!
0I!
0J!
0G!
1K!
#513266
0u
#513404
1!!
#513411
0f
#513655
0n
#513682
1X
#513694
0p
1o
1q
#513759
1Z
#513835
1r
#513954
1l
#513998
1s
#514091
1v
#514104
0q
#514169
0[
#514352
0m
#514405
0~
#514836
1u
#515071
0v
#516660
1?
#516710
04
#517717
06
#520000
0!
1J
#520999
0S
#521117
0T
#530000
1!
0J
#530999
1S
#531117
1T
#532944
1J!
#533655
1n
#533682
0X
#534065
1e
#540000
0!
1J
#540999
0S
#541117
0T
#550000
1!
0J
#550999
1S
#551117
1T
#552944
1I!
0J!
#553655
0n
#553682
1X
#560000
0!
1J
#560999
0S
#561117
0T
#570000
1!
0J
#570999
1S
#571117
1T
#572944
1J!
#573655
1n
#573682
0X
#573726
0o
#574065
0e
#574136
1Q
#580000
0!
1J
#580999
0S
#581117
0T
#590000
1!
0J
#590999
1S
#591117
1T
#592944
1H!
0I!
0J!
#593655
0n
#593682
1X
#593694
1p
1o
#593765
0p
#600000
0!
1J
#600999
0S
#601117
0T
#610000
1!
0J
#610999
1S
#611117
1T
#612944
1J!
#613655
1n
#613682
0X
#614065
1e
#620000
0!
1J
#620999
0S
#621117
0T
#630000
1!
0J
#630999
1S
#631117
1T
#632944
1I!
0J!
#633655
0n
#633682
1X
#640000
0!
1J
#640999
0S
#641117
0T
#650000
1!
0J
#650999
1S
#651117
1T
#652944
1J!
#653651
1f
#653655
1n
#653682
0X
#653726
0o
#653797
1p
#654065
0e
#654136
0Q
#654207
1q
#660000
0!
1J
#660999
0S
#661117
0T
#670000
1!
0J
#670999
1S
#671117
1T
#672944
0H!
0I!
0J!
1G!
#673411
0f
#673655
0n
#673682
1X
#673694
0p
1o
0q
#673835
0r
#674104
1q
#680000
0!
1J
#680999
0S
#681117
0T
#690000
1!
0J
#690999
1S
#691117
1T
#692944
1J!
#693655
1n
#693682
0X
#694065
1e
#700000
0!
1J
#700999
0S
#701117
0T
#710000
1!
0J
#710999
1S
#711117
1T
#712944
1I!
0J!
#713655
0n
#713682
1X
#720000
0!
1J
#720999
0S
#721117
0T
#730000
1!
0J
#730999
1S
#731117
1T
#732944
1J!
#733655
1n
#733682
0X
#733726
0o
#734065
0e
#734136
1Q
#740000
0!
1J
#740999
0S
#741117
0T
#750000
1!
0J
#750999
1S
#751117
1T
#752944
1H!
0I!
0J!
#753655
0n
#753682
1X
#753694
1p
1o
#753765
0p
#760000
0!
1J
#760999
0S
#761117
0T
#770000
1!
0J
#770999
1S
#771117
1T
#772944
1J!
#773655
1n
#773682
0X
#774065
1e
#780000
0!
1J
#780999
0S
#781117
0T
#790000
1!
0J
#790999
1S
#791117
1T
#792944
1I!
0J!
#793655
0n
#793682
1X
#800000
0!
1J
#800999
0S
#801117
0T
#810000
1!
0J
#810999
1S
#811117
1T
#812944
1J!
#813651
1f
#813655
1n
#813682
0X
#813726
0o
#813797
1p
#813956
0Z
#814065
0e
#814136
0Q
#814194
0l
#814207
0q
#814238
0s
#814366
1[
#814592
1m
#814645
1~
#815076
0u
#815311
1v
#817957
16
#820000
0!
1J
#820999
0S
#821117
0T
#830000
1!
0J
#830999
1S
#831117
1T
#832943
0?!
#832944
0H!
0I!
0J!
0G!
1>!
1L!
#833266
1u
#833267
0v
#833407
1"!
#833411
0f
#833655
0n
#833682
1X
#833694
0p
1o
1q
#833759
1Z
#833835
1r
#833954
1l
#833998
1s
#834091
1v
#834104
0q
#834169
0[
#834242
19!
#834352
0m
#834405
0~
#834764
1;!
#834836
0u
#836469
1@
#837717
06
#838449
05
#840000
0!
1J
#840999
0S
#841117
0T
#850000
1!
0J
#850999
1S
#851117
1T
#852944
1J!
#853655
1n
#853682
0X
#854065
1e
#860000
0!
1J
#860999
0S
#861117
0T
#870000
1!
0J
#870999
1S
#871117
1T
#872944
1I!
0J!
#873655
0n
#873682
1X
#880000
0!
1J
#880999
0S
#881117
0T
#890000
1!
0J
#890999
1S
#891117
1T
#892944
1J!
#893655
1n
#893682
0X
#893726
0o
#894065
0e
#894136
1Q
#900000
0!
1J
#900999
0S
#901117
0T
#910000
1!
0J
#910999
1S
#911117
1T
#912944
1H!
0I!
0J!
#913655
0n
#913682
1X
#913694
1p
1o
#913765
0p
#920000
0!
1J
#920999
0S
#921117
0T
#930000
1!
0J
#930999
1S
#931117
1T
#932944
1J!
#933655
1n
#933682
0X
#934065
1e
#940000
0!
1J
#940999
0S
#941117
0T
#950000
1!
0J
#950999
1S
#951117
1T
#952944
1I!
0J!
#953655
0n
#953682
1X
#960000
0!
1J
#960999
0S
#961117
0T
#970000
1!
0J
#970999
1S
#971117
1T
#972944
1J!
#973651
1f
#973655
1n
#973682
0X
#973726
0o
#973797
1p
#974065
0e
#974136
0Q
#974207
1q
#980000
0!
1J
#980999
0S
#981117
0T
#990000
1!
0J
#990999
1S
#991117
1T
#992944
0H!
0I!
0J!
1G!
#993411
0f
#993655
0n
#993682
1X
#993694
0p
1o
0q
#993835
0r
#994104
1q
#1000000
0!
1J
#1000999
0S
#1001117
0T
#1010000
1!
0J
#1010999
1S
#1011117
1T
#1012944
1J!
#1013655
1n
#1013682
0X
#1014065
1e
#1020000
0!
1J
#1020999
0S
#1021117
0T
#1030000
1!
0J
#1030999
1S
#1031117
1T
#1032944
1I!
0J!
#1033655
0n
#1033682
1X
#1040000
0!
1J
#1040999
0S
#1041117
0T
#1050000
1!
0J
#1050999
1S
#1051117
1T
#1052944
1J!
#1053655
1n
#1053682
0X
#1053726
0o
#1054065
0e
#1054136
1Q
#1060000
0!
1J
#1060999
0S
#1061117
0T
#1070000
1!
0J
#1070999
1S
#1071117
1T
#1072944
1H!
0I!
0J!
#1073655
0n
#1073682
1X
#1073694
1p
1o
#1073765
0p
#1080000
0!
1J
#1080999
0S
#1081117
0T
#1090000
1!
0J
#1090999
1S
#1091117
1T
#1092944
1J!
#1093655
1n
#1093682
0X
#1094065
1e
#1100000
0!
1J
#1100999
0S
#1101117
0T
#1110000
1!
0J
#1110999
1S
#1111117
1T
#1112944
1I!
0J!
#1113655
0n
#1113682
1X
#1120000
0!
1J
#1120999
0S
#1121117
0T
#1130000
1!
0J
#1130999
1S
#1131117
1T
#1132944
1J!
#1133651
1f
#1133655
1n
#1133682
0X
#1133726
0o
#1133797
1p
#1133956
0Z
#1134065
0e
#1134136
0Q
#1134194
0l
#1134207
0q
#1134238
0s
#1134366
1[
#1134592
1m
#1134645
1~
#1135076
1u
#1137957
16
#1140000
0!
1J
#1140999
0S
#1141117
0T
#1150000
1!
0J
#1150999
1S
#1151117
1T
#1152943
1?!
#1152944
0H!
0I!
0J!
0G!
1M!
#1153266
0u
#1153411
0f
#1153602
1#!
#1153607
09!
#1153655
0n
#1153682
1X
#1153694
0p
1o
1q
#1153759
1Z
#1153835
1r
#1153875
1w
#1153954
1l
#1153975
1/!
#1153977
01!
#1153978
1.!
#1153998
1s
#1154091
0v
#1154104
0q
#1154117
1+!
#1154129
0;!
#1154169
0[
#1154270
1x
#1154352
0m
#1154405
0~
#1154407
0w
#1154802
0x
#1154836
1u
#1155071
1v
#1156698
1A
#1156728
18
#1157012
10
#1157069
1/
#1157322
0-
#1157358
13
#1157717
06
#1157814
15
#1160000
0!
1J
#1160999
0S
#1161117
0T
#1170000
1!
0J
#1170999
1S
#1171117
1T
#1172944
1J!
#1173655
1n
#1173682
0X
#1174065
1e
#1180000
0!
1J
#1180999
0S
#1181117
0T
#1190000
1!
0J
#1190999
1S
#1191117
1T
#1192944
1I!
0J!
#1193655
0n
#1193682
1X
#1200000
0!
1J
#1200999
0S
#1201117
0T
#1210000
1!
0J
#1210999
1S
#1211117
1T
#1212944
1J!
#1213655
1n
#1213682
0X
#1213726
0o
#1214065
0e
#1214136
1Q
#1220000
0!
1J
#1220999
0S
#1221117
0T
#1230000
1!
0J
#1230999
1S
#1231117
1T
#1232944
1H!
0I!
0J!
#1233655
0n
#1233682
1X
#1233694
1p
1o
#1233765
0p
#1240000
0!
1J
#1240999
0S
#1241117
0T
#1250000
1!
0J
#1250999
1S
#1251117
1T
#1252944
1J!
#1253655
1n
#1253682
0X
#1254065
1e
#1260000
0!
1J
#1260999
0S
#1261117
0T
#1270000
1!
0J
#1270999
1S
#1271117
1T
#1272944
1I!
0J!
#1273655
0n
#1273682
1X
#1280000
0!
1J
#1280999
0S
#1281117
0T
#1290000
1!
0J
#1290999
1S
#1291117
1T
#1292944
1J!
#1293651
1f
#1293655
1n
#1293682
0X
#1293726
0o
#1293797
1p
#1294065
0e
#1294136
0Q
#1294207
1q
#1300000
0!
1J
#1300999
0S
#1301117
0T
#1310000
1!
0J
#1310999
1S
#1311117
1T
#1312944
0H!
0I!
0J!
1G!
#1313411
0f
#1313655
0n
#1313682
1X
#1313694
0p
1o
0q
#1313835
0r
#1314104
1q
#1320000
0%
0!
1J
#1320882
0|
#1320999
0S
#1321117
0T
#1330000
1!
0J
#1330999
1S
#1331117
1T
#1332944
1J!
#1333655
1n
#1333682
0X
#1334065
1e
#1340000
0!
1J
#1340999
0S
#1341117
0T
#1350000
1!
0J
#1350999
1S
#1351117
1T
#1352944
1I!
0J!
#1353655
0n
#1353682
1X
#1360000
0!
1J
#1360999
0S
#1361117
0T
#1370000
1!
0J
#1370999
1S
#1371117
1T
#1372944
1J!
#1373655
1n
#1373682
0X
#1373726
0o
#1374065
0e
#1374136
1Q
#1380000
0!
1J
#1380999
0S
#1381117
0T
#1390000
1!
0J
#1390999
1S
#1391117
1T
#1392944
1H!
0I!
0J!
#1393655
0n
#1393682
1X
#1393694
1p
1o
#1393765
0p
#1400000
0!
1J
#1400999
0S
#1401117
0T
#1410000
1!
0J
#1410999
1S
#1411117
1T
#1412944
1J!
#1413655
1n
#1413682
0X
#1414065
1e
#1420000
0!
1J
#1420999
0S
#1421117
0T
#1430000
1!
0J
#1430999
1S
#1431117
1T
#1432944
1I!
0J!
#1433655
0n
#1433682
1X
#1440000
0!
1J
#1440999
0S
#1441117
0T
#1450000
1!
0J
#1450999
1S
#1451117
1T
#1452944
1J!
#1453651
1f
#1453655
1n
#1453682
0X
#1453726
0o
#1453797
1p
#1453956
0Z
#1454065
0e
#1454136
0Q
#1454194
0l
#1454207
0q
#1454238
0s
#1454366
1[
#1454592
1m
#1454645
1~
#1454647
1w
#1455042
1x
#1455076
0u
#1455311
0v
#1457957
16
#1460000
0!
1J
#1460999
0S
#1461117
0T
#1470000
1!
0J
#1470999
1S
#1471117
1T
#1472943
0?!
#1472944
0H!
0I!
0J!
0G!
0>!
1=!
1N!
#1473266
1u
#1473267
1:!
1v
#1473411
0f
#1473543
1$!
#1473655
0n
#1473682
1X
#1473694
0p
1o
1q
#1473759
1Z
#1473835
1r
#1473861
1;!
#1473954
1l
#1473998
1s
#1474091
0v
#1474104
0q
#1474169
0[
#1474352
0m
#1474405
0~
#1474828
0+!
#1474836
0u
#1474837
1,!
#1474888
0/!
#1474891
0.!
#1476821
1B
#1477041
19
#1477546
05
#1477717
06
#1477925
00
#1477982
0/
#1478038
12
#1478069
03
#1480000
1"
0!
1J
#1480872
1U
#1480999
0S
#1481117
0T
#1486174
0}
#1490000
1!
0J
#1490999
1S
#1491117
1T
#1492944
1J!
#1493655
1n
#1493682
0X
#1494065
1e
#1500000
0"
0!
1J
#1500872
0U
#1500999
0S
#1501117
0T
#1506174
1}
#1510000
1!
0J
#1510999
1S
#1511117
1T
#1512944
1I!
0J!
#1513655
0n
#1513682
1X
#1520000
0!
1J
#1520999
0S
#1521117
0T
#1530000
1!
0J
#1530999
1S
#1531117
1T
#1532944
1J!
#1533655
1n
#1533682
0X
#1533726
0o
#1534065
0e
#1534136
1Q
#1540000
0!
1J
#1540999
0S
#1541117
0T
#1550000
1!
0J
#1550999
1S
#1551117
1T
#1552944
1H!
0I!
0J!
#1553655
0n
#1553682
1X
#1553694
1p
1o
#1553765
0p
#1560000
0!
1J
#1560999
0S
#1561117
0T
#1570000
1!
0J
#1570999
1S
#1571117
1T
#1572944
1J!
#1573655
1n
#1573682
0X
#1574065
1e
#1580000
0!
1J
#1580999
0S
#1581117
0T
#1590000
1!
0J
#1590999
1S
#1591117
1T
#1592944
1I!
0J!
#1593655
0n
#1593682
1X
#1600000
0!
1J
#1600999
0S
#1601117
0T
#1610000
1!
0J
#1610999
1S
#1611117
1T
#1612944
1J!
#1613651
1f
#1613655
1n
#1613682
0X
#1613726
0o
#1613797
1p
#1614065
0e
#1614136
0Q
#1614207
1q
#1620000
0!
1J
#1620999
0S
#1621117
0T
#1630000
1!
0J
#1630999
1S
#1631117
1T
#1632944
0H!
0I!
0J!
1G!
#1633411
0f
#1633655
0n
#1633682
1X
#1633694
0p
1o
0q
#1633835
0r
#1634104
1q
#1640000
0!
1J
#1640999
0S
#1641117
0T
#1650000
1!
0J
#1650999
1S
#1651117
1T
#1652944
1J!
#1653655
1n
#1653682
0X
#1654065
1e
#1660000
0!
1J
#1660999
0S
#1661117
0T
#1670000
1!
0J
#1670999
1S
#1671117
1T
#1672944
1I!
0J!
#1673655
0n
#1673682
1X
#1680000
0!
1J
#1680999
0S
#1681117
0T
#1690000
1!
0J
#1690999
1S
#1691117
1T
#1692944
1J!
#1693655
1n
#1693682
0X
#1693726
0o
#1694065
0e
#1694136
1Q
#1700000
0!
1J
#1700999
0S
#1701117
0T
#1710000
1!
0J
#1710999
1S
#1711117
1T
#1712944
1H!
0I!
0J!
#1713655
0n
#1713682
1X
#1713694
1p
1o
#1713765
0p
#1720000
0!
1J
#1720999
0S
#1721117
0T
#1730000
1!
0J
#1730999
1S
#1731117
1T
#1732944
1J!
#1733655
1n
#1733682
0X
#1734065
1e
#1740000
0!
1J
#1740999
0S
#1741117
0T
#1750000
1!
0J
#1750999
1S
#1751117
1T
#1752944
1I!
0J!
#1753655
0n
#1753682
1X
#1760000
0!
1J
#1760999
0S
#1761117
0T
#1770000
1!
0J
#1770999
1S
#1771117
1T
#1772944
1J!
#1773651
1f
#1773655
1n
#1773682
0X
#1773726
0o
#1773797
1p
#1773956
0Z
#1774065
0e
#1774136
0Q
#1774194
0l
#1774207
0q
#1774238
0s
#1774366
1[
#1774592
1m
#1774645
1~
#1775076
1u
#1777957
16
#1780000
0!
1J
#1780999
0S
#1781117
0T
#1790000
1!
0J
#1790999
1S
#1791117
1T
#1792943
1?!
#1792944
0H!
0I!
0J!
0G!
1O!
#1793266
0u
#1793410
1%!
#1793411
0f
#1793412
0:!
#1793655
0n
#1793682
1X
#1793694
0p
1o
1q
#1793759
1Z
#1793835
1r
#1793854
11!
1.!
#1793856
1/!
10!
#1793954
1l
#1793998
1s
#1794006
0;!
#1794091
1v
#1794104
0q
#1794169
0[
#1794238
0,!
#1794352
0m
#1794405
0~
#1794836
1u
#1795071
0v
#1796765
1:
#1796785
1C
#1796888
10
#1796950
1/
#1797175
1.
#1797199
1-
#1797439
02
#1797691
15
#1797717
06
#1800000
1"
0!
1J
#1800872
1U
#1800999
0S
#1801117
0T
#1806174
0}
#1810000
1!
0J
#1810999
1S
#1811117
1T
#1812944
1J!
#1813655
1n
#1813682
0X
#1814065
1e
#1820000
0"
0!
1J
#1820872
0U
#1820999
0S
#1821117
0T
#1826174
1}
#1830000
1!
0J
#1830999
1S
#1831117
1T
#1832944
1I!
0J!
#1833655
0n
#1833682
1X
#1840000
0!
1J
#1840999
0S
#1841117
0T
#1850000
1!
0J
#1850999
1S
#1851117
1T
#1852944
1J!
#1853655
1n
#1853682
0X
#1853726
0o
#1854065
0e
#1854136
1Q
#1860000
0!
1J
#1860999
0S
#1861117
0T
#1870000
1!
0J
#1870999
1S
#1871117
1T
#1872944
1H!
0I!
0J!
#1873655
0n
#1873682
1X
#1873694
1p
1o
#1873765
0p
#1880000
0!
1J
#1880999
0S
#1881117
0T
#1890000
1!
0J
#1890999
1S
#1891117
1T
#1892944
1J!
#1893655
1n
#1893682
0X
#1894065
1e
#1900000
0!
1J
#1900999
0S
#1901117
0T
#1910000
1!
0J
#1910999
1S
#1911117
1T
#1912944
1I!
0J!
#1913655
0n
#1913682
1X
#1920000
0!
1J
#1920999
0S
#1921117
0T
#1930000
1!
0J
