full_uart/simulation/qsim/full_uart.msim.vcd
$comment
	File created using the following command:
		vcd file full_uart.msim.vcd -direction
$end
$date
	Thu Feb 08 12:14:53 2024
$end
$version
	ModelSim Version 10.1d
$end
$timescale
	1ps
$end
$scope module full_uart_vlg_vec_tst $end
$var reg 1 ! CLOCK_50 $end
$var reg 1 " IRDA_RXD $end
$var reg 4 # KEY [3:0] $end
$var reg 9 $ SW [8:0] $end
$var reg 1 % UART_RXD $end
$var wire 1 & HEX0 [6] $end
$var wire 1 ' HEX0 [5] $end
$var wire 1 ( HEX0 [4] $end
$var wire 1 ) HEX0 [3] $end
$var wire 1 * HEX0 [2] $end
$var wire 1 + HEX0 [1] $end
$var wire 1 , HEX0 [0] $end
$var wire 1 - HEX1 [6] $end
$var wire 1 . HEX1 [5] $end
$var wire 1 / HEX1 [4] $end
$var wire 1 0 HEX1 [3] $end
$var wire 1 1 HEX1 [2] $end
$var wire 1 2 HEX1 [1] $end
$var wire 1 3 HEX1 [0] $end
$var wire 1 4 HEX4 [6] $end
$var wire 1 5 HEX4 [5] $end
$var wire 1 6 HEX4 [4] $end
$var wire 1 7 HEX4 [3] $end
$var wire 1 8 HEX4 [2] $end
$var wire 1 9 HEX4 [1] $end
$var wire 1 : HEX4 [0] $end
$var wire 1 ; HEX5 [6] $end
$var wire 1 < HEX5 [5] $end
$var wire 1 = HEX5 [4] $end
$var wire 1 > HEX5 [3] $end
$var wire 1 ? HEX5 [2] $end
$var wire 1 @ HEX5 [1] $end
$var wire 1 A HEX5 [0] $end
$var wire 1 B IRDA_TXD $end
$var wire 1 C LEDG [6] $end
$var wire 1 D LEDR [2] $end
$var wire 1 E UART_TXD $end
$var wire 1 F rx_ctrl_load_counter $end
$var wire 1 G rx_ctrl_state $end
$var wire 1 H rx_parity_7sd [6] $end
$var wire 1 I rx_parity_7sd [5] $end
$var wire 1 J rx_parity_7sd [4] $end
$var wire 1 K rx_parity_7sd [3] $end
$var wire 1 L rx_parity_7sd [2] $end
$var wire 1 M rx_parity_7sd [1] $end
$var wire 1 N rx_parity_7sd [0] $end
$var wire 1 O rx_sr_parity [10] $end
$var wire 1 P rx_sr_parity [9] $end
$var wire 1 Q rx_sr_parity [8] $end
$var wire 1 R rx_sr_parity [7] $end
$var wire 1 S rx_sr_parity [6] $end
$var wire 1 T rx_sr_parity [5] $end
$var wire 1 U rx_sr_parity [4] $end
$var wire 1 V rx_sr_parity [3] $end
$var wire 1 W rx_sr_parity [2] $end
$var wire 1 X rx_sr_parity [1] $end
$var wire 1 Y rx_sr_parity [0] $end
$var wire 1 Z tx_ctrl_state [1] $end
$var wire 1 [ tx_ctrl_state [0] $end
$var wire 1 \ sampler $end
$scope module i1 $end
$var wire 1 ] gnd $end
$var wire 1 ^ vcc $end
$var wire 1 _ unknown $end
$var tri1 1 ` devclrn $end
$var tri1 1 a devpor $end
$var tri1 1 b devoe $end
$var wire 1 c rx|baud_rx|count[0]~13_combout $end
$var wire 1 d tx|pulser|current_state~regout $end
$var wire 1 e tx|pulser|current_state~0_combout $end
$var wire 1 f tx|counter|count[0]~2_combout $end
$var wire 1 g rx|counter_rx|Add0~0_combout $end
$var wire 1 h rx|counter_rx|count[3]~6_combout $end
$var wire 1 i tx|sr|tmp_data~8_combout $end
$var wire 1 j tx|sr|tmp_data~9_combout $end
$var wire 1 k tx|sr|tmp_data~10_combout $end
$var wire 1 l tx|sr|tmp_data~11_combout $end
$var wire 1 m tx|sr|tmp_data~12_combout $end
$var wire 1 n tx|parity|WideXnor0~0_combout $end
$var wire 1 o tx|parity|WideXnor0~combout $end
$var wire 1 p tx|sr|tmp_data~13_combout $end
$var wire 1 q tx|sr|tmp_data~15_combout $end
$var wire 1 r tx|synchroniser|ff1~0_combout $end
$var wire 1 s tx|synchroniser|ff1~regout $end
$var wire 1 t tx|synchroniser|ff2~regout $end
$var wire 1 u tx|ctrl|ctrl_sr_shift~3_combout $end
$var wire 1 v tx|baud|count[0]~12 $end
$var wire 1 w tx|baud|count[1]~14_combout $end
$var wire 1 x tx|baud|count[4]~21 $end
$var wire 1 y tx|baud|count[5]~22_combout $end
$var wire 1 z tx|baud|count[5]~23 $end
$var wire 1 { tx|baud|count[6]~24_combout $end
$var wire 1 | tx|baud|count[6]~25 $end
$var wire 1 } tx|baud|count[7]~26_combout $end
$var wire 1 ~ tx|baud|count[7]~27 $end
$var wire 1 !! tx|baud|count[8]~28_combout $end
$var wire 1 "! tx|baud|count[8]~29 $end
$var wire 1 #! tx|baud|count[9]~30_combout $end
$var wire 1 $! tx|baud|count[9]~31 $end
$var wire 1 %! tx|baud|count[10]~32_combout $end
$var wire 1 &! tx|ctrl|ctrl_sr_shift~1_combout $end
$var wire 1 '! tx|baud|count[0]~11_combout $end
$var wire 1 (! tx|ctrl|ctrl_sr_shift~2_combout $end
$var wire 1 )! tx|baud|count[5]~13_combout $end
$var wire 1 *! tx|baud|count[1]~15 $end
$var wire 1 +! tx|baud|count[2]~16_combout $end
$var wire 1 ,! tx|baud|count[2]~17 $end
$var wire 1 -! tx|baud|count[3]~18_combout $end
$var wire 1 .! tx|baud|count[3]~19 $end
$var wire 1 /! tx|baud|count[4]~20_combout $end
$var wire 1 0! tx|ctrl|ctrl_sr_shift~0_combout $end
$var wire 1 1! tx|ctrl|ctrl_sr_shift~combout $end
$var wire 1 2! tx|counter|count[0]~7_combout $end
$var wire 1 3! tx|counter|count[1]~3_combout $end
$var wire 1 4! tx|counter|count[2]~5_combout $end
$var wire 1 5! tx|counter|count[2]~6_combout $end
$var wire 1 6! tx|counter|Add0~0_combout $end
$var wire 1 7! tx|counter|count[3]~4_combout $end
$var wire 1 8! tx|counter|Equal0~0_combout $end
$var wire 1 9! tx|ctrl|current_state[0]~3_combout $end
$var wire 1 :! tx|ctrl|current_state[0]~4_combout $end
$var wire 1 ;! tx|ctrl|current_state[1]~6_combout $end
$var wire 1 <! tx|ctrl|current_state[0]~2_combout $end
$var wire 1 =! tx|ctrl|current_state[0]~5_combout $end
$var wire 1 >! tx|ctrl|Equal0~0_combout $end
$var wire 1 ?! tx|sr|tmp_data~7_combout $end
$var wire 1 @! tx|sr|tmp_data[1]~14_combout $end
$var wire 1 A! tx|sr|tmp_data~6_combout $end
$var wire 1 B! tx|sr|tmp_data~5_combout $end
$var wire 1 C! tx|sr|tmp_data~4_combout $end
$var wire 1 D! tx|inv|UART_output~0_combout $end
$var wire 1 E! tx|inv|IRDA_output~1_combout $end
$var wire 1 F! tx|inv|IRDA_output~0_combout $end
$var wire 1 G! tx|inv|IRDA_output~2_combout $end
$var wire 1 H! CLOCK_50~combout $end
$var wire 1 I! CLOCK_50~clkctrl_outclk $end
$var wire 1 J! rx|counter_rx|count[0]~8_combout $end
$var wire 1 K! rx|baud_rx|count[0]~14 $end
$var wire 1 L! rx|baud_rx|count[1]~15_combout $end
$var wire 1 M! UART_RXD~combout $end
$var wire 1 N! rx|baud_rx|count[3]~20 $end
$var wire 1 O! rx|baud_rx|count[4]~22 $end
$var wire 1 P! rx|baud_rx|count[5]~23_combout $end
$var wire 1 Q! rx|baud_rx|count[5]~24 $end
$var wire 1 R! rx|baud_rx|count[6]~25_combout $end
$var wire 1 S! rx|baud_rx|count[6]~26 $end
$var wire 1 T! rx|baud_rx|count[7]~27_combout $end
$var wire 1 U! rx|baud_rx|count[7]~28 $end
$var wire 1 V! rx|baud_rx|count[8]~30 $end
$var wire 1 W! rx|baud_rx|count[9]~31_combout $end
$var wire 1 X! rx|baud_rx|count[9]~32 $end
$var wire 1 Y! rx|baud_rx|count[10]~33_combout $end
$var wire 1 Z! rx|baud_rx|Equal2~2_combout $end
$var wire 1 [! rx|baud_rx|count[2]~17_combout $end
$var wire 1 \! rx|baud_rx|count[4]~21_combout $end
$var wire 1 ]! rx|baud_rx|Equal2~0_combout $end
$var wire 1 ^! rx|baud_rx|count[8]~29_combout $end
$var wire 1 _! rx|baud_rx|Equal2~1_combout $end
$var wire 1 `! rx|baud_rx|Equal2~3_combout $end
$var wire 1 a! rx|baud_rx|count[4]~35_combout $end
$var wire 1 b! rx|baud_rx|count[1]~16 $end
$var wire 1 c! rx|baud_rx|count[2]~18 $end
$var wire 1 d! rx|baud_rx|count[3]~19_combout $end
$var wire 1 e! rx|ctrl_rx|ctrl_sr_load~0_combout $end
$var wire 1 f! rx|ctrl_rx|ctrl_sr_load~combout $end
$var wire 1 g! rx|counter_rx|count[2]~7_combout $end
$var wire 1 h! rx|counter_rx|count[2]~9_combout $end
$var wire 1 i! rx|counter_rx|count[0]~4_combout $end
$var wire 1 j! rx|counter_rx|count[1]~5_combout $end
$var wire 1 k! rx|counter_rx|Equal0~0_combout $end
$var wire 1 l! rx|ctrl_rx|current_state~2_combout $end
$var wire 1 m! rx|ctrl_rx|current_state~regout $end
$var wire 1 n! rx|sr_rx|tmp_data~3_combout $end
$var wire 1 o! rx|sr_rx|tmp_data[7]~1_combout $end
$var wire 1 p! rx|sr_rx|tmp_data~2_combout $end
$var wire 1 q! rx|sr_rx|tmp_data~0_combout $end
$var wire 1 r! rx|sr_rx|tmp_data~10_combout $end
$var wire 1 s! rx|sr_rx|tmp_data~9_combout $end
$var wire 1 t! rx|sr_rx|tmp_data~8_combout $end
$var wire 1 u! rx|sr_rx|tmp_data~7_combout $end
$var wire 1 v! rx|sr_rx|tmp_data~6_combout $end
$var wire 1 w! rx|sr_rx|tmp_data~5_combout $end
$var wire 1 x! rx|sr_rx|tmp_data~4_combout $end
$var wire 1 y! rx|sr_rx|tmp_data~11_combout $end
$var wire 1 z! tx|msb|WideOr6~0_combout $end
$var wire 1 {! tx|msb|WideOr5~0_combout $end
$var wire 1 |! tx|msb|Decoder0~0_combout $end
$var wire 1 }! tx|msb|WideOr3~0_combout $end
$var wire 1 ~! tx|msb|WideOr2~0_combout $end
$var wire 1 !" tx|msb|WideOr1~0_combout $end
$var wire 1 "" tx|msb|WideOr0~0_combout $end
$var wire 1 #" tx|lsb|WideOr6~0_combout $end
$var wire 1 $" tx|lsb|WideOr5~0_combout $end
$var wire 1 %" tx|lsb|WideOr4~0_combout $end
$var wire 1 &" tx|lsb|WideOr3~0_combout $end
$var wire 1 '" tx|lsb|WideOr2~0_combout $end
$var wire 1 (" tx|lsb|WideOr1~0_combout $end
$var wire 1 )" tx|lsb|WideOr0~0_combout $end
$var wire 1 *" rx|msb_rx|WideOr6~0_combout $end
$var wire 1 +" rx|msb_rx|WideOr5~0_combout $end
$var wire 1 ," rx|msb_rx|Decoder0~0_combout $end
$var wire 1 -" rx|msb_rx|WideOr3~0_combout $end
$var wire 1 ." rx|msb_rx|WideOr2~0_combout $end
$var wire 1 /" rx|msb_rx|WideOr1~0_combout $end
$var wire 1 0" rx|msb_rx|WideOr0~0_combout $end
$var wire 1 1" rx|lsb_rx|WideOr6~0_combout $end
$var wire 1 2" rx|lsb_rx|WideOr5~0_combout $end
$var wire 1 3" rx|lsb_rx|WideOr4~0_combout $end
$var wire 1 4" rx|lsb_rx|WideOr3~0_combout $end
$var wire 1 5" rx|lsb_rx|WideOr2~0_combout $end
$var wire 1 6" rx|lsb_rx|WideOr1~0_combout $end
$var wire 1 7" rx|lsb_rx|WideOr0~0_combout $end
$var wire 1 8" rx|parity_rx|p_check_out~1_combout $end
$var wire 1 9" rx|parity_rx|p_check_out~0_combout $end
$var wire 1 :" rx|parity_rx|p_check_out~combout $end
$var wire 1 ;" tx|sr|tmp_data [10] $end
$var wire 1 <" tx|sr|tmp_data [9] $end
$var wire 1 =" tx|sr|tmp_data [8] $end
$var wire 1 >" tx|sr|tmp_data [7] $end
$var wire 1 ?" tx|sr|tmp_data [6] $end
$var wire 1 @" tx|sr|tmp_data [5] $end
$var wire 1 A" tx|sr|tmp_data [4] $end
$var wire 1 B" tx|sr|tmp_data [3] $end
$var wire 1 C" tx|sr|tmp_data [2] $end
$var wire 1 D" tx|sr|tmp_data [1] $end
$var wire 1 E" tx|sr|tmp_data [0] $end
$var wire 1 F" tx|counter|count [3] $end
$var wire 1 G" tx|counter|count [2] $end
$var wire 1 H" tx|counter|count [1] $end
$var wire 1 I" tx|counter|count [0] $end
$var wire 1 J" tx|ctrl|current_state [1] $end
$var wire 1 K" tx|ctrl|current_state [0] $end
$var wire 1 L" rx|baud_rx|count [10] $end
$var wire 1 M" rx|baud_rx|count [9] $end
$var wire 1 N" rx|baud_rx|count [8] $end
$var wire 1 O" rx|baud_rx|count [7] $end
$var wire 1 P" rx|baud_rx|count [6] $end
$var wire 1 Q" rx|baud_rx|count [5] $end
$var wire 1 R" rx|baud_rx|count [4] $end
$var wire 1 S" rx|baud_rx|count [3] $end
$var wire 1 T" rx|baud_rx|count [2] $end
$var wire 1 U" rx|baud_rx|count [1] $end
$var wire 1 V" rx|baud_rx|count [0] $end
$var wire 1 W" rx|sr_rx|tmp_data [10] $end
$var wire 1 X" rx|sr_rx|tmp_data [9] $end
$var wire 1 Y" rx|sr_rx|tmp_data [8] $end
$var wire 1 Z" rx|sr_rx|tmp_data [7] $end
$var wire 1 [" rx|sr_rx|tmp_data [6] $end
$var wire 1 \" rx|sr_rx|tmp_data [5] $end
$var wire 1 ]" rx|sr_rx|tmp_data [4] $end
$var wire 1 ^" rx|sr_rx|tmp_data [3] $end
$var wire 1 _" rx|sr_rx|tmp_data [2] $end
$var wire 1 `" rx|sr_rx|tmp_data [1] $end
$var wire 1 a" rx|sr_rx|tmp_data [0] $end
$var wire 1 b" tx|baud|count [10] $end
$var wire 1 c" tx|baud|count [9] $end
$var wire 1 d" tx|baud|count [8] $end
$var wire 1 e" tx|baud|count [7] $end
$var wire 1 f" tx|baud|count [6] $end
$var wire 1 g" tx|baud|count [5] $end
$var wire 1 h" tx|baud|count [4] $end
$var wire 1 i" tx|baud|count [3] $end
$var wire 1 j" tx|baud|count [2] $end
$var wire 1 k" tx|baud|count [1] $end
$var wire 1 l" tx|baud|count [0] $end
$var wire 1 m" rx|counter_rx|count [3] $end
$var wire 1 n" rx|counter_rx|count [2] $end
$var wire 1 o" rx|counter_rx|count [1] $end
$var wire 1 p" rx|counter_rx|count [0] $end
$var wire 1 q" SW~combout [8] $end
$var wire 1 r" SW~combout [7] $end
$var wire 1 s" SW~combout [6] $end
$var wire 1 t" SW~combout [5] $end
$var wire 1 u" SW~combout [4] $end
$var wire 1 v" SW~combout [3] $end
$var wire 1 w" SW~combout [2] $end
$var wire 1 x" SW~combout [1] $end
$var wire 1 y" SW~combout [0] $end
$var wire 1 z" KEY~combout [3] $end
$var wire 1 {" KEY~combout [2] $end
$var wire 1 |" KEY~combout [1] $end
$var wire 1 }" KEY~combout [0] $end
$upscope $end
$upscope $end
$enddefinitions $end
#0
$dumpvars
0!
x"
b1xx1 #
b100111x0 $
1%
0,
0+
0*
0)
0(
0'
1&
03
02
01
00
0/
0.
1-
0:
09
08
17
16
15
14
0A
0@
1?
0>
0=
1<
0;
0B
1C
1D
1E
0F
0G
0N
0M
0L
0K
0J
0I
0H
0Y
0X
0W
0V
0U
0T
0S
0R
0Q
0P
0O
0[
0Z
x\
0]
1^
x_
1`
1a
1b
1c
0d
0e
1f
0g
0h
0i
0j
0k
0l
0m
1n
0o
1p
0q
0r
0s
0t
0u
0v
0w
0x
0y
1z
0{
0|
0}
1~
0!!
0"!
0#!
1$!
0%!
1&!
1'!
0(!
0)!
1*!
0+!
0,!
0-!
1.!
0/!
10!
01!
02!
03!
14!
05!
06!
07!
08!
19!
1:!
0;!
0<!
0=!
1>!
0?!
0@!
0A!
0B!
0C!
1D!
0E!
0F!
0G!
0H!
0I!
0J!
0K!
0L!
1M!
1N!
0O!
0P!
1Q!
0R!
0S!
0T!
1U!
0V!
0W!
1X!
0Y!
1Z!
0[!
0\!
0]!
0^!
1_!
1`!
0a!
1b!
0c!
0d!
1e!
1f!
0g!
0h!
1i!
0j!
0k!
0l!
0m!
0n!
0o!
0p!
0q!
0r!
0s!
0t!
0u!
0v!
0w!
0x!
1y!
0z!
0{!
1|!
0}!
0~!
1!"
0""
0#"
0$"
0%"
1&"
1'"
1("
0)"
0*"
0+"
0,"
0-"
0."
0/"
10"
01"
02"
03"
04"
05"
06"
07"
08"
09"
0:"
0E"
0D"
0C"
0B"
0A"
0@"
0?"
0>"
0="
0<"
0;"
0I"
0H"
0G"
0F"
0K"
0J"
0V"
0U"
0T"
0S"
0R"
0Q"
0P"
0O"
0N"
0M"
0L"
0a"
0`"
0_"
0^"
0]"
0\"
0["
0Z"
0Y"
0X"
0W"
0l"
0k"
0j"
0i"
0h"
0g"
0f"
0e"
0d"
0c"
0b"
0p"
0o"
0n"
0m"
0y"
zx"
1w"
1v"
1u"
0t"
0s"
1r"
0q"
1}"
z|"
z{"
1z"
$end
#10000
1!
1H!
1I!
0\
1l"
1V"
1v
0'!
1K!
0c
1w
1L!
#20000
0!
0H!
0I!
1\
#30000
1!
1H!
1I!
0\
1U"
1k"
0l"
0V"
0b!
0L!
0*!
0w
0v
1'!
0K!
1c
1[!
1+!
1*!
1w
1b!
1L!
0+!
0[!
#40000
b0xx1 #
0!
0z"
0H!
0I!
1\
1r
#50000
1!
1H!
1I!
0\
1l"
1s
1V"
1v
0'!
1K!
0c
0*!
0w
0b!
0L!
1+!
1[!
#60000
b1xx1 #
0!
1z"
0H!
0I!
1\
0r
#70000
1!
1H!
1I!
0\
0U"
1T"
1j"
0k"
0l"
1t
0s
0V"
1b!
1L!
1c!
0[!
1,!
0+!
1*!
1w
0v
1'!
1<!
09!
1e
0K!
1c
0c!
1[!
1d!
1-!
0,!
1+!
0w
0:!
0L!
0d!
0-!
1=!
#80000
0%
0!
0M!
0H!
0I!
1\
0y!
1l!
1a!
#90000
1!
1H!
1I!
0\
1m!
0T"
1K"
1l"
0t
1d
0e!
0a!
0[!
1B!
1@!
0>!
0<!
1;!
1q
1v
0'!
0e
1G
1[
0p
1m
1k
1j
0=!
1w
#100000
0!
0H!
0I!
1\
#110000
1!
1H!
1I!
0\
1D"
0K"
1J"
1k"
0l"
1="
1?"
1@"
0d
1;"
1V"
1C!
0B!
0@!
1>!
0;!
1u
1:!
0*!
0w
0v
1'!
1K!
0c
0[
1Z
0m
1l
0k
1i
1;!
1,!
0+!
1*!
1w
1L!
1-!
0,!
1+!
0-!
#120000
0!
0H!
0I!
1\
#130000
1!
1H!
1I!
0\
1U"
1l"
0V"
0b!
0L!
1E!
1v
0'!
0K!
1c
1[!
0*!
0w
1b!
1L!
1,!
0+!
0[!
1-!
#140000
0!
0H!
0I!
1\
#150000
1!
1H!
1I!
0\
1i"
0j"
0k"
0l"
1V"
0.!
0-!
0,!
1+!
1*!
1w
0v
1'!
1K!
0c
1/!
1.!
1-!
0+!
0w
0b!
0L!
0/!
1[!
#160000
1%
0!
1M!
0H!
0I!
1\
1y!
#170000
1!
1H!
1I!
0\
0U"
1T"
1l"
0V"
1b!
1L!
1c!
0[!
1v
0'!
0K!
1c
0c!
1[!
1d!
1w
0L!
0d!
#180000
0!
0H!
0I!
1\
#190000
1!
1H!
1I!
0\
1k"
0l"
1V"
0*!
0w
0v
1'!
1K!
0c
1+!
1*!
1w
1L!
0+!
#200000
0!
0H!
0I!
1\
#210000
1!
1H!
1I!
0\
1U"
1l"
0V"
0b!
0L!
0E!
1v
0'!
0K!
1c
1c!
0[!
0*!
0w
1b!
1L!
1d!
1+!
0c!
1[!
0d!
#220000
0!
0H!
0I!
1\
#230000
1!
1H!
1I!
0\
1j"
0k"
0l"
1V"
1,!
0+!
1*!
1w
0v
1'!
1]!
1K!
0c
0.!
0-!
0,!
1+!
0w
0f!
0b!
0L!
1/!
1.!
1-!
1o!
1J!
1c!
0[!
1F
0/!
1d!
#240000
0!
0H!
0I!
1\
#250000
1!
1H!
1I!
0\
1W"
1S"
0U"
0T"
1p"
1l"
0V"
1r!
1e!
0`!
0N!
0d!
0]!
1b!
1L!
0c!
1[!
1j!
0J!
1v
0'!
0K!
1c
1O
0C
1f!
1a!
1\!
1`!
0[!
1N!
1d!
1w
0L!
0o!
0j!
1J!
0a!
0\!
0F
#260000
0!
0H!
0I!
1\
#270000
1!
1H!
1I!
0\
1k"
0l"
1V"
0*!
0w
0v
1'!
1K!
0c
1,!
0+!
1*!
1w
1L!
0.!
0-!
0,!
1+!
1/!
1.!
1-!
0/!
#280000
0!
0H!
0I!
1\
#290000
1!
1H!
1I!
0\
1U"
1l"
0V"
0b!
0L!
1(!
1v
0'!
0K!
1c
1[!
11!
1)!
0*!
0w
1b!
1L!
1@!
15!
04!
12!
1,!
0+!
0[!
05!
0.!
0-!
1/!
#300000
0!
0H!
0I!
1\
#310000
1!
1H!
1I!
0\
1E"
0D"
1I"
0i"
0j"
0k"
0l"
0="
1>"
0?"
1A"
1V"
0D!
0C!
13!
02!
1.!
1-!
0(!
0,!
1+!
1*!
1w
0v
1'!
0l
1k
0j
1?!
1K!
0c
0/!
01!
0)!
0-!
0+!
0w
0b!
0L!
0E
0@!
14!
03!
12!
1[!
#320000
0!
0H!
0I!
1\
#330000
1!
1H!
1I!
0\
0U"
1T"
1l"
0V"
1b!
1L!
1c!
0[!
1v
0'!
0K!
1c
0c!
1[!
0N!
0d!
1w
0L!
1N!
1d!
1\!
0\!
#340000
0!
0H!
0I!
1\
#350000
1!
1H!
1I!
0\
1k"
0l"
1V"
0*!
0w
0v
1'!
1K!
0c
1+!
1*!
1w
1L!
0+!
#360000
0!
0H!
0I!
1\
#370000
1!
1H!
1I!
0\
1U"
1l"
0V"
0b!
0L!
1v
0'!
0K!
1c
1c!
0[!
0*!
0w
1b!
1L!
0N!
0d!
1+!
0c!
1[!
1\!
1N!
1d!
0\!
#380000
0!
0H!
0I!
1\
#390000
1!
1H!
1I!
0\
1j"
0k"
0l"
1V"
1,!
0+!
1*!
1w
0v
1'!
1]!
1K!
0c
1-!
0,!
1+!
0w
0`!
0b!
0L!
0-!
1a!
1c!
0[!
0N!
0d!
1\!
#400000
0%
0!
0M!
0H!
0I!
1\
0y!
#410000
1!
1H!
1I!
0\
0S"
0U"
0T"
1l"
0V"
0e!
1`!
1N!
1d!
0]!
1b!
1L!
0c!
1[!
1v
0'!
0K!
1c
0a!
0\!
0[!
0d!
1w
0L!
#420000
0!
0H!
0I!
1\
#430000
1!
1H!
1I!
0\
1k"
0l"
1V"
0*!
0w
0v
1'!
1K!
0c
1,!
0+!
1*!
1w
1L!
1-!
0,!
1+!
0-!
#440000
0!
0H!
0I!
1\
#450000
1!
1H!
1I!
0\
1U"
1l"
0V"
0b!
0L!
1E!
1v
0'!
0K!
1c
1[!
0*!
0w
1b!
1L!
1,!
0+!
0[!
1-!
#460000
0!
0H!
0I!
1\
#470000
1!
1H!
1I!
0\
1i"
0j"
0k"
0l"
1V"
0.!
0-!
0,!
1+!
1*!
1w
0v
1'!
1K!
0c
1/!
1.!
1-!
0+!
0w
0b!
0L!
0/!
1[!
#480000
0!
0H!
0I!
1\
#490000
1!
1H!
1I!
0\
0U"
1T"
1l"
0V"
1b!
1L!
1c!
0[!
1v
0'!
0K!
1c
0c!
1[!
1d!
1w
0L!
0d!
#500000
0!
0H!
0I!
1\
#510000
1!
1H!
1I!
0\
1k"
0l"
1V"
0*!
0w
0v
1'!
1K!
0c
1+!
1*!
1w
1L!
0+!
#520000
0!
0H!
0I!
1\
#530000
1!
1H!
1I!
0\
1U"
1l"
0V"
0b!
0L!
0E!
1v
0'!
0K!
1c
1c!
0[!
0*!
0w
1b!
1L!
1d!
1+!
0c!
1[!
0d!
#540000
0!
0H!
0I!
1\
#550000
1!
1H!
1I!
0\
1j"
0k"
0l"
1V"
1,!
0+!
1*!
1w
0v
1'!
1]!
1K!
0c
0.!
0-!
0,!
1+!
0w
0f!
0b!
0L!
1/!
1.!
1-!
1o!
1j!
0J!
1c!
0[!
1F
0/!
1d!
#560000
1%
0!
1M!
0H!
0I!
1\
1y!
#570000
1!
1H!
1I!
0\
1X"
1o"
1S"
0U"
0T"
0p"
1l"
0V"
18"
1s!
1e!
0`!
0N!
0d!
0]!
1b!
1L!
0c!
1[!
1J!
1v
0'!
0K!
1c
1P
1:"
1f!
1a!
1\!
1`!
0[!
1N!
1d!
1w
0L!
0o!
0J!
0a!
0\!
0D
0F
#580000
0!
0H!
0I!
1\
#590000
1!
1H!
1I!
0\
1k"
0l"
1V"
0*!
0w
0v
1'!
1K!
0c
1,!
0+!
1*!
1w
1L!
0.!
0-!
0,!
1+!
1/!
1.!
1-!
0/!
#600000
0!
0H!
0I!
1\
#610000
1!
1H!
1I!
0\
1U"
1l"
0V"
0b!
0L!
1(!
1v
0'!
0K!
1c
1[!
11!
1)!
0*!
0w
1b!
1L!
1@!
15!
04!
13!
02!
1,!
0+!
0[!
05!
0.!
0-!
1/!
#620000
0!
0H!
0I!
1\
#630000
1!
1H!
1I!
0\
0E"
1B"
1H"
0I"
0i"
0j"
0k"
0l"
0>"
1?"
0@"
1V"
1D!
1A!
12!
1.!
1-!
0(!
0,!
1+!
1*!
1w
0v
1'!
0k
1j
0i
1K!
0c
0/!
01!
0)!
0-!
0+!
0w
0b!
0L!
1E
0@!
14!
02!
1[!
#640000
0%
0!
0M!
0H!
0I!
1\
0y!
#650000
1!
1H!
1I!
0\
0U"
1T"
1l"
0V"
1b!
1L!
1c!
0[!
1v
0'!
0K!
1c
0c!
1[!
0N!
0d!
1w
0L!
1N!
1d!
1\!
0\!
#660000
0!
0H!
0I!
1\
#670000
1!
1H!
1I!
0\
1k"
0l"
1V"
0*!
0w
0v
1'!
1K!
0c
1+!
1*!
1w
1L!
0+!
#680000
0!
0H!
0I!
1\
#690000
1!
1H!
1I!
0\
1U"
1l"
0V"
0b!
0L!
1v
0'!
0K!
1c
1c!
0[!
0*!
0w
1b!
1L!
0N!
0d!
1+!
0c!
1[!
1\!
1N!
1d!
0\!
#700000
0!
0H!
0I!
1\
#710000
1!
1H!
1I!
0\
1j"
0k"
0l"
1V"
1,!
0+!
1*!
1w
0v
1'!
1]!
1K!
0c
1-!
0,!
1+!
0w
0`!
0b!
0L!
0-!
1a!
1c!
0[!
0N!
0d!
1\!
#720000
1%
0!
1M!
0H!
0I!
1\
1y!
#730000
1!
1H!
1I!
0\
0S"
0U"
0T"
1l"
0V"
0e!
1`!
1N!
1d!
0]!
1b!
1L!
0c!
1[!
1v
0'!
0K!
1c
0a!
0\!
0[!
0d!
1w
0L!
#740000
0!
0H!
0I!
1\
#750000
1!
1H!
1I!
0\
1k"
0l"
1V"
0*!
0w
0v
1'!
1K!
0c
1,!
0+!
1*!
1w
1L!
1-!
0,!
1+!
0-!
#760000
0!
0H!
0I!
1\
#770000
1!
1H!
1I!
0\
1U"
1l"
0V"
0b!
0L!
1E!
1v
0'!
0K!
1c
1[!
0*!
0w
1b!
1L!
1,!
0+!
0[!
1-!
#780000
0!
0H!
0I!
1\
#790000
1!
1H!
1I!
0\
1i"
0j"
0k"
0l"
1V"
0.!
0-!
0,!
1+!
1*!
1w
0v
1'!
1K!
0c
1/!
1.!
1-!
0+!
0w
0b!
0L!
0/!
1[!
#800000
0!
0H!
0I!
1\
#810000
1!
1H!
1I!
0\
0U"
1T"
1l"
0V"
1b!
1L!
1c!
0[!
1v
0'!
0K!
1c
0c!
1[!
1d!
1w
0L!
0d!
#820000
0!
0H!
0I!
1\
#830000
1!
1H!
1I!
0\
1k"
0l"
1V"
0*!
0w
0v
1'!
1K!
0c
1+!
1*!
1w
1L!
0+!
#840000
0!
0H!
0I!
1\
#850000
1!
1H!
1I!
0\
1U"
1l"
0V"
0b!
0L!
0E!
1v
0'!
0K!
1c
1c!
0[!
0*!
0w
1b!
1L!
1d!
1+!
0c!
1[!
0d!
#860000
0!
0H!
0I!
1\
#870000
1!
1H!
1I!
0\
1j"
0k"
0l"
1V"
1,!
0+!
1*!
1w
0v
1'!
1]!
1K!
0c
0.!
0-!
0,!
1+!
0w
0f!
0b!
0L!
1/!
1.!
1-!
1o!
1J!
1c!
0[!
1F
0/!
1d!
#880000
0!
0H!
0I!
1\
#890000
1!
1H!
1I!
0\
1Y"
1S"
0U"
0T"
1p"
1l"
0V"
08"
00"
1."
1-"
1*"
1t!
1e!
0`!
0N!
0d!
0]!
1b!
1L!
0c!
1[!
0j!
1g!
0J!
1v
0'!
0K!
1c
1H
1Q
0:"
1f!
1a!
1\!
1`!
0[!
1N!
1d!
1h!
1w
0L!
0-
1/
10
13
0o!
1j!
0g!
1J!
0a!
0\!
1D
0F
0h!
#900000
0!
0H!
0I!
1\
#910000
1!
1H!
1I!
0\
1k"
0l"
1V"
0*!
0w
0v
1'!
1K!
0c
1,!
0+!
1*!
1w
1L!
0.!
0-!
0,!
1+!
1/!
1.!
1-!
0/!
#920000
0!
0H!
0I!
1\
#930000
1!
1H!
1I!
0\
1U"
1l"
0V"
0b!
0L!
1(!
1v
0'!
0K!
1c
1[!
11!
1)!
0*!
0w
1b!
1L!
1@!
15!
04!
12!
1,!
0+!
0[!
05!
0.!
0-!
1/!
#940000
0!
0H!
0I!
1\
#950000
1!
1H!
1I!
0\
1C"
1I"
0i"
0j"
0k"
0l"
0?"
1@"
0A"
1V"
1B!
14!
03!
02!
1.!
1-!
0(!
0,!
1+!
1*!
1w
0v
1'!
0j
1i
0?!
1K!
0c
15!
0/!
01!
0)!
0-!
0+!
0w
0b!
0L!
0@!
05!
13!
12!
1[!
#960000
0!
0H!
0I!
1\
#970000
1!
1H!
1I!
0\
0U"
1T"
1l"
0V"
1b!
1L!
1c!
0[!
1v
0'!
0K!
1c
0c!
1[!
0N!
0d!
1w
0L!
1N!
1d!
1\!
0\!
#980000
0!
0H!
0I!
1\
#990000
1!
1H!
1I!
0\
1k"
0l"
1V"
0*!
0w
0v
1'!
1K!
0c
1+!
1*!
1w
1L!
0+!
