full_uart/simulation/qsim/full_uart.msim.vcd
$comment
	File created using the following command:
		vcd file full_uart.msim.vcd -direction
$end
$date
	Wed Feb 07 12:20:09 2024
$end
$version
	ModelSim Version 10.1d
$end
$timescale
	1ps
$end
$scope module full_uart_vlg_vec_tst $end
$var reg 1 ! CLOCK_50 $end
$var reg 4 " KEY [3:0] $end
$var reg 9 # SW [8:0] $end
$var reg 1 $ UART_RXD $end
$var wire 1 % HEX0 [6] $end
$var wire 1 & HEX0 [5] $end
$var wire 1 ' HEX0 [4] $end
$var wire 1 ( HEX0 [3] $end
$var wire 1 ) HEX0 [2] $end
$var wire 1 * HEX0 [1] $end
$var wire 1 + HEX0 [0] $end
$var wire 1 , HEX1 [6] $end
$var wire 1 - HEX1 [5] $end
$var wire 1 . HEX1 [4] $end
$var wire 1 / HEX1 [3] $end
$var wire 1 0 HEX1 [2] $end
$var wire 1 1 HEX1 [1] $end
$var wire 1 2 HEX1 [0] $end
$var wire 1 3 HEX4 [6] $end
$var wire 1 4 HEX4 [5] $end
$var wire 1 5 HEX4 [4] $end
$var wire 1 6 HEX4 [3] $end
$var wire 1 7 HEX4 [2] $end
$var wire 1 8 HEX4 [1] $end
$var wire 1 9 HEX4 [0] $end
$var wire 1 : HEX5 [6] $end
$var wire 1 ; HEX5 [5] $end
$var wire 1 < HEX5 [4] $end
$var wire 1 = HEX5 [3] $end
$var wire 1 > HEX5 [2] $end
$var wire 1 ? HEX5 [1] $end
$var wire 1 @ HEX5 [0] $end
$var wire 1 A LEDG [6] $end
$var wire 1 B LEDR [2] $end
$var wire 1 C UART_TXD $end
$var wire 1 D rx_ctrl_load_counter $end
$var wire 1 E rx_ctrl_state $end
$var wire 1 F rx_parity_7sd [6] $end
$var wire 1 G rx_parity_7sd [5] $end
$var wire 1 H rx_parity_7sd [4] $end
$var wire 1 I rx_parity_7sd [3] $end
$var wire 1 J rx_parity_7sd [2] $end
$var wire 1 K rx_parity_7sd [1] $end
$var wire 1 L rx_parity_7sd [0] $end
$var wire 1 M rx_sr_parity [10] $end
$var wire 1 N rx_sr_parity [9] $end
$var wire 1 O rx_sr_parity [8] $end
$var wire 1 P rx_sr_parity [7] $end
$var wire 1 Q rx_sr_parity [6] $end
$var wire 1 R rx_sr_parity [5] $end
$var wire 1 S rx_sr_parity [4] $end
$var wire 1 T rx_sr_parity [3] $end
$var wire 1 U rx_sr_parity [2] $end
$var wire 1 V rx_sr_parity [1] $end
$var wire 1 W rx_sr_parity [0] $end
$var wire 1 X tx_ctrl_state [1] $end
$var wire 1 Y tx_ctrl_state [0] $end
$var wire 1 Z sampler $end
$scope module i1 $end
$var wire 1 [ gnd $end
$var wire 1 \ vcc $end
$var wire 1 ] unknown $end
$var tri1 1 ^ devclrn $end
$var tri1 1 _ devpor $end
$var tri1 1 ` devoe $end
$var wire 1 a rx|baud_rx|count[0]~11_combout $end
$var wire 1 b rx|baud_rx|count[1]~13_combout $end
$var wire 1 c tx|baud|count[0]~11_combout $end
$var wire 1 d tx|ctrl|Equal0~0_combout $end
$var wire 1 e tx|ctrl|ctrl_sr_shift~3_combout $end
$var wire 1 f tx|counter|Equal0~0_combout $end
$var wire 1 g tx|counter|count[0]~2_combout $end
$var wire 1 h tx|counter|count[1]~3_combout $end
$var wire 1 i tx|counter|Add0~0_combout $end
$var wire 1 j tx|counter|count[3]~4_combout $end
$var wire 1 k tx|counter|count[2]~5_combout $end
$var wire 1 l tx|counter|count[2]~6_combout $end
$var wire 1 m rx|counter_rx|Add0~1_combout $end
$var wire 1 n tx|sr|tmp_data~6_combout $end
$var wire 1 o tx|sr|tmp_data~7_combout $end
$var wire 1 p tx|sr|tmp_data~8_combout $end
$var wire 1 q tx|sr|tmp_data~9_combout $end
$var wire 1 r tx|sr|tmp_data~10_combout $end
$var wire 1 s tx|sr|tmp_data~11_combout $end
$var wire 1 t tx|sr|tmp_data~12_combout $end
$var wire 1 u tx|parity|WideXnor0~0_combout $end
$var wire 1 v tx|parity|WideXnor0~combout $end
$var wire 1 w tx|sr|tmp_data~13_combout $end
$var wire 1 x tx|counter|count[0]~7_combout $end
$var wire 1 y tx|sr|tmp_data~15_combout $end
$var wire 1 z CLOCK_50~combout $end
$var wire 1 { CLOCK_50~clkctrl_outclk $end
$var wire 1 | tx|synchroniser|ff1~0_combout $end
$var wire 1 } tx|synchroniser|ff1~regout $end
$var wire 1 ~ tx|synchroniser|ff2~regout $end
$var wire 1 !! tx|pulser|current_state~0_combout $end
$var wire 1 "! tx|pulser|current_state~regout $end
$var wire 1 #! tx|ctrl|current_state[0]~2_combout $end
$var wire 1 $! tx|ctrl|current_state[0]~5_combout $end
$var wire 1 %! tx|ctrl|current_state[0]~3_combout $end
$var wire 1 &! tx|ctrl|current_state[0]~4_combout $end
$var wire 1 '! tx|ctrl|current_state[1]~6_combout $end
$var wire 1 (! tx|sr|tmp_data~5_combout $end
$var wire 1 )! tx|baud|count[0]~12 $end
$var wire 1 *! tx|baud|count[1]~14_combout $end
$var wire 1 +! tx|baud|count[4]~21 $end
$var wire 1 ,! tx|baud|count[5]~22_combout $end
$var wire 1 -! tx|baud|count[5]~23 $end
$var wire 1 .! tx|baud|count[6]~24_combout $end
$var wire 1 /! tx|baud|count[6]~25 $end
$var wire 1 0! tx|baud|count[7]~27 $end
$var wire 1 1! tx|baud|count[8]~28_combout $end
$var wire 1 2! tx|baud|count[8]~29 $end
$var wire 1 3! tx|baud|count[9]~30_combout $end
$var wire 1 4! tx|baud|count[9]~31 $end
$var wire 1 5! tx|baud|count[10]~32_combout $end
$var wire 1 6! tx|ctrl|ctrl_sr_shift~2_combout $end
$var wire 1 7! tx|baud|count[2]~16_combout $end
$var wire 1 8! tx|baud|count[3]~18_combout $end
$var wire 1 9! tx|ctrl|ctrl_sr_shift~0_combout $end
$var wire 1 :! tx|baud|count[10]~13_combout $end
$var wire 1 ;! tx|baud|count[1]~15 $end
$var wire 1 <! tx|baud|count[2]~17 $end
$var wire 1 =! tx|baud|count[3]~19 $end
$var wire 1 >! tx|baud|count[4]~20_combout $end
$var wire 1 ?! tx|baud|count[7]~26_combout $end
$var wire 1 @! tx|ctrl|ctrl_sr_shift~1_combout $end
$var wire 1 A! tx|ctrl|ctrl_sr_shift~combout $end
$var wire 1 B! tx|sr|tmp_data[0]~14_combout $end
$var wire 1 C! tx|sr|tmp_data~4_combout $end
$var wire 1 D! rx|baud_rx|count[0]~12 $end
$var wire 1 E! rx|baud_rx|count[1]~14 $end
$var wire 1 F! rx|baud_rx|count[2]~16_combout $end
$var wire 1 G! UART_RXD~combout $end
$var wire 1 H! rx|ctrl_rx|ctrl_reset_baud~0_combout $end
$var wire 1 I! rx|baud_rx|count[2]~17 $end
$var wire 1 J! rx|baud_rx|count[3]~19 $end
$var wire 1 K! rx|baud_rx|count[4]~20_combout $end
$var wire 1 L! rx|baud_rx|count[4]~21 $end
$var wire 1 M! rx|baud_rx|count[5]~22_combout $end
$var wire 1 N! rx|baud_rx|count[5]~23 $end
$var wire 1 O! rx|baud_rx|count[6]~25 $end
$var wire 1 P! rx|baud_rx|count[7]~27 $end
$var wire 1 Q! rx|baud_rx|count[8]~28_combout $end
$var wire 1 R! rx|baud_rx|count[8]~29 $end
$var wire 1 S! rx|baud_rx|count[9]~30_combout $end
$var wire 1 T! rx|baud_rx|count[6]~24_combout $end
$var wire 1 U! rx|baud_rx|count[7]~26_combout $end
$var wire 1 V! rx|baud_rx|Equal2~1_combout $end
$var wire 1 W! rx|baud_rx|Equal2~2_combout $end
$var wire 1 X! rx|baud_rx|count[4]~15_combout $end
$var wire 1 Y! rx|baud_rx|count[3]~18_combout $end
$var wire 1 Z! rx|baud_rx|Equal2~0_combout $end
$var wire 1 [! rx|baud_rx|count[9]~31 $end
$var wire 1 \! rx|baud_rx|count[10]~32_combout $end
$var wire 1 ]! rx|sr_rx|tmp_data[1]~1_combout $end
$var wire 1 ^! rx|sr_rx|tmp_data[1]~2_combout $end
$var wire 1 _! rx|counter_rx|count[0]~2_combout $end
$var wire 1 `! rx|counter_rx|count[1]~5_combout $end
$var wire 1 a! rx|counter_rx|count[2]~6_combout $end
$var wire 1 b! rx|ctrl_rx|ctrl_sr_load~0_combout $end
$var wire 1 c! rx|ctrl_rx|ctrl_sr_load~combout $end
$var wire 1 d! rx|counter_rx|count[0]~7_combout $end
$var wire 1 e! rx|counter_rx|count[1]~3_combout $end
$var wire 1 f! rx|counter_rx|Add0~0_combout $end
$var wire 1 g! rx|counter_rx|count[3]~4_combout $end
$var wire 1 h! rx|counter_rx|Equal0~0_combout $end
$var wire 1 i! rx|ctrl_rx|current_state~2_combout $end
$var wire 1 j! rx|ctrl_rx|current_state~regout $end
$var wire 1 k! rx|sr_rx|tmp_data~4_combout $end
$var wire 1 l! rx|sr_rx|tmp_data~3_combout $end
$var wire 1 m! rx|sr_rx|tmp_data~0_combout $end
$var wire 1 n! rx|sr_rx|tmp_data~12_combout $end
$var wire 1 o! rx|sr_rx|tmp_data~11_combout $end
$var wire 1 p! rx|sr_rx|tmp_data~10_combout $end
$var wire 1 q! rx|sr_rx|tmp_data~9_combout $end
$var wire 1 r! rx|sr_rx|tmp_data~8_combout $end
$var wire 1 s! rx|sr_rx|tmp_data~7_combout $end
$var wire 1 t! rx|sr_rx|tmp_data~6_combout $end
$var wire 1 u! rx|sr_rx|tmp_data~5_combout $end
$var wire 1 v! tx|msb|WideOr6~0_combout $end
$var wire 1 w! tx|msb|WideOr5~0_combout $end
$var wire 1 x! tx|msb|Decoder0~0_combout $end
$var wire 1 y! tx|msb|WideOr3~0_combout $end
$var wire 1 z! tx|msb|WideOr2~0_combout $end
$var wire 1 {! tx|msb|WideOr1~0_combout $end
$var wire 1 |! tx|msb|WideOr0~0_combout $end
$var wire 1 }! tx|lsb|WideOr6~0_combout $end
$var wire 1 ~! tx|lsb|WideOr5~0_combout $end
$var wire 1 !" tx|lsb|WideOr4~0_combout $end
$var wire 1 "" tx|lsb|WideOr3~0_combout $end
$var wire 1 #" tx|lsb|WideOr2~0_combout $end
$var wire 1 $" tx|lsb|WideOr1~0_combout $end
$var wire 1 %" tx|lsb|WideOr0~0_combout $end
$var wire 1 &" rx|msb_rx|WideOr6~0_combout $end
$var wire 1 '" rx|msb_rx|WideOr5~0_combout $end
$var wire 1 (" rx|msb_rx|Decoder0~0_combout $end
$var wire 1 )" rx|msb_rx|WideOr3~0_combout $end
$var wire 1 *" rx|msb_rx|WideOr2~0_combout $end
$var wire 1 +" rx|msb_rx|WideOr1~0_combout $end
$var wire 1 ," rx|msb_rx|WideOr0~0_combout $end
$var wire 1 -" rx|lsb_rx|WideOr6~0_combout $end
$var wire 1 ." rx|lsb_rx|WideOr5~0_combout $end
$var wire 1 /" rx|lsb_rx|WideOr4~0_combout $end
$var wire 1 0" rx|lsb_rx|WideOr3~0_combout $end
$var wire 1 1" rx|lsb_rx|WideOr2~0_combout $end
$var wire 1 2" rx|lsb_rx|WideOr1~0_combout $end
$var wire 1 3" rx|lsb_rx|WideOr0~0_combout $end
$var wire 1 4" rx|parity_rx|p_check_out~0_combout $end
$var wire 1 5" rx|parity_rx|p_check_out~1_combout $end
$var wire 1 6" rx|parity_rx|p_check_out~combout $end
$var wire 1 7" SW~combout [8] $end
$var wire 1 8" SW~combout [7] $end
$var wire 1 9" SW~combout [6] $end
$var wire 1 :" SW~combout [5] $end
$var wire 1 ;" SW~combout [4] $end
$var wire 1 <" SW~combout [3] $end
$var wire 1 =" SW~combout [2] $end
$var wire 1 >" SW~combout [1] $end
$var wire 1 ?" SW~combout [0] $end
$var wire 1 @" KEY~combout [3] $end
$var wire 1 A" KEY~combout [2] $end
$var wire 1 B" KEY~combout [1] $end
$var wire 1 C" KEY~combout [0] $end
$var wire 1 D" rx|baud_rx|count [10] $end
$var wire 1 E" rx|baud_rx|count [9] $end
$var wire 1 F" rx|baud_rx|count [8] $end
$var wire 1 G" rx|baud_rx|count [7] $end
$var wire 1 H" rx|baud_rx|count [6] $end
$var wire 1 I" rx|baud_rx|count [5] $end
$var wire 1 J" rx|baud_rx|count [4] $end
$var wire 1 K" rx|baud_rx|count [3] $end
$var wire 1 L" rx|baud_rx|count [2] $end
$var wire 1 M" rx|baud_rx|count [1] $end
$var wire 1 N" rx|baud_rx|count [0] $end
$var wire 1 O" rx|counter_rx|count [3] $end
$var wire 1 P" rx|counter_rx|count [2] $end
$var wire 1 Q" rx|counter_rx|count [1] $end
$var wire 1 R" rx|counter_rx|count [0] $end
$var wire 1 S" tx|baud|count [10] $end
$var wire 1 T" tx|baud|count [9] $end
$var wire 1 U" tx|baud|count [8] $end
$var wire 1 V" tx|baud|count [7] $end
$var wire 1 W" tx|baud|count [6] $end
$var wire 1 X" tx|baud|count [5] $end
$var wire 1 Y" tx|baud|count [4] $end
$var wire 1 Z" tx|baud|count [3] $end
$var wire 1 [" tx|baud|count [2] $end
$var wire 1 \" tx|baud|count [1] $end
$var wire 1 ]" tx|baud|count [0] $end
$var wire 1 ^" tx|counter|count [3] $end
$var wire 1 _" tx|counter|count [2] $end
$var wire 1 `" tx|counter|count [1] $end
$var wire 1 a" tx|counter|count [0] $end
$var wire 1 b" tx|sr|tmp_data [10] $end
$var wire 1 c" tx|sr|tmp_data [9] $end
$var wire 1 d" tx|sr|tmp_data [8] $end
$var wire 1 e" tx|sr|tmp_data [7] $end
$var wire 1 f" tx|sr|tmp_data [6] $end
$var wire 1 g" tx|sr|tmp_data [5] $end
$var wire 1 h" tx|sr|tmp_data [4] $end
$var wire 1 i" tx|sr|tmp_data [3] $end
$var wire 1 j" tx|sr|tmp_data [2] $end
$var wire 1 k" tx|sr|tmp_data [1] $end
$var wire 1 l" tx|sr|tmp_data [0] $end
$var wire 1 m" tx|ctrl|current_state [1] $end
$var wire 1 n" tx|ctrl|current_state [0] $end
$var wire 1 o" rx|sr_rx|tmp_data [10] $end
$var wire 1 p" rx|sr_rx|tmp_data [9] $end
$var wire 1 q" rx|sr_rx|tmp_data [8] $end
$var wire 1 r" rx|sr_rx|tmp_data [7] $end
$var wire 1 s" rx|sr_rx|tmp_data [6] $end
$var wire 1 t" rx|sr_rx|tmp_data [5] $end
$var wire 1 u" rx|sr_rx|tmp_data [4] $end
$var wire 1 v" rx|sr_rx|tmp_data [3] $end
$var wire 1 w" rx|sr_rx|tmp_data [2] $end
$var wire 1 x" rx|sr_rx|tmp_data [1] $end
$var wire 1 y" rx|sr_rx|tmp_data [0] $end
$upscope $end
$upscope $end
$enddefinitions $end
#0
$dumpvars
0!
b1xx1 "
b100111xx #
1$
0+
0*
0)
0(
0'
0&
1%
02
01
00
0/
0.
0-
1,
09
08
07
16
15
14
13
0@
0?
1>
0=
0<
1;
0:
1A
1B
1C
0D
0E
0L
0K
0J
0I
0H
0G
0F
0W
0V
0U
0T
0S
0R
0Q
0P
0O
0N
0M
0Y
0X
xZ
0[
1\
x]
1^
1_
1`
1a
0b
1c
1d
0e
0f
1g
0h
0i
0j
1k
0l
0m
0n
0o
0p
0q
0r
0s
0t
1u
0v
1w
0x
0y
0z
0{
0|
0}
0~
0!!
0"!
0#!
0$!
1%!
1&!
0'!
0(!
0)!
0*!
0+!
0,!
1-!
0.!
0/!
10!
01!
02!
03!
14!
05!
16!
07!
08!
09!
0:!
1;!
0<!
1=!
0>!
0?!
1@!
0A!
0B!
0C!
0D!
1E!
0F!
1G!
0H!
0I!
1J!
0K!
0L!
0M!
1N!
0O!
1P!
0Q!
0R!
0S!
0T!
0U!
1V!
0W!
0X!
0Y!
0Z!
1[!
0\!
1]!
0^!
1_!
0`!
0a!
1b!
1c!
0d!
0e!
0f!
0g!
0h!
0i!
0j!
0k!
0l!
0m!
1n!
0o!
0p!
0q!
0r!
0s!
0t!
0u!
0v!
0w!
1x!
0y!
0z!
1{!
0|!
0}!
0~!
0!"
1""
1#"
1$"
0%"
0&"
0'"
0("
0)"
0*"
0+"
1,"
0-"
0."
0/"
00"
01"
02"
03"
04"
05"
06"
z?"
z>"
1="
1<"
1;"
0:"
09"
18"
07"
1C"
zB"
zA"
1@"
0N"
0M"
0L"
0K"
0J"
0I"
0H"
0G"
0F"
0E"
0D"
0R"
0Q"
0P"
0O"
0]"
0\"
0["
0Z"
0Y"
0X"
0W"
0V"
0U"
0T"
0S"
0a"
0`"
0_"
0^"
0l"
0k"
0j"
0i"
0h"
0g"
0f"
0e"
0d"
0c"
0b"
0n"
0m"
0y"
0x"
0w"
0v"
0u"
0t"
0s"
0r"
0q"
0p"
0o"
$end
#10000
1!
1z
1{
0Z
1]"
1N"
1)!
0c
1Z!
1D!
0a
1*!
1W!
1b
#20000
0!
0z
0{
1Z
#30000
1!
1z
1{
0Z
1\"
0]"
0N"
1M"
0;!
0*!
0)!
1c
0Z!
0D!
1a
1X!
0E!
0b
17!
1;!
1*!
0W!
1E!
1b
1F!
07!
0X!
0F!
#40000
b0xx1 "
0!
0@"
0z
0{
1Z
1|
#50000
1!
1z
1{
0Z
1}
1]"
1N"
19!
1)!
0c
1Z!
1D!
0a
1:!
0;!
0*!
1W!
0E!
0b
17!
1X!
1F!
#60000
b1xx1 "
0!
1@"
0z
0{
1Z
0|
#70000
1!
1z
1{
0Z
0\"
1~
0}
0]"
0N"
0M"
09!
1;!
1*!
0%!
1#!
1!!
0)!
1c
0Z!
0D!
1a
0X!
1E!
1b
0:!
07!
0&!
0*!
0W!
0b
0F!
1$!
#80000
0$
0!
0G!
0z
0{
1Z
0n!
1i!
1H!
1X!
#90000
1!
1z
1{
0Z
1j!
1n"
1"!
0~
1]"
0b!
0]!
0H!
1B!
1(!
1'!
0#!
1y
0d
0!!
1)!
0c
1E
1Y
0X!
0$!
0w
1t
1r
1q
1*!
#100000
0!
0z
0{
1Z
#110000
1!
1z
1{
0Z
1k"
1\"
1m"
0n"
0"!
1d"
1f"
1g"
1b"
0]"
1N"
1C!
0;!
0*!
0B!
0(!
0'!
1&!
1e
1d
0)!
1c
1Z!
1D!
0a
1X
0Y
17!
1'!
0t
1s
0r
1p
1;!
1*!
0c!
1^!
1W!
1b
07!
1d!
1`!
1D
#120000
0!
0z
0{
1Z
#130000
1!
1z
1{
0Z
1R"
1]"
0N"
1M"
1e!
0d!
19!
1)!
0c
0Z!
0D!
1a
1c!
0`!
1]!
1X!
0E!
0b
1A!
1:!
0;!
0*!
0^!
0W!
1E!
1b
0e!
1d!
1F!
0D
1B!
1x
1l
0k
17!
0X!
0F!
0l
#140000
0!
0z
0{
1Z
#150000
1!
1z
1{
0Z
1l"
0k"
0\"
0d"
1e"
0f"
1h"
1a"
0]"
1N"
0C!
09!
1;!
1*!
0s
1r
0q
1o
0x
1h
0)!
1c
1Z!
1D!
0a
0C
0A!
0:!
07!
0*!
1W!
0E!
0b
0B!
1x
1k
0h
1X!
1F!
#160000
1$
0!
1G!
0z
0{
1Z
1n!
#170000
1!
1z
1{
0Z
1]"
0N"
0M"
1)!
0c
0Z!
0D!
1a
0c!
1`!
0]!
0X!
1E!
1b
1*!
1c!
0W!
0b
1e!
0d!
0F!
1D
0e!
1d!
0`!
0D
#180000
0!
0z
0{
1Z
#190000
1!
1z
1{
0Z
1\"
0]"
1N"
0;!
0*!
0)!
1c
1Z!
1D!
0a
17!
1;!
1*!
0c!
1^!
1W!
1b
07!
1e!
0d!
1`!
1D
#200000
0!
0z
0{
1Z
#210000
1!
1z
1{
0Z
1o"
1Q"
0R"
1]"
0N"
1M"
1o!
1d!
19!
1)!
0c
0Z!
0D!
1a
1c!
0`!
1]!
1X!
0E!
0b
1M
0A
1A!
1:!
0;!
0*!
0^!
0W!
1E!
1b
0d!
1F!
0D
1B!
0x
1l
0k
1h
17!
0X!
0F!
0l
#220000
0!
0z
0{
1Z
#230000
1!
1z
1{
0Z
0l"
0\"
0e"
1f"
0g"
1i"
0a"
1`"
0]"
1N"
09!
1;!
1*!
0r
1q
0p
1n
1x
0)!
1c
1Z!
1D!
0a
1C
0A!
0:!
07!
0*!
1W!
0E!
0b
0B!
0x
1k
1X!
1F!
#240000
0!
0z
0{
1Z
#250000
1!
1z
1{
0Z
1]"
0N"
0M"
1)!
0c
0Z!
0D!
1a
0c!
1`!
0]!
0X!
1E!
1b
1*!
1c!
0W!
0b
1d!
0F!
1D
0d!
0`!
0D
#260000
0!
0z
0{
1Z
#270000
1!
1z
1{
0Z
1\"
0]"
1N"
0;!
0*!
0)!
1c
1Z!
1D!
0a
17!
1;!
1*!
0c!
1^!
1W!
1b
07!
1d!
1`!
1D
#280000
0!
0z
0{
1Z
#290000
1!
1z
1{
0Z
1p"
1R"
1]"
0N"
1M"
15"
1p!
0e!
0d!
1m
19!
1)!
0c
0Z!
0D!
1a
1c!
0`!
1]!
1X!
0E!
0b
1N
16"
1A!
1:!
0;!
0*!
0^!
0W!
1E!
1b
1e!
1d!
1F!
0D
1B!
1x
1l
0k
17!
0X!
0F!
0B
0l
#300000
0!
0z
0{
1Z
#310000
1!
1z
1{
0Z
0\"
0f"
1g"
0h"
1j"
1a"
0]"
1N"
09!
1;!
1*!
0q
1p
0o
1(!
0x
1k
0h
0)!
1c
1Z!
1D!
0a
0A!
0:!
07!
1l
0*!
1W!
0E!
0b
0B!
1x
0l
1h
1X!
1F!
#320000
0!
0z
0{
1Z
#330000
1!
1z
1{
0Z
1]"
0N"
0M"
1)!
0c
0Z!
0D!
1a
0c!
1`!
0]!
0X!
1E!
1b
1*!
1c!
0W!
0b
0e!
0d!
1a!
0F!
1D
1e!
1d!
0`!
0D
0a!
#340000
0!
0z
0{
1Z
#350000
1!
1z
1{
0Z
1\"
0]"
1N"
0;!
0*!
0)!
1c
1Z!
1D!
0a
17!
1;!
1*!
0c!
1^!
1W!
1b
07!
0e!
0d!
1`!
1D
1a!
#360000
0!
0z
0{
1Z
#370000
1!
1z
1{
0Z
1q"
0Q"
0R"
1P"
1]"
0N"
1M"
05"
0,"
1*"
1)"
1&"
1q!
1d!
19!
1)!
0c
0Z!
0D!
1a
1c!
0`!
1]!
1X!
0E!
0b
1F
1O
06"
1A!
1:!
0;!
0*!
0^!
0W!
1E!
1b
0d!
0a!
1F!
0,
1.
1/
12
0D
1B!
0x
1l
0h
17!
1a!
0X!
0F!
1B
#380000
0!
0z
0{
1Z
#390000
1!
1z
1{
0Z
1k"
0\"
0g"
1h"
0i"
1_"
0a"
0`"
0]"
1N"
1C!
09!
1;!
1*!
0p
1o
0n
0l
1x
0k
0)!
1c
1Z!
1D!
0a
0A!
0:!
07!
1l
0*!
1W!
0E!
0b
0B!
0x
0l
1k
1X!
1F!
1l
#400000
0$
0!
0G!
0z
0{
1Z
0n!
#410000
1!
1z
1{
0Z
1]"
0N"
0M"
1)!
0c
0Z!
0D!
1a
0c!
1`!
0]!
0X!
1E!
1b
1*!
1c!
0W!
0b
1d!
0F!
1D
0d!
0`!
0D
#420000
0!
0z
0{
1Z
#430000
1!
1z
1{
0Z
1\"
0]"
1N"
0;!
0*!
0)!
1c
1Z!
1D!
0a
17!
1;!
1*!
0c!
1^!
1W!
1b
07!
1d!
0a!
1`!
1D
1a!
#440000
0!
0z
0{
1Z
#450000
1!
1z
1{
0Z
1r"
0o"
1R"
1]"
0N"
1M"
14"
0*"
0)"
1'"
0&"
1r!
0o!
1e!
0d!
19!
1)!
0c
0Z!
0D!
1a
1c!
0`!
1]!
1X!
0E!
0b
1G
1P
0M
1A
16"
1A!
1:!
0;!
0*!
0^!
0W!
1E!
1b
0e!
1d!
0a!
1F!
0.
0/
11
02
0D
1B!
1x
0l
0k
17!
1a!
0X!
0F!
0B
1l
#460000
0!
0z
0{
1Z
#470000
1!
1z
1{
0Z
1l"
0\"
0h"
1i"
0j"
1a"
0]"
1N"
09!
1;!
1*!
0o
1n
0(!
0x
1h
0)!
1c
1Z!
1D!
0a
0C
0A!
0:!
07!
0*!
1W!
0E!
0b
0B!
1x
0l
1k
0h
1X!
1F!
1l
#480000
0!
0z
0{
1Z
#490000
1!
1z
1{
0Z
1]"
0N"
0M"
1)!
0c
0Z!
0D!
1a
0c!
1`!
0]!
0X!
1E!
1b
1*!
1c!
0W!
0b
1e!
0d!
0F!
1D
0e!
1d!
0`!
0D
#500000
0!
0z
0{
1Z
#510000
1!
1z
1{
0Z
1\"
0]"
1N"
0;!
0*!
0)!
1c
1Z!
1D!
0a
17!
1;!
1*!
0c!
1^!
1W!
1b
07!
1e!
0d!
0a!
1`!
1D
1a!
#520000
0!
0z
0{
1Z
#530000
1!
1z
1{
0Z
1s"
0p"
1Q"
0R"
1]"
0N"
1M"
04"
1,"
1+"
1*"
1)"
0'"
1s!
15"
0p!
1d!
19!
1)!
0c
0Z!
0D!
1a
1c!
0`!
1]!
1X!
0E!
0b
1H
1Q
0N
1A!
1:!
0;!
0*!
0^!
0W!
1E!
1b
0d!
0a!
1F!
1,
1-
1.
1/
01
0D
1B!
0x
0l
0k
1h
17!
1a!
0X!
0F!
1l
#540000
0!
0z
0{
1Z
#550000
1!
1z
1{
0Z
0k"
0\"
0i"
1j"
0a"
1`"
0]"
1N"
0C!
09!
1;!
1*!
0n
1(!
1x
0)!
1c
1Z!
1D!
0a
0A!
0:!
07!
0*!
1W!
0E!
0b
0B!
0x
0l
1k
1X!
1F!
1l
#560000
1$
0!
1G!
0z
0{
1Z
1n!
#570000
1!
1z
1{
0Z
1]"
0N"
0M"
1)!
0c
0Z!
0D!
1a
0c!
1`!
0]!
0X!
1E!
1b
1*!
1c!
0W!
0b
1d!
0F!
1D
0d!
0`!
0D
#580000
0!
0z
0{
1Z
#590000
1!
1z
1{
0Z
1\"
0]"
1N"
0;!
0*!
0)!
1c
1Z!
1D!
0a
17!
1;!
1*!
0c!
1^!
1W!
1b
07!
1d!
0a!
1`!
1D
1a!
#600000
0!
0z
0{
1Z
#610000
1!
1z
1{
0Z
1t"
0q"
1o"
1R"
1]"
0N"
1M"
13"
1t!
0,"
0)"
0q!
1o!
1f!
0e!
0d!
0m
19!
1)!
0c
0Z!
0D!
1a
1c!
0`!
1]!
1X!
0E!
0b
1I
1R
0F
0O
1M
0A
0a!
1A!
1:!
0;!
0*!
0^!
0W!
1E!
1b
1e!
1d!
1F!
0,
0/
0%
0D
1B!
1x
0l
0k
17!
1a!
0X!
0F!
1l
#620000
0!
0z
0{
1Z
#630000
1!
1z
1{
0Z
0l"
1k"
0\"
0j"
1a"
0]"
1N"
1C!
09!
1;!
1*!
0(!
0x
1k
1i
0h
0)!
1c
1Z!
1D!
0a
1C
0A!
0:!
07!
0l
1j
0*!
1W!
0E!
0b
0B!
1x
1l
0j
1h
1X!
1F!
#640000
0$
0!
0G!
0z
0{
1Z
0n!
#650000
1!
1z
1{
0Z
1]"
0N"
0M"
1)!
0c
0Z!
0D!
1a
0c!
1`!
0]!
0X!
1E!
1b
1*!
1c!
0W!
0b
1g!
0e!
0d!
0F!
1D
0g!
1e!
1d!
0`!
0D
#660000
0!
0z
0{
1Z
#670000
1!
1z
1{
0Z
1\"
0]"
1N"
0;!
0*!
0)!
1c
1Z!
1D!
0a
17!
1;!
1*!
0c!
1^!
1W!
1b
07!
1g!
0e!
0d!
0a!
1`!
1D
#680000
0!
0z
0{
1Z
#690000
1!
1z
1{
0Z
1u"
0r"
1p"
0o"
1O"
0Q"
0R"
0P"
1]"
0N"
1M"
03"
1/"
1."
1u!
14"
1,"
1)"
1&"
0r!
1p!
0o!
1d!
19!
1)!
0c
0Z!
0D!
1a
1c!
0`!
1]!
1X!
0E!
0b
1J
1S
0G
0P
1N
0M
1A
06"
1A!
1:!
0;!
0*!
0^!
0W!
1E!
1b
0d!
1F!
1)
1*
1,
1/
12
1%
0D
1B!
0x
0l
1j
0h
17!
0X!
0F!
1B
#700000
0!
0z
0{
1Z
#710000
1!
1z
1{
0Z
1l"
0k"
0\"
0_"
0a"
1^"
0`"
0]"
1N"
0C!
09!
1;!
1*!
1l
1x
0k
0)!
1c
1Z!
1D!
0a
0C
0A!
0:!
07!
0l
0*!
1W!
0E!
0b
0B!
0x
1k
1X!
1F!
#720000
1$
0!
1G!
0z
0{
1Z
1n!
#730000
1!
1z
1{
0Z
1]"
0N"
0M"
1)!
0c
0Z!
0D!
1a
0c!
1`!
0]!
0X!
1E!
1b
1*!
1c!
0W!
0b
1d!
0F!
1D
0d!
0`!
0D
#740000
0!
0z
0{
1Z
#750000
1!
1z
1{
0Z
1\"
0]"
1N"
0;!
0*!
0)!
1c
1Z!
1D!
0a
17!
1;!
1*!
0c!
1^!
1W!
1b
07!
1d!
1`!
1D
#760000
0!
0z
0{
1Z
#770000
1!
1z
1{
0Z
1v"
0s"
1q"
0p"
1o"
1R"
1]"
0N"
1M"
13"
1k!
0,"
0+"
0s!
1q!
0p!
1o!
1e!
0d!
19!
1)!
0c
0Z!
0D!
1a
1c!
0`!
1]!
1X!
0E!
0b
1K
1T
0H
0Q
1F
1O
0N
1M
0A
1A!
1:!
0;!
0*!
0^!
0W!
1E!
1b
0e!
1d!
1F!
0,
0-
0%
0D
1B!
1x
1l
0k
17!
0X!
0F!
0l
#780000
0!
0z
0{
1Z
#790000
1!
1z
1{
0Z
0l"
0\"
1a"
0]"
1N"
09!
1;!
1*!
0x
1h
0)!
1c
1Z!
1D!
0a
1C
0A!
0:!
07!
0*!
1W!
0E!
0b
0B!
1x
1k
0h
1X!
1F!
#800000
0!
0z
0{
1Z
#810000
1!
1z
1{
0Z
1]"
0N"
0M"
1)!
0c
0Z!
0D!
1a
0c!
1`!
0]!
0X!
1E!
1b
1*!
1c!
0W!
0b
1e!
0d!
0F!
1D
0e!
1d!
0`!
0D
#820000
0!
0z
0{
1Z
