full_uart/simulation/qsim/full_uart.msim.vcd
$comment
	File created using the following command:
		vcd file full_uart.msim.vcd -direction
$end
$date
	Wed Feb 07 19:15:33 2024
$end
$version
	ModelSim Version 10.1d
$end
$timescale
	1ps
$end
$scope module full_uart_vlg_vec_tst $end
$var reg 1 ! CLOCK_50 $end
$var reg 4 " KEY [3:0] $end
$var reg 9 # SW [8:0] $end
$var reg 1 $ UART_RXD $end
$var wire 1 % HEX0 [6] $end
$var wire 1 & HEX0 [5] $end
$var wire 1 ' HEX0 [4] $end
$var wire 1 ( HEX0 [3] $end
$var wire 1 ) HEX0 [2] $end
$var wire 1 * HEX0 [1] $end
$var wire 1 + HEX0 [0] $end
$var wire 1 , HEX1 [6] $end
$var wire 1 - HEX1 [5] $end
$var wire 1 . HEX1 [4] $end
$var wire 1 / HEX1 [3] $end
$var wire 1 0 HEX1 [2] $end
$var wire 1 1 HEX1 [1] $end
$var wire 1 2 HEX1 [0] $end
$var wire 1 3 HEX4 [6] $end
$var wire 1 4 HEX4 [5] $end
$var wire 1 5 HEX4 [4] $end
$var wire 1 6 HEX4 [3] $end
$var wire 1 7 HEX4 [2] $end
$var wire 1 8 HEX4 [1] $end
$var wire 1 9 HEX4 [0] $end
$var wire 1 : HEX5 [6] $end
$var wire 1 ; HEX5 [5] $end
$var wire 1 < HEX5 [4] $end
$var wire 1 = HEX5 [3] $end
$var wire 1 > HEX5 [2] $end
$var wire 1 ? HEX5 [1] $end
$var wire 1 @ HEX5 [0] $end
$var wire 1 A LEDG [6] $end
$var wire 1 B LEDR [2] $end
$var wire 1 C UART_TXD $end
$var wire 1 D rx_ctrl_load_counter $end
$var wire 1 E rx_ctrl_state $end
$var wire 1 F rx_parity_7sd [6] $end
$var wire 1 G rx_parity_7sd [5] $end
$var wire 1 H rx_parity_7sd [4] $end
$var wire 1 I rx_parity_7sd [3] $end
$var wire 1 J rx_parity_7sd [2] $end
$var wire 1 K rx_parity_7sd [1] $end
$var wire 1 L rx_parity_7sd [0] $end
$var wire 1 M rx_sr_parity [10] $end
$var wire 1 N rx_sr_parity [9] $end
$var wire 1 O rx_sr_parity [8] $end
$var wire 1 P rx_sr_parity [7] $end
$var wire 1 Q rx_sr_parity [6] $end
$var wire 1 R rx_sr_parity [5] $end
$var wire 1 S rx_sr_parity [4] $end
$var wire 1 T rx_sr_parity [3] $end
$var wire 1 U rx_sr_parity [2] $end
$var wire 1 V rx_sr_parity [1] $end
$var wire 1 W rx_sr_parity [0] $end
$var wire 1 X tx_ctrl_state [1] $end
$var wire 1 Y tx_ctrl_state [0] $end
$var wire 1 Z sampler $end
$scope module i1 $end
$var wire 1 [ gnd $end
$var wire 1 \ vcc $end
$var wire 1 ] unknown $end
$var tri1 1 ^ devclrn $end
$var tri1 1 _ devpor $end
$var tri1 1 ` devoe $end
$var wire 1 a tx|baud|count[5]~22_combout $end
$var wire 1 b rx|baud_rx|count[0]~11_combout $end
$var wire 1 c rx|baud_rx|count[5]~22_combout $end
$var wire 1 d tx|pulser|current_state~regout $end
$var wire 1 e tx|ctrl|current_state[0]~2_combout $end
$var wire 1 f rx|counter_rx|Equal0~0_combout $end
$var wire 1 g tx|pulser|current_state~0_combout $end
$var wire 1 h tx|counter|Add0~0_combout $end
$var wire 1 i rx|counter_rx|count[0]~2_combout $end
$var wire 1 j rx|counter_rx|count[1]~3_combout $end
$var wire 1 k rx|counter_rx|Add0~0_combout $end
$var wire 1 l rx|counter_rx|count[3]~4_combout $end
$var wire 1 m rx|counter_rx|count[1]~5_combout $end
$var wire 1 n rx|counter_rx|Add0~1_combout $end
$var wire 1 o rx|counter_rx|count[2]~6_combout $end
$var wire 1 p tx|parity|WideXnor0~0_combout $end
$var wire 1 q tx|parity|WideXnor0~combout $end
$var wire 1 r tx|sr|tmp_data~13_combout $end
$var wire 1 s tx|counter|count[0]~7_combout $end
$var wire 1 t rx|counter_rx|count[0]~7_combout $end
$var wire 1 u tx|sr|tmp_data~15_combout $end
$var wire 1 v tx|counter|count[0]~2_combout $end
$var wire 1 w tx|ctrl|ctrl_sr_shift~3_combout $end
$var wire 1 x tx|baud|count[0]~12 $end
$var wire 1 y tx|baud|count[1]~15 $end
$var wire 1 z tx|baud|count[2]~16_combout $end
$var wire 1 { tx|baud|count[2]~17 $end
$var wire 1 | tx|baud|count[3]~19 $end
$var wire 1 } tx|baud|count[4]~20_combout $end
$var wire 1 ~ tx|baud|count[4]~21 $end
$var wire 1 !! tx|baud|count[5]~23 $end
$var wire 1 "! tx|baud|count[6]~24_combout $end
$var wire 1 #! tx|baud|count[6]~25 $end
$var wire 1 $! tx|baud|count[7]~27 $end
$var wire 1 %! tx|baud|count[8]~28_combout $end
$var wire 1 &! tx|baud|count[8]~29 $end
$var wire 1 '! tx|baud|count[9]~30_combout $end
$var wire 1 (! tx|baud|count[9]~31 $end
$var wire 1 )! tx|baud|count[10]~32_combout $end
$var wire 1 *! tx|ctrl|ctrl_sr_shift~1_combout $end
$var wire 1 +! tx|baud|count[7]~26_combout $end
$var wire 1 ,! tx|ctrl|ctrl_sr_shift~0_combout $end
$var wire 1 -! tx|baud|count[4]~13_combout $end
$var wire 1 .! tx|baud|count[3]~18_combout $end
$var wire 1 /! tx|baud|count[1]~14_combout $end
$var wire 1 0! tx|ctrl|ctrl_sr_shift~2_combout $end
$var wire 1 1! tx|ctrl|ctrl_sr_shift~combout $end
$var wire 1 2! tx|counter|count[3]~4_combout $end
$var wire 1 3! tx|counter|count[1]~3_combout $end
$var wire 1 4! tx|counter|count[2]~5_combout $end
$var wire 1 5! tx|counter|count[2]~6_combout $end
$var wire 1 6! tx|counter|Equal0~0_combout $end
$var wire 1 7! tx|synchroniser|ff1~0_combout $end
$var wire 1 8! tx|synchroniser|ff1~regout $end
$var wire 1 9! tx|synchroniser|ff2~regout $end
$var wire 1 :! tx|ctrl|current_state[1]~3_combout $end
$var wire 1 ;! tx|ctrl|current_state[1]~4_combout $end
$var wire 1 <! tx|ctrl|current_state[0]~5_combout $end
$var wire 1 =! tx|ctrl|current_state[1]~6_combout $end
$var wire 1 >! tx|ctrl|Equal0~0_combout $end
$var wire 1 ?! tx|sr|tmp_data~12_combout $end
$var wire 1 @! tx|sr|tmp_data[0]~14_combout $end
$var wire 1 A! tx|sr|tmp_data~11_combout $end
$var wire 1 B! tx|sr|tmp_data~10_combout $end
$var wire 1 C! tx|sr|tmp_data~9_combout $end
$var wire 1 D! tx|sr|tmp_data~8_combout $end
$var wire 1 E! tx|sr|tmp_data~7_combout $end
$var wire 1 F! tx|sr|tmp_data~6_combout $end
$var wire 1 G! tx|sr|tmp_data~5_combout $end
$var wire 1 H! tx|sr|tmp_data~4_combout $end
$var wire 1 I! tx|baud|count[0]~11_combout $end
$var wire 1 J! tx|inv|bit_output~0_combout $end
$var wire 1 K! tx|inv|bit_output~1_combout $end
$var wire 1 L! tx|inv|bit_output~2_combout $end
$var wire 1 M! CLOCK_50~combout $end
$var wire 1 N! CLOCK_50~clkctrl_outclk $end
$var wire 1 O! UART_RXD~combout $end
$var wire 1 P! rx|ctrl_rx|current_state~2_combout $end
$var wire 1 Q! rx|ctrl_rx|current_state~regout $end
$var wire 1 R! rx|baud_rx|count[0]~12 $end
$var wire 1 S! rx|baud_rx|count[1]~13_combout $end
$var wire 1 T! rx|ctrl_rx|ctrl_reset_baud~0_combout $end
$var wire 1 U! rx|baud_rx|count[6]~25 $end
$var wire 1 V! rx|baud_rx|count[7]~27 $end
$var wire 1 W! rx|baud_rx|count[8]~28_combout $end
$var wire 1 X! rx|baud_rx|count[8]~29 $end
$var wire 1 Y! rx|baud_rx|count[9]~30_combout $end
$var wire 1 Z! rx|baud_rx|Equal2~0_combout $end
$var wire 1 [! rx|baud_rx|Equal2~2_combout $end
$var wire 1 \! rx|baud_rx|count[0]~19_combout $end
$var wire 1 ]! rx|baud_rx|count[1]~14 $end
$var wire 1 ^! rx|baud_rx|count[2]~15_combout $end
$var wire 1 _! rx|baud_rx|count[2]~16 $end
$var wire 1 `! rx|baud_rx|count[3]~18 $end
$var wire 1 a! rx|baud_rx|count[4]~20_combout $end
$var wire 1 b! rx|baud_rx|count[4]~21 $end
$var wire 1 c! rx|baud_rx|count[5]~23 $end
$var wire 1 d! rx|baud_rx|count[6]~24_combout $end
$var wire 1 e! rx|baud_rx|count[7]~26_combout $end
$var wire 1 f! rx|baud_rx|Equal2~1_combout $end
$var wire 1 g! rx|baud_rx|count[3]~17_combout $end
$var wire 1 h! rx|baud_rx|count[9]~31 $end
$var wire 1 i! rx|baud_rx|count[10]~32_combout $end
$var wire 1 j! rx|ctrl_rx|ctrl_sr_load~0_combout $end
$var wire 1 k! rx|ctrl_rx|ctrl_sr_load~combout $end
$var wire 1 l! rx|sr_rx|tmp_data~3_combout $end
$var wire 1 m! rx|sr_rx|tmp_data[4]~1_combout $end
$var wire 1 n! rx|sr_rx|tmp_data[4]~2_combout $end
$var wire 1 o! rx|sr_rx|tmp_data~0_combout $end
$var wire 1 p! rx|sr_rx|tmp_data~5_combout $end
$var wire 1 q! rx|sr_rx|tmp_data~4_combout $end
$var wire 1 r! rx|sr_rx|tmp_data~12_combout $end
$var wire 1 s! rx|sr_rx|tmp_data~11_combout $end
$var wire 1 t! rx|sr_rx|tmp_data~10_combout $end
$var wire 1 u! rx|sr_rx|tmp_data~9_combout $end
$var wire 1 v! rx|sr_rx|tmp_data~8_combout $end
$var wire 1 w! rx|sr_rx|tmp_data~7_combout $end
$var wire 1 x! rx|sr_rx|tmp_data~6_combout $end
$var wire 1 y! tx|msb|WideOr6~0_combout $end
$var wire 1 z! tx|msb|WideOr5~0_combout $end
$var wire 1 {! tx|msb|Decoder0~0_combout $end
$var wire 1 |! tx|msb|WideOr3~0_combout $end
$var wire 1 }! tx|msb|WideOr2~0_combout $end
$var wire 1 ~! tx|msb|WideOr1~0_combout $end
$var wire 1 !" tx|msb|WideOr0~0_combout $end
$var wire 1 "" tx|lsb|WideOr6~0_combout $end
$var wire 1 #" tx|lsb|WideOr5~0_combout $end
$var wire 1 $" tx|lsb|WideOr4~0_combout $end
$var wire 1 %" tx|lsb|WideOr3~0_combout $end
$var wire 1 &" tx|lsb|WideOr2~0_combout $end
$var wire 1 '" tx|lsb|WideOr1~0_combout $end
$var wire 1 (" tx|lsb|WideOr0~0_combout $end
$var wire 1 )" rx|msb_rx|WideOr6~0_combout $end
$var wire 1 *" rx|msb_rx|WideOr5~0_combout $end
$var wire 1 +" rx|msb_rx|Decoder0~0_combout $end
$var wire 1 ," rx|msb_rx|WideOr3~0_combout $end
$var wire 1 -" rx|msb_rx|WideOr2~0_combout $end
$var wire 1 ." rx|msb_rx|WideOr1~0_combout $end
$var wire 1 /" rx|msb_rx|WideOr0~0_combout $end
$var wire 1 0" rx|lsb_rx|WideOr6~0_combout $end
$var wire 1 1" rx|lsb_rx|WideOr5~0_combout $end
$var wire 1 2" rx|lsb_rx|WideOr4~0_combout $end
$var wire 1 3" rx|lsb_rx|WideOr3~0_combout $end
$var wire 1 4" rx|lsb_rx|WideOr2~0_combout $end
$var wire 1 5" rx|lsb_rx|WideOr1~0_combout $end
$var wire 1 6" rx|lsb_rx|WideOr0~0_combout $end
$var wire 1 7" rx|parity_rx|p_check_out~0_combout $end
$var wire 1 8" rx|parity_rx|p_check_out~1_combout $end
$var wire 1 9" rx|parity_rx|p_check_out~combout $end
$var wire 1 :" rx|baud_rx|count [10] $end
$var wire 1 ;" rx|baud_rx|count [9] $end
$var wire 1 <" rx|baud_rx|count [8] $end
$var wire 1 =" rx|baud_rx|count [7] $end
$var wire 1 >" rx|baud_rx|count [6] $end
$var wire 1 ?" rx|baud_rx|count [5] $end
$var wire 1 @" rx|baud_rx|count [4] $end
$var wire 1 A" rx|baud_rx|count [3] $end
$var wire 1 B" rx|baud_rx|count [2] $end
$var wire 1 C" rx|baud_rx|count [1] $end
$var wire 1 D" rx|baud_rx|count [0] $end
$var wire 1 E" rx|counter_rx|count [3] $end
$var wire 1 F" rx|counter_rx|count [2] $end
$var wire 1 G" rx|counter_rx|count [1] $end
$var wire 1 H" rx|counter_rx|count [0] $end
$var wire 1 I" tx|baud|count [10] $end
$var wire 1 J" tx|baud|count [9] $end
$var wire 1 K" tx|baud|count [8] $end
$var wire 1 L" tx|baud|count [7] $end
$var wire 1 M" tx|baud|count [6] $end
$var wire 1 N" tx|baud|count [5] $end
$var wire 1 O" tx|baud|count [4] $end
$var wire 1 P" tx|baud|count [3] $end
$var wire 1 Q" tx|baud|count [2] $end
$var wire 1 R" tx|baud|count [1] $end
$var wire 1 S" tx|baud|count [0] $end
$var wire 1 T" tx|counter|count [3] $end
$var wire 1 U" tx|counter|count [2] $end
$var wire 1 V" tx|counter|count [1] $end
$var wire 1 W" tx|counter|count [0] $end
$var wire 1 X" tx|sr|tmp_data [10] $end
$var wire 1 Y" tx|sr|tmp_data [9] $end
$var wire 1 Z" tx|sr|tmp_data [8] $end
$var wire 1 [" tx|sr|tmp_data [7] $end
$var wire 1 \" tx|sr|tmp_data [6] $end
$var wire 1 ]" tx|sr|tmp_data [5] $end
$var wire 1 ^" tx|sr|tmp_data [4] $end
$var wire 1 _" tx|sr|tmp_data [3] $end
$var wire 1 `" tx|sr|tmp_data [2] $end
$var wire 1 a" tx|sr|tmp_data [1] $end
$var wire 1 b" tx|sr|tmp_data [0] $end
$var wire 1 c" tx|ctrl|current_state [1] $end
$var wire 1 d" tx|ctrl|current_state [0] $end
$var wire 1 e" rx|sr_rx|tmp_data [10] $end
$var wire 1 f" rx|sr_rx|tmp_data [9] $end
$var wire 1 g" rx|sr_rx|tmp_data [8] $end
$var wire 1 h" rx|sr_rx|tmp_data [7] $end
$var wire 1 i" rx|sr_rx|tmp_data [6] $end
$var wire 1 j" rx|sr_rx|tmp_data [5] $end
$var wire 1 k" rx|sr_rx|tmp_data [4] $end
$var wire 1 l" rx|sr_rx|tmp_data [3] $end
$var wire 1 m" rx|sr_rx|tmp_data [2] $end
$var wire 1 n" rx|sr_rx|tmp_data [1] $end
$var wire 1 o" rx|sr_rx|tmp_data [0] $end
$var wire 1 p" KEY~combout [3] $end
$var wire 1 q" KEY~combout [2] $end
$var wire 1 r" KEY~combout [1] $end
$var wire 1 s" KEY~combout [0] $end
$var wire 1 t" SW~combout [8] $end
$var wire 1 u" SW~combout [7] $end
$var wire 1 v" SW~combout [6] $end
$var wire 1 w" SW~combout [5] $end
$var wire 1 x" SW~combout [4] $end
$var wire 1 y" SW~combout [3] $end
$var wire 1 z" SW~combout [2] $end
$var wire 1 {" SW~combout [1] $end
$var wire 1 |" SW~combout [0] $end
$upscope $end
$upscope $end
$enddefinitions $end
#0
$dumpvars
0!
b1xx1 "
b100111x1 #
1$
0+
0*
0)
0(
0'
0&
1%
02
01
00
0/
0.
0-
1,
09
08
07
16
15
14
13
0@
0?
1>
0=
0<
1;
0:
1A
1B
0C
0D
0E
0L
0K
0J
0I
0H
0G
0F
0W
0V
0U
0T
0S
0R
0Q
0P
0O
0N
0M
0Y
0X
xZ
0[
1\
x]
1^
1_
1`
0a
1b
0c
0d
0e
0f
0g
0h
1i
0j
0k
0l
0m
0n
0o
1p
0q
1r
0s
0t
0u
1v
0w
0x
1y
0z
0{
1|
0}
0~
1!!
0"!
0#!
1$!
0%!
0&!
0'!
1(!
0)!
1*!
0+!
1,!
0-!
0.!
0/!
00!
01!
02!
03!
14!
05!
06!
07!
08!
09!
1:!
1;!
0<!
0=!
1>!
0?!
0@!
0A!
0B!
0C!
0D!
0E!
0F!
0G!
0H!
1I!
0J!
0K!
0L!
0M!
0N!
1O!
0P!
0Q!
0R!
0S!
0T!
0U!
1V!
0W!
0X!
0Y!
0Z!
0[!
0\!
1]!
0^!
0_!
1`!
0a!
0b!
1c!
0d!
0e!
1f!
0g!
1h!
0i!
1j!
1k!
0l!
1m!
0n!
0o!
0p!
0q!
1r!
0s!
0t!
0u!
0v!
0w!
0x!
0y!
0z!
1{!
0|!
0}!
1~!
0!"
0""
0#"
0$"
1%"
1&"
1'"
0("
0)"
0*"
0+"
0,"
0-"
0."
1/"
00"
01"
02"
03"
04"
05"
06"
07"
08"
09"
0D"
0C"
0B"
0A"
0@"
0?"
0>"
0="
0<"
0;"
0:"
0H"
0G"
0F"
0E"
0S"
0R"
0Q"
0P"
0O"
0N"
0M"
0L"
0K"
0J"
0I"
0W"
0V"
0U"
0T"
0b"
0a"
0`"
0_"
0^"
0]"
0\"
0["
0Z"
0Y"
0X"
0d"
0c"
0o"
0n"
0m"
0l"
0k"
0j"
0i"
0h"
0g"
0f"
0e"
1s"
zr"
zq"
1p"
1|"
z{"
1z"
1y"
1x"
0w"
0v"
1u"
0t"
$end
#10000
1!
1M!
1N!
0Z
1S"
1D"
1x
0I!
1R!
0b
1/!
1S!
#20000
0!
0M!
0N!
1Z
#30000
1!
1M!
1N!
0Z
1C"
0S"
1R"
0D"
0]!
0S!
0x
1I!
0y
0/!
0R!
1b
1^!
1y
1/!
1z
1]!
1S!
0z
0^!
#40000
b0xx1 "
0!
0p"
0M!
0N!
1Z
17!
#50000
1!
1M!
1N!
0Z
1S"
18!
1D"
1x
0I!
1R!
0b
0y
0/!
0]!
0S!
1z
1^!
#60000
b1xx1 "
0!
1p"
0M!
0N!
1Z
07!
#70000
1!
1M!
1N!
0Z
1B"
0C"
0S"
19!
08!
0R"
1Q"
0D"
1_!
0^!
1]!
1S!
0x
1I!
0:!
1g
1e
1y
1/!
1{
0z
0R!
1b
1g!
0_!
1^!
0/!
0;!
0{
1z
1.!
0S!
0g!
1<!
0.!
#80000
0$
0!
0O!
0M!
0N!
1Z
0r!
1T!
1P!
1\!
#90000
1!
1M!
1N!
0Z
0B"
1Q!
1S"
1d"
09!
1d
0^!
0m!
0j!
0T!
1x
0I!
1G!
1@!
0>!
1=!
1u
0e
0g
1E
1Y
0\!
1/!
1C!
1B!
1?!
0r
0<!
#100000
0!
0M!
0N!
1Z
#110000
1!
1M!
1N!
0Z
0S"
1a"
1]"
1\"
1Z"
1c"
0d"
1R"
0d
1X"
1D"
0x
1I!
1H!
0G!
0@!
1>!
0=!
1;!
1w
0y
0/!
1R!
0b
1X
0Y
1y
1/!
1D!
0B!
1A!
0?!
1=!
1{
0z
1S!
0{
1z
1.!
0.!
#120000
0!
0M!
0N!
1Z
#130000
1!
1M!
1N!
0Z
1C"
1S"
0D"
0]!
0S!
1J!
1x
0I!
0R!
1b
1^!
1K!
0y
0/!
1]!
1S!
1{
0z
0^!
1.!
#140000
0!
0M!
0N!
1Z
#150000
1!
1M!
1N!
0Z
0S"
0R"
1P"
0Q"
1D"
0x
1I!
1y
1/!
0|
0.!
0{
1z
1R!
0b
0/!
0z
1}
1|
1.!
0]!
0S!
0}
1^!
#160000
1$
0!
1O!
0M!
0N!
1Z
1r!
#170000
1!
1M!
1N!
0Z
1B"
0C"
1S"
0D"
1_!
0^!
1]!
1S!
1x
0I!
0R!
1b
1g!
0_!
1^!
1/!
0S!
0g!
#180000
0!
0M!
0N!
1Z
#190000
1!
1M!
1N!
0Z
0S"
1R"
1D"
0x
1I!
0y
0/!
1R!
0b
1y
1/!
1z
1S!
0z
#200000
0!
0M!
0N!
1Z
#210000
1!
1M!
1N!
0Z
1C"
1S"
0D"
0]!
0S!
0J!
1x
0I!
0R!
1b
1_!
0^!
0K!
0y
0/!
1]!
1S!
1g!
1z
0_!
1^!
0g!
#220000
0!
0M!
0N!
1Z
#230000
1!
1M!
1N!
0Z
0S"
0R"
1Q"
1D"
0x
1I!
1y
1/!
1{
0z
1Z!
1R!
0b
0/!
0{
1z
0|
0.!
1n!
0k!
1[!
0]!
0S!
1|
1.!
1}
1t
1m
1_!
0^!
1D
0}
1g!
#240000
0!
0M!
0N!
1Z
#250000
1!
1M!
1N!
0Z
1e"
1A"
0B"
0C"
1S"
1H"
0D"
1s!
1m!
1k!
0`!
0g!
1\!
0m
0_!
1^!
0Z!
1]!
1S!
1x
0I!
0t
1j
0R!
1b
1M
0A
0n!
1t
0j
1a!
1`!
1g!
0[!
0^!
1/!
0S!
0D
0a!
0\!
#260000
0!
0M!
0N!
1Z
#270000
1!
1M!
1N!
0Z
0S"
1R"
1D"
0x
1I!
0y
0/!
1R!
0b
1y
1/!
1{
0z
1S!
0{
1z
0|
0.!
1|
1.!
1}
0}
#280000
0!
0M!
0N!
1Z
#290000
1!
1M!
1N!
0Z
1C"
1S"
0D"
0]!
0S!
10!
1x
0I!
0R!
1b
1^!
11!
1-!
0y
0/!
1]!
1S!
1@!
15!
04!
1s
1{
0z
0^!
05!
0|
0.!
1}
#300000
0!
0M!
0N!
1Z
#310000
1!
1M!
1N!
0Z
0S"
1b"
0a"
1^"
0\"
1["
0Z"
0R"
0P"
0Q"
1W"
1D"
00!
0x
1I!
0H!
1E!
0C!
1B!
0A!
1y
1/!
1|
1.!
0{
1z
13!
0s
1R!
0b
01!
0-!
0/!
0z
0}
0.!
0]!
0S!
0@!
14!
03!
1s
1^!
#320000
0!
0M!
0N!
1Z
#330000
1!
1M!
1N!
0Z
1B"
0C"
1S"
0D"
1_!
0^!
1]!
1S!
1x
0I!
0R!
1b
0`!
0g!
0_!
1^!
1/!
0S!
1a!
1`!
1g!
0a!
#340000
0!
0M!
0N!
1Z
#350000
1!
1M!
1N!
0Z
0S"
1R"
1D"
0x
1I!
0y
0/!
1R!
0b
1y
1/!
1z
1S!
0z
#360000
0!
0M!
0N!
1Z
#370000
1!
1M!
1N!
0Z
1C"
1S"
0D"
0]!
0S!
1x
0I!
0R!
1b
1_!
0^!
0y
0/!
1]!
1S!
0`!
0g!
1z
0_!
1^!
1a!
1`!
1g!
0a!
#380000
0!
0M!
0N!
1Z
#390000
1!
1M!
1N!
0Z
0S"
0R"
1Q"
1D"
0x
1I!
1y
1/!
1{
0z
1Z!
1R!
0b
0/!
0{
1z
1.!
1[!
0]!
0S!
0.!
1\!
1_!
0^!
0`!
0g!
1a!
#400000
0$
0!
0O!
0M!
0N!
1Z
0r!
#410000
1!
1M!
1N!
0Z
0A"
0B"
0C"
1S"
0D"
0m!
0k!
1`!
1g!
0\!
1m
0_!
1^!
0Z!
1]!
1S!
1x
0I!
0R!
1b
0t
1j
0a!
0g!
1k!
0[!
0^!
1/!
0S!
1D
1t
0j
0m
0D
#420000
0!
0M!
0N!
1Z
#430000
1!
1M!
1N!
0Z
0S"
1R"
1D"
0x
1I!
0y
0/!
1R!
0b
1y
1/!
1{
0z
1S!
0{
1z
1.!
0.!
#440000
0!
0M!
0N!
1Z
#450000
1!
1M!
1N!
0Z
1C"
1S"
0D"
0]!
0S!
1J!
1x
0I!
0R!
1b
1^!
1K!
0y
0/!
1]!
1S!
1L!
1{
0z
0^!
1.!
1C
#460000
0!
0M!
0N!
1Z
#470000
1!
1M!
1N!
0Z
0S"
0R"
1P"
0Q"
1D"
0x
1I!
1y
1/!
0|
0.!
0{
1z
1R!
0b
0/!
0z
1}
1|
1.!
0]!
0S!
0}
1^!
#480000
0!
0M!
0N!
1Z
#490000
1!
1M!
1N!
0Z
1B"
0C"
1S"
0D"
1_!
0^!
1]!
1S!
1x
0I!
0R!
1b
1g!
0_!
1^!
1/!
0S!
0g!
#500000
0!
0M!
0N!
1Z
#510000
1!
1M!
1N!
0Z
0S"
1R"
1D"
0x
1I!
0y
0/!
1R!
0b
1y
1/!
1z
1S!
0z
#520000
0!
0M!
0N!
1Z
#530000
1!
1M!
1N!
0Z
1C"
1S"
0D"
0]!
0S!
0J!
1x
0I!
0R!
1b
1_!
0^!
0K!
0y
0/!
1]!
1S!
1g!
0L!
1z
0_!
1^!
0g!
0C
#540000
0!
0M!
0N!
1Z
#550000
1!
1M!
1N!
0Z
0S"
0R"
1Q"
1D"
0x
1I!
1y
1/!
1{
0z
1Z!
1R!
0b
0/!
0{
1z
0|
0.!
1n!
0k!
1[!
0]!
0S!
1|
1.!
1}
0t
1j
1m
1_!
0^!
1D
0}
1g!
#560000
1$
0!
1O!
0M!
0N!
1Z
1r!
#570000
1!
1M!
1N!
0Z
1f"
1A"
0B"
0C"
1S"
0H"
1G"
0D"
18"
1t!
1m!
1k!
0`!
0g!
1\!
0m
0_!
1^!
0Z!
1]!
1S!
1x
0I!
1t
0R!
1b
1N
19"
0n!
0t
1a!
1`!
1g!
0[!
0^!
1/!
0S!
0D
0a!
0\!
0B
#580000
0!
0M!
0N!
1Z
#590000
1!
1M!
1N!
0Z
0S"
1R"
1D"
0x
1I!
0y
0/!
1R!
0b
1y
1/!
1{
0z
1S!
0{
1z
0|
0.!
1|
1.!
1}
0}
#600000
0!
0M!
0N!
1Z
#610000
1!
1M!
1N!
0Z
1C"
1S"
0D"
0]!
0S!
10!
1x
0I!
0R!
1b
1^!
11!
1-!
0y
0/!
1]!
1S!
1@!
15!
04!
13!
0s
1{
0z
0^!
05!
0|
0.!
1}
#620000
0!
0M!
0N!
1Z
#630000
1!
1M!
1N!
0Z
0S"
0b"
1_"
0]"
1\"
0["
1V"
0R"
0P"
0Q"
0W"
1D"
00!
0x
1I!
1F!
0D!
1C!
0B!
1y
1/!
1|
1.!
0{
1z
1s
1R!
0b
01!
0-!
0/!
0z
0}
0.!
0]!
0S!
0@!
14!
0s
1^!
#640000
0$
0!
0O!
0M!
0N!
1Z
0r!
#650000
1!
1M!
1N!
0Z
1B"
0C"
1S"
0D"
1_!
0^!
1]!
1S!
1x
0I!
0R!
1b
0`!
0g!
0_!
1^!
1/!
0S!
1a!
1`!
1g!
0a!
#660000
0!
0M!
0N!
1Z
#670000
1!
1M!
1N!
0Z
0S"
1R"
1D"
0x
1I!
0y
0/!
1R!
0b
1y
1/!
1z
1S!
0z
#680000
0!
0M!
0N!
1Z
#690000
1!
1M!
1N!
0Z
1C"
1S"
0D"
0]!
0S!
1x
0I!
0R!
1b
1_!
0^!
0y
0/!
1]!
1S!
0`!
0g!
1z
0_!
1^!
1a!
1`!
1g!
0a!
#700000
0!
0M!
0N!
1Z
#710000
1!
1M!
1N!
0Z
0S"
0R"
1Q"
1D"
0x
1I!
1y
1/!
1{
0z
1Z!
1R!
0b
0/!
0{
1z
1.!
1[!
0]!
0S!
0.!
1\!
1_!
0^!
0`!
0g!
1a!
#720000
1$
0!
1O!
0M!
0N!
1Z
1r!
#730000
1!
1M!
1N!
0Z
0A"
0B"
0C"
1S"
0D"
0m!
0k!
1`!
1g!
0\!
1m
0_!
1^!
0Z!
1]!
1S!
1x
0I!
0R!
1b
1t
0a!
0g!
1k!
0[!
0^!
1/!
0S!
1D
0t
0m
0D
#740000
0!
0M!
0N!
1Z
#750000
1!
1M!
1N!
0Z
0S"
1R"
1D"
0x
1I!
0y
0/!
1R!
0b
1y
1/!
1{
0z
1S!
0{
1z
1.!
0.!
#760000
0!
0M!
0N!
1Z
#770000
1!
1M!
1N!
0Z
1C"
1S"
0D"
0]!
0S!
1J!
1x
0I!
0R!
1b
1^!
1K!
0y
0/!
1]!
1S!
1{
0z
0^!
1.!
#780000
0!
0M!
0N!
1Z
#790000
1!
1M!
1N!
0Z
0S"
0R"
1P"
0Q"
1D"
0x
1I!
1y
1/!
0|
0.!
0{
1z
1R!
0b
0/!
0z
1}
1|
1.!
0]!
0S!
0}
1^!
#800000
0!
0M!
0N!
1Z
#810000
1!
1M!
1N!
0Z
1B"
0C"
1S"
0D"
1_!
0^!
1]!
1S!
1x
0I!
0R!
1b
1g!
0_!
1^!
1/!
0S!
0g!
#820000
0!
0M!
0N!
1Z
#830000
1!
1M!
1N!
0Z
0S"
1R"
1D"
0x
1I!
0y
0/!
1R!
0b
1y
1/!
1z
1S!
0z
#840000
0!
0M!
0N!
1Z
#850000
1!
1M!
1N!
0Z
1C"
1S"
0D"
0]!
0S!
0J!
1x
0I!
0R!
1b
1_!
0^!
0K!
0y
0/!
1]!
1S!
1g!
1z
0_!
1^!
0g!
#860000
0!
0M!
0N!
1Z
#870000
1!
1M!
1N!
0Z
0S"
0R"
1Q"
1D"
0x
1I!
1y
1/!
1{
0z
1Z!
1R!
0b
0/!
0{
1z
0|
0.!
1n!
0k!
1[!
0]!
0S!
1|
1.!
1}
1t
1m
1_!
0^!
1D
0}
1g!
#880000
0!
0M!
0N!
1Z
#890000
1!
1M!
1N!
0Z
1g"
1A"
0B"
0C"
1S"
1H"
0D"
08"
0/"
1-"
1,"
1)"
1u!
1m!
1k!
0`!
0g!
1\!
0m
0_!
1^!
0Z!
1]!
1S!
1x
0I!
0t
1n
0j
0R!
1b
1F
1O
09"
0n!
1t
1j
1a!
1`!
1g!
0[!
0^!
1/!
0S!
0,
1.
1/
12
0D
0a!
0\!
1B
#900000
0!
0M!
0N!
1Z
#910000
1!
1M!
1N!
0Z
0S"
1R"
1D"
0x
1I!
0y
0/!
1R!
0b
1y
1/!
1{
0z
1S!
0{
1z
0|
0.!
1|
1.!
1}
0}
#920000
0!
0M!
0N!
1Z
#930000
1!
1M!
1N!
0Z
1C"
1S"
0D"
0]!
0S!
10!
1x
0I!
0R!
1b
1^!
11!
1-!
0y
0/!
1]!
1S!
1@!
15!
04!
1s
1{
0z
0^!
05!
0|
0.!
1}
#940000
0!
0M!
0N!
1Z
#950000
1!
1M!
1N!
0Z
0S"
1`"
0^"
1]"
0\"
0R"
0P"
0Q"
1W"
1D"
00!
0x
1I!
1G!
0E!
1D!
0C!
1y
1/!
1|
1.!
0{
1z
14!
03!
0s
1R!
0b
01!
0-!
0/!
0z
0}
0.!
15!
0]!
0S!
0@!
05!
13!
1s
1^!
#960000
0!
0M!
0N!
1Z
#970000
1!
1M!
1N!
0Z
1B"
0C"
1S"
0D"
1_!
0^!
1]!
1S!
1x
0I!
0R!
1b
0`!
0g!
0_!
1^!
1/!
0S!
1a!
1`!
1g!
0a!
