full_uart/simulation/qsim/full_uart.msim.vcd
$comment
	File created using the following command:
		vcd file full_uart.msim.vcd -direction
$end
$date
	Fri Feb 09 12:50:56 2024
$end
$version
	ModelSim Version 10.1d
$end
$timescale
	1ps
$end
$scope module full_uart_vlg_vec_tst $end
$var reg 1 ! CLOCK_50 $end
$var reg 1 " IRDA_RXD $end
$var reg 4 # KEY [3:0] $end
$var reg 9 $ SW [8:0] $end
$var reg 1 % UART_RXD $end
$var wire 1 & HEX0 [6] $end
$var wire 1 ' HEX0 [5] $end
$var wire 1 ( HEX0 [4] $end
$var wire 1 ) HEX0 [3] $end
$var wire 1 * HEX0 [2] $end
$var wire 1 + HEX0 [1] $end
$var wire 1 , HEX0 [0] $end
$var wire 1 - HEX1 [6] $end
$var wire 1 . HEX1 [5] $end
$var wire 1 / HEX1 [4] $end
$var wire 1 0 HEX1 [3] $end
$var wire 1 1 HEX1 [2] $end
$var wire 1 2 HEX1 [1] $end
$var wire 1 3 HEX1 [0] $end
$var wire 1 4 HEX4 [6] $end
$var wire 1 5 HEX4 [5] $end
$var wire 1 6 HEX4 [4] $end
$var wire 1 7 HEX4 [3] $end
$var wire 1 8 HEX4 [2] $end
$var wire 1 9 HEX4 [1] $end
$var wire 1 : HEX4 [0] $end
$var wire 1 ; HEX5 [6] $end
$var wire 1 < HEX5 [5] $end
$var wire 1 = HEX5 [4] $end
$var wire 1 > HEX5 [3] $end
$var wire 1 ? HEX5 [2] $end
$var wire 1 @ HEX5 [1] $end
$var wire 1 A HEX5 [0] $end
$var wire 1 B IRDA_TXD $end
$var wire 1 C LEDG [6] $end
$var wire 1 D LEDR [2] $end
$var wire 1 E UART_TXD $end
$var wire 1 F rx_ctrl_load_counter $end
$var wire 1 G rx_ctrl_state $end
$var wire 1 H rx_parity_7sd [6] $end
$var wire 1 I rx_parity_7sd [5] $end
$var wire 1 J rx_parity_7sd [4] $end
$var wire 1 K rx_parity_7sd [3] $end
$var wire 1 L rx_parity_7sd [2] $end
$var wire 1 M rx_parity_7sd [1] $end
$var wire 1 N rx_parity_7sd [0] $end
$var wire 1 O rx_sr_parity [10] $end
$var wire 1 P rx_sr_parity [9] $end
$var wire 1 Q rx_sr_parity [8] $end
$var wire 1 R rx_sr_parity [7] $end
$var wire 1 S rx_sr_parity [6] $end
$var wire 1 T rx_sr_parity [5] $end
$var wire 1 U rx_sr_parity [4] $end
$var wire 1 V rx_sr_parity [3] $end
$var wire 1 W rx_sr_parity [2] $end
$var wire 1 X rx_sr_parity [1] $end
$var wire 1 Y rx_sr_parity [0] $end
$var wire 1 Z tx_ctrl_state [1] $end
$var wire 1 [ tx_ctrl_state [0] $end
$var wire 1 \ sampler $end
$scope module i1 $end
$var wire 1 ] gnd $end
$var wire 1 ^ vcc $end
$var wire 1 _ unknown $end
$var tri1 1 ` devclrn $end
$var tri1 1 a devpor $end
$var tri1 1 b devoe $end
$var wire 1 c tx|baud|count[5]~22_combout $end
$var wire 1 d rx|baud_rx|count[0]~11_combout $end
$var wire 1 e tx|ctrl|Equal0~0_combout $end
$var wire 1 f tx|pulser|current_state~regout $end
$var wire 1 g tx|sr|tmp_data~5_combout $end
$var wire 1 h tx|pulser|current_state~0_combout $end
$var wire 1 i tx|counter|Add0~0_combout $end
$var wire 1 j tx|sr|tmp_data~6_combout $end
$var wire 1 k tx|sr|tmp_data~7_combout $end
$var wire 1 l tx|sr|tmp_data~8_combout $end
$var wire 1 m tx|sr|tmp_data~9_combout $end
$var wire 1 n tx|sr|tmp_data~10_combout $end
$var wire 1 o tx|sr|tmp_data~11_combout $end
$var wire 1 p tx|sr|tmp_data~12_combout $end
$var wire 1 q tx|parity|WideXnor0~0_combout $end
$var wire 1 r tx|parity|WideXnor0~combout $end
$var wire 1 s tx|sr|tmp_data~13_combout $end
$var wire 1 t tx|sr|tmp_data~15_combout $end
$var wire 1 u tx|synchroniser|ff1~0_combout $end
$var wire 1 v tx|synchroniser|ff1~regout $end
$var wire 1 w tx|synchroniser|ff2~feeder_combout $end
$var wire 1 x tx|synchroniser|ff2~regout $end
$var wire 1 y tx|ctrl|current_state[0]~3_combout $end
$var wire 1 z tx|ctrl|ctrl_sr_shift~3_combout $end
$var wire 1 { tx|baud|count[0]~12 $end
$var wire 1 | tx|baud|count[1]~15 $end
$var wire 1 } tx|baud|count[2]~16_combout $end
$var wire 1 ~ tx|baud|count[2]~17 $end
$var wire 1 !! tx|baud|count[3]~18_combout $end
$var wire 1 "! tx|baud|count[3]~19 $end
$var wire 1 #! tx|baud|count[4]~20_combout $end
$var wire 1 $! tx|baud|count[4]~21 $end
$var wire 1 %! tx|baud|count[5]~23 $end
$var wire 1 &! tx|baud|count[6]~24_combout $end
$var wire 1 '! tx|baud|count[6]~25 $end
$var wire 1 (! tx|baud|count[7]~27 $end
$var wire 1 )! tx|baud|count[8]~28_combout $end
$var wire 1 *! tx|baud|count[8]~29 $end
$var wire 1 +! tx|baud|count[9]~30_combout $end
$var wire 1 ,! tx|baud|count[9]~31 $end
$var wire 1 -! tx|baud|count[10]~32_combout $end
$var wire 1 .! tx|ctrl|ctrl_sr_shift~1_combout $end
$var wire 1 /! tx|baud|count[7]~26_combout $end
$var wire 1 0! tx|ctrl|ctrl_sr_shift~0_combout $end
$var wire 1 1! tx|baud|count[4]~13_combout $end
$var wire 1 2! tx|baud|count[1]~14_combout $end
$var wire 1 3! tx|ctrl|ctrl_sr_shift~2_combout $end
$var wire 1 4! tx|ctrl|ctrl_sr_shift~combout $end
$var wire 1 5! tx|counter|count[0]~7_combout $end
$var wire 1 6! tx|counter|count[0]~2_combout $end
$var wire 1 7! tx|counter|count[1]~3_combout $end
$var wire 1 8! tx|counter|count[2]~5_combout $end
$var wire 1 9! tx|counter|count[2]~6_combout $end
$var wire 1 :! tx|counter|count[3]~4_combout $end
$var wire 1 ;! tx|counter|Equal0~0_combout $end
$var wire 1 <! tx|ctrl|current_state[0]~4_combout $end
$var wire 1 =! tx|ctrl|current_state[1]~6_combout $end
$var wire 1 >! tx|ctrl|current_state[0]~2_combout $end
$var wire 1 ?! tx|ctrl|current_state[0]~5_combout $end
$var wire 1 @! tx|sr|tmp_data~4_combout $end
$var wire 1 A! tx|sr|tmp_data[0]~14_combout $end
$var wire 1 B! tx|inv_tx|UART_output~0_combout $end
$var wire 1 C! tx|enc_tx|encoder_output~0_combout $end
$var wire 1 D! tx|baud|count[0]~11_combout $end
$var wire 1 E! tx|enc_tx|encoder_output~1_combout $end
$var wire 1 F! tx|enc_tx|encoder_output~2_combout $end
$var wire 1 G! CLOCK_50~combout $end
$var wire 1 H! CLOCK_50~clkctrl_outclk $end
$var wire 1 I! rx|counter_rx|count[0]~8_combout $end
$var wire 1 J! rx|counter_rx|count[1]~5_combout $end
$var wire 1 K! rx|counter_rx|count[2]~9_combout $end
$var wire 1 L! rx|counter_rx|count[2]~7_combout $end
$var wire 1 M! rx|counter_rx|Add0~0_combout $end
$var wire 1 N! rx|counter_rx|count[3]~6_combout $end
$var wire 1 O! rx|counter_rx|Equal0~0_combout $end
$var wire 1 P! rx|counter_rx|count[0]~4_combout $end
$var wire 1 Q! rx|ctrl_rx|current_state~0_combout $end
$var wire 1 R! rx|ctrl_rx|current_state~regout $end
$var wire 1 S! rx|baud_rx|count[0]~12 $end
$var wire 1 T! rx|baud_rx|count[1]~13_combout $end
$var wire 1 U! UART_RXD~combout $end
$var wire 1 V! rx|baud_rx|count[2]~20_combout $end
$var wire 1 W! rx|baud_rx|count[3]~18 $end
$var wire 1 X! rx|baud_rx|count[4]~22_combout $end
$var wire 1 Y! rx|baud_rx|count[2]~15_combout $end
$var wire 1 Z! rx|ctrl_rx|ctrl_sr_load~1_combout $end
$var wire 1 [! rx|baud_rx|count[4]~23 $end
$var wire 1 \! rx|baud_rx|count[5]~24_combout $end
$var wire 1 ]! rx|baud_rx|count[5]~25 $end
$var wire 1 ^! rx|baud_rx|count[6]~26_combout $end
$var wire 1 _! rx|baud_rx|count[6]~27 $end
$var wire 1 `! rx|baud_rx|count[7]~28_combout $end
$var wire 1 a! rx|baud_rx|count[7]~29 $end
$var wire 1 b! rx|baud_rx|count[8]~31 $end
$var wire 1 c! rx|baud_rx|count[9]~32_combout $end
$var wire 1 d! rx|baud_rx|count[9]~33 $end
$var wire 1 e! rx|baud_rx|count[10]~34_combout $end
$var wire 1 f! rx|ctrl_rx|ctrl_sr_load~3_combout $end
$var wire 1 g! rx|baud_rx|count[8]~30_combout $end
$var wire 1 h! rx|ctrl_rx|ctrl_sr_load~2_combout $end
$var wire 1 i! rx|baud_rx|count[2]~19_combout $end
$var wire 1 j! rx|baud_rx|count[2]~21_combout $end
$var wire 1 k! rx|baud_rx|count[1]~14 $end
$var wire 1 l! rx|baud_rx|count[2]~16 $end
$var wire 1 m! rx|baud_rx|count[3]~17_combout $end
$var wire 1 n! rx|ctrl_rx|ctrl_sr_load~0_combout $end
$var wire 1 o! rx|ctrl_rx|ctrl_sr_load~4_combout $end
$var wire 1 p! rx|sr_rx|tmp_data~11_combout $end
$var wire 1 q! rx|sr_rx|tmp_data[2]~1_combout $end
$var wire 1 r! rx|sr_rx|tmp_data~10_combout $end
$var wire 1 s! rx|sr_rx|tmp_data~9_combout $end
$var wire 1 t! rx|sr_rx|tmp_data~8_combout $end
$var wire 1 u! rx|sr_rx|tmp_data~7_combout $end
$var wire 1 v! rx|sr_rx|tmp_data~6_combout $end
$var wire 1 w! rx|sr_rx|tmp_data~5_combout $end
$var wire 1 x! rx|sr_rx|tmp_data~4_combout $end
$var wire 1 y! rx|sr_rx|tmp_data~3_combout $end
$var wire 1 z! rx|sr_rx|tmp_data~2_combout $end
$var wire 1 {! rx|sr_rx|tmp_data~0_combout $end
$var wire 1 |! tx|msb|WideOr6~0_combout $end
$var wire 1 }! tx|msb|WideOr5~0_combout $end
$var wire 1 ~! tx|msb|Decoder0~0_combout $end
$var wire 1 !" tx|msb|WideOr3~0_combout $end
$var wire 1 "" tx|msb|WideOr2~0_combout $end
$var wire 1 #" tx|msb|WideOr1~0_combout $end
$var wire 1 $" tx|msb|WideOr0~0_combout $end
$var wire 1 %" tx|lsb|WideOr6~0_combout $end
$var wire 1 &" tx|lsb|WideOr5~0_combout $end
$var wire 1 '" tx|lsb|WideOr4~0_combout $end
$var wire 1 (" tx|lsb|WideOr3~0_combout $end
$var wire 1 )" tx|lsb|WideOr2~0_combout $end
$var wire 1 *" tx|lsb|WideOr1~0_combout $end
$var wire 1 +" tx|lsb|WideOr0~0_combout $end
$var wire 1 ," rx|msb_rx|WideOr6~0_combout $end
$var wire 1 -" rx|msb_rx|WideOr5~0_combout $end
$var wire 1 ." rx|msb_rx|Decoder0~0_combout $end
$var wire 1 /" rx|msb_rx|WideOr3~0_combout $end
$var wire 1 0" rx|msb_rx|WideOr2~0_combout $end
$var wire 1 1" rx|msb_rx|WideOr1~0_combout $end
$var wire 1 2" rx|msb_rx|WideOr0~0_combout $end
$var wire 1 3" rx|lsb_rx|WideOr6~0_combout $end
$var wire 1 4" rx|lsb_rx|WideOr5~0_combout $end
$var wire 1 5" rx|lsb_rx|WideOr4~0_combout $end
$var wire 1 6" rx|lsb_rx|WideOr3~0_combout $end
$var wire 1 7" rx|lsb_rx|WideOr2~0_combout $end
$var wire 1 8" rx|lsb_rx|WideOr1~0_combout $end
$var wire 1 9" rx|lsb_rx|WideOr0~0_combout $end
$var wire 1 :" rx|parity_rx|p_check_out~1_combout $end
$var wire 1 ;" rx|parity_rx|p_check_out~0_combout $end
$var wire 1 <" rx|parity_rx|p_check_out~combout $end
$var wire 1 =" rx|baud_rx|count [10] $end
$var wire 1 >" rx|baud_rx|count [9] $end
$var wire 1 ?" rx|baud_rx|count [8] $end
$var wire 1 @" rx|baud_rx|count [7] $end
$var wire 1 A" rx|baud_rx|count [6] $end
$var wire 1 B" rx|baud_rx|count [5] $end
$var wire 1 C" rx|baud_rx|count [4] $end
$var wire 1 D" rx|baud_rx|count [3] $end
$var wire 1 E" rx|baud_rx|count [2] $end
$var wire 1 F" rx|baud_rx|count [1] $end
$var wire 1 G" rx|baud_rx|count [0] $end
$var wire 1 H" rx|counter_rx|count [3] $end
$var wire 1 I" rx|counter_rx|count [2] $end
$var wire 1 J" rx|counter_rx|count [1] $end
$var wire 1 K" rx|counter_rx|count [0] $end
$var wire 1 L" tx|baud|count [10] $end
$var wire 1 M" tx|baud|count [9] $end
$var wire 1 N" tx|baud|count [8] $end
$var wire 1 O" tx|baud|count [7] $end
$var wire 1 P" tx|baud|count [6] $end
$var wire 1 Q" tx|baud|count [5] $end
$var wire 1 R" tx|baud|count [4] $end
$var wire 1 S" tx|baud|count [3] $end
$var wire 1 T" tx|baud|count [2] $end
$var wire 1 U" tx|baud|count [1] $end
$var wire 1 V" tx|baud|count [0] $end
$var wire 1 W" tx|counter|count [3] $end
$var wire 1 X" tx|counter|count [2] $end
$var wire 1 Y" tx|counter|count [1] $end
$var wire 1 Z" tx|counter|count [0] $end
$var wire 1 [" tx|sr|tmp_data [10] $end
$var wire 1 \" tx|sr|tmp_data [9] $end
$var wire 1 ]" tx|sr|tmp_data [8] $end
$var wire 1 ^" tx|sr|tmp_data [7] $end
$var wire 1 _" tx|sr|tmp_data [6] $end
$var wire 1 `" tx|sr|tmp_data [5] $end
$var wire 1 a" tx|sr|tmp_data [4] $end
$var wire 1 b" tx|sr|tmp_data [3] $end
$var wire 1 c" tx|sr|tmp_data [2] $end
$var wire 1 d" tx|sr|tmp_data [1] $end
$var wire 1 e" tx|sr|tmp_data [0] $end
$var wire 1 f" tx|ctrl|current_state [1] $end
$var wire 1 g" tx|ctrl|current_state [0] $end
$var wire 1 h" rx|sr_rx|tmp_data [10] $end
$var wire 1 i" rx|sr_rx|tmp_data [9] $end
$var wire 1 j" rx|sr_rx|tmp_data [8] $end
$var wire 1 k" rx|sr_rx|tmp_data [7] $end
$var wire 1 l" rx|sr_rx|tmp_data [6] $end
$var wire 1 m" rx|sr_rx|tmp_data [5] $end
$var wire 1 n" rx|sr_rx|tmp_data [4] $end
$var wire 1 o" rx|sr_rx|tmp_data [3] $end
$var wire 1 p" rx|sr_rx|tmp_data [2] $end
$var wire 1 q" rx|sr_rx|tmp_data [1] $end
$var wire 1 r" rx|sr_rx|tmp_data [0] $end
$var wire 1 s" KEY~combout [3] $end
$var wire 1 t" KEY~combout [2] $end
$var wire 1 u" KEY~combout [1] $end
$var wire 1 v" KEY~combout [0] $end
$var wire 1 w" SW~combout [8] $end
$var wire 1 x" SW~combout [7] $end
$var wire 1 y" SW~combout [6] $end
$var wire 1 z" SW~combout [5] $end
$var wire 1 {" SW~combout [4] $end
$var wire 1 |" SW~combout [3] $end
$var wire 1 }" SW~combout [2] $end
$var wire 1 ~" SW~combout [1] $end
$var wire 1 !# SW~combout [0] $end
$upscope $end
$upscope $end
$enddefinitions $end
#0
$dumpvars
0!
x"
b1xx1 #
b100111x1 $
1%
0,
0+
0*
0)
0(
0'
1&
03
02
01
00
0/
0.
1-
0:
09
08
17
16
15
14
0A
0@
1?
0>
0=
1<
0;
0B
1C
1D
1E
0F
0G
0N
0M
0L
0K
0J
0I
0H
0Y
0X
0W
0V
0U
0T
0S
0R
0Q
0P
0O
0[
0Z
x\
0]
1^
x_
1`
1a
1b
0c
1d
1e
0f
0g
0h
0i
0j
0k
0l
0m
0n
0o
0p
1q
0r
1s
0t
0u
0v
0w
0x
1y
0z
0{
1|
0}
0~
0!!
1"!
0#!
0$!
1%!
0&!
0'!
1(!
0)!
0*!
0+!
1,!
0-!
1.!
0/!
10!
01!
02!
03!
04!
05!
16!
07!
18!
09!
0:!
0;!
1<!
0=!
0>!
0?!
0@!
0A!
1B!
0C!
1D!
0E!
0F!
0G!
0H!
0I!
0J!
0K!
0L!
0M!
0N!
0O!
1P!
0Q!
0R!
0S!
0T!
1U!
0V!
1W!
0X!
0Y!
0Z!
0[!
0\!
1]!
0^!
0_!
0`!
1a!
0b!
0c!
1d!
0e!
1f!
0g!
1h!
1i!
1j!
1k!
0l!
0m!
1n!
1o!
1p!
0q!
0r!
0s!
0t!
0u!
0v!
0w!
0x!
0y!
0z!
0{!
0|!
0}!
1~!
0!"
0""
1#"
0$"
0%"
0&"
0'"
1("
1)"
1*"
0+"
0,"
0-"
0."
0/"
00"
01"
12"
03"
04"
05"
06"
07"
08"
09"
0:"
0;"
0<"
0G"
0F"
0E"
0D"
0C"
0B"
0A"
0@"
0?"
0>"
0="
0K"
0J"
0I"
0H"
0V"
0U"
0T"
0S"
0R"
0Q"
0P"
0O"
0N"
0M"
0L"
0Z"
0Y"
0X"
0W"
0e"
0d"
0c"
0b"
0a"
0`"
0_"
0^"
0]"
0\"
0["
0g"
0f"
0r"
0q"
0p"
0o"
0n"
0m"
0l"
0k"
0j"
0i"
0h"
1v"
zu"
zt"
1s"
1!#
z~"
1}"
1|"
1{"
0z"
0y"
1x"
0w"
$end
#10000
1!
1G!
1H!
0\
1V"
1{
0D!
12!
#20000
0!
0G!
0H!
1\
#30000
1!
1G!
1H!
0\
0V"
1U"
0{
1D!
0|
02!
1|
12!
1}
0}
#40000
b0xx1 #
0!
0s"
0G!
0H!
1\
1u
#50000
1!
1G!
1H!
0\
1V"
1v
1{
0D!
1w
0|
02!
1}
#60000
b1xx1 #
0!
1s"
0G!
0H!
1\
0u
#70000
1!
1G!
1H!
0\
0V"
0U"
1T"
1x
0v
0{
1D!
1|
12!
1~
0}
1>!
0y
1h
0w
02!
0~
1}
1!!
0<!
0!!
1?!
#80000
0%
0!
0U!
0G!
0H!
1\
#90000
1!
1G!
1H!
0\
1V"
1g"
0x
1f
1{
0D!
1A!
0>!
1=!
1t
1g
0e
0h
1[
12!
0?!
0s
1p
1n
1m
#100000
0!
0G!
0H!
1\
#110000
1!
1G!
1H!
0\
0V"
0g"
1f"
1U"
1]"
1_"
1`"
0f
1d"
1["
0{
1D!
0A!
1@!
0=!
1z
0g
1e
1<!
0|
02!
0[
1Z
1|
12!
0p
1o
0n
1l
1=!
1~
0}
0~
1}
1!!
0!!
#120000
0!
0G!
0H!
1\
#130000
1!
1G!
1H!
0\
1V"
1E!
1{
0D!
0|
02!
1~
0}
1!!
#140000
0!
0G!
0H!
1\
#150000
1!
1G!
1H!
0\
0V"
0U"
0T"
1S"
0{
1D!
1|
12!
0~
1}
0"!
0!!
02!
0}
1"!
1!!
1#!
0#!
#160000
1%
0!
1U!
0G!
0H!
1\
#170000
1!
1G!
1H!
0\
1V"
1{
0D!
12!
#180000
0!
0G!
0H!
1\
#190000
1!
1G!
1H!
0\
0V"
1U"
0{
1D!
0|
02!
1|
12!
1}
0}
#200000
0!
0G!
0H!
1\
#210000
1!
1G!
1H!
0\
1V"
0E!
1{
0D!
0|
02!
1}
#220000
0!
0G!
0H!
1\
#230000
1!
1G!
1H!
0\
0V"
0U"
1T"
0{
1D!
1|
12!
1~
0}
02!
0~
1}
0"!
0!!
1"!
1!!
1#!
0#!
#240000
0!
0G!
0H!
1\
#250000
1!
1G!
1H!
0\
1V"
1{
0D!
12!
#260000
0!
0G!
0H!
1\
#270000
1!
1G!
1H!
0\
0V"
1U"
0{
1D!
0|
02!
1|
12!
1~
0}
0~
1}
0"!
0!!
1"!
1!!
1#!
0#!
#280000
0!
0G!
0H!
1\
#290000
1!
1G!
1H!
0\
1V"
13!
1{
0D!
14!
11!
0|
02!
1A!
19!
08!
15!
1~
0}
09!
0"!
0!!
1#!
#300000
0!
0G!
0H!
1\
#310000
1!
1G!
1H!
0\
0V"
1e"
1Z"
0U"
0T"
0S"
0]"
1^"
0_"
1a"
0d"
03!
0{
1D!
1C!
17!
05!
1|
12!
0~
1}
1"!
1!!
0o
1n
0m
1k
0@!
04!
01!
02!
0}
0!!
0#!
0A!
18!
07!
15!
#320000
0!
0G!
0H!
1\
#330000
1!
1G!
1H!
0\
1V"
1{
0D!
12!
#340000
0!
0G!
0H!
1\
#350000
1!
1G!
1H!
0\
0V"
1U"
0{
1D!
0|
02!
1|
12!
1}
0}
#360000
0!
0G!
0H!
1\
#370000
1!
1G!
1H!
0\
1V"
1{
0D!
0|
02!
1}
#380000
0!
0G!
0H!
1\
#390000
1!
1G!
1H!
0\
0V"
0U"
1T"
0{
1D!
1|
12!
1~
0}
02!
0~
1}
1!!
0!!
#400000
0%
0!
0U!
0G!
0H!
1\
#410000
1!
1G!
1H!
0\
1V"
1{
0D!
12!
#420000
0!
0G!
0H!
1\
#430000
1!
1G!
1H!
0\
0V"
1U"
0{
1D!
0|
02!
1|
12!
1~
0}
0~
1}
1!!
0!!
#440000
0!
0G!
0H!
1\
#450000
1!
1G!
1H!
0\
1V"
1E!
1{
0D!
1F!
0|
02!
1~
0}
1B
1!!
#460000
0!
0G!
0H!
1\
#470000
1!
1G!
1H!
0\
0V"
0U"
0T"
1S"
0{
1D!
1|
12!
0~
1}
0"!
0!!
02!
0}
1"!
1!!
1#!
0#!
#480000
0!
0G!
0H!
1\
#490000
1!
1G!
1H!
0\
1V"
1{
0D!
12!
#500000
0!
0G!
0H!
1\
#510000
1!
1G!
1H!
0\
0V"
1U"
0{
1D!
0|
02!
1|
12!
1}
0}
#520000
0!
0G!
0H!
1\
#530000
1!
1G!
1H!
0\
1V"
0E!
1{
0D!
0F!
0|
02!
1}
0B
#540000
0!
0G!
0H!
1\
#550000
1!
1G!
1H!
0\
0V"
0U"
1T"
0{
1D!
1|
12!
1~
0}
02!
0~
1}
0"!
0!!
1"!
1!!
1#!
0#!
#560000
1%
0!
1U!
0G!
0H!
1\
#570000
1!
1G!
1H!
0\
1V"
1{
0D!
12!
#580000
0!
0G!
0H!
1\
#590000
1!
1G!
1H!
0\
0V"
1U"
0{
1D!
0|
02!
1|
12!
1~
0}
0~
1}
0"!
0!!
1"!
1!!
1#!
0#!
#600000
0!
0G!
0H!
1\
#610000
1!
1G!
1H!
0\
1V"
13!
1{
0D!
14!
11!
0|
02!
1A!
19!
08!
17!
05!
1~
0}
09!
0"!
0!!
1#!
#620000
0!
0G!
0H!
1\
#630000
1!
1G!
1H!
0\
0V"
0e"
1Y"
0Z"
0U"
0T"
0S"
0^"
1_"
0`"
1b"
03!
0{
1D!
0C!
15!
1|
12!
0~
1}
1"!
1!!
0n
1m
0l
1j
04!
01!
02!
0}
0!!
0#!
0A!
18!
05!
#640000
0%
0!
0U!
0G!
0H!
1\
#650000
1!
1G!
1H!
0\
1V"
1{
0D!
12!
#660000
0!
0G!
0H!
1\
#670000
1!
1G!
1H!
0\
0V"
1U"
0{
1D!
0|
02!
1|
12!
1}
0}
#680000
0!
0G!
0H!
1\
#690000
1!
1G!
1H!
0\
1V"
1{
0D!
0|
02!
1}
#700000
0!
0G!
0H!
1\
#710000
1!
1G!
1H!
0\
0V"
0U"
1T"
0{
1D!
1|
12!
1~
0}
02!
0~
1}
1!!
0!!
#720000
1%
0!
1U!
0G!
0H!
1\
#730000
1!
1G!
1H!
0\
1V"
1{
0D!
12!
#740000
0!
0G!
0H!
1\
#750000
1!
1G!
1H!
0\
0V"
1U"
0{
1D!
0|
02!
1|
12!
1~
0}
0~
1}
1!!
0!!
#760000
0!
0G!
0H!
1\
#770000
1!
1G!
1H!
0\
1V"
1E!
1{
0D!
0|
02!
1~
0}
1!!
#780000
0!
0G!
0H!
1\
#790000
1!
1G!
1H!
0\
0V"
0U"
0T"
1S"
0{
1D!
1|
12!
0~
1}
0"!
0!!
02!
0}
1"!
1!!
1#!
0#!
#800000
0!
0G!
0H!
1\
#810000
1!
1G!
1H!
0\
1V"
1{
0D!
12!
#820000
0!
0G!
0H!
1\
#830000
1!
1G!
1H!
0\
0V"
1U"
0{
1D!
0|
02!
1|
12!
1}
0}
#840000
0!
0G!
0H!
1\
#850000
1!
1G!
1H!
0\
1V"
0E!
1{
0D!
0|
02!
1}
#860000
0!
0G!
0H!
1\
#870000
1!
1G!
1H!
0\
0V"
0U"
1T"
0{
1D!
1|
12!
1~
0}
02!
0~
1}
0"!
0!!
1"!
1!!
1#!
0#!
#880000
0!
0G!
0H!
1\
#890000
1!
1G!
1H!
0\
1V"
1{
0D!
12!
#900000
0!
0G!
0H!
1\
#910000
1!
1G!
1H!
0\
0V"
1U"
0{
1D!
0|
02!
1|
12!
1~
0}
0~
1}
0"!
0!!
1"!
1!!
1#!
0#!
#920000
0!
0G!
0H!
1\
#930000
1!
1G!
1H!
0\
1V"
13!
1{
0D!
14!
11!
0|
02!
1A!
19!
08!
15!
1~
0}
09!
0"!
0!!
1#!
#940000
0!
0G!
0H!
1\
#950000
1!
1G!
1H!
0\
0V"
1Z"
0U"
0T"
0S"
0_"
1`"
0a"
1c"
03!
0{
1D!
18!
07!
05!
1|
12!
0~
1}
1"!
1!!
0m
1l
0k
1g
04!
01!
02!
19!
0}
0!!
0#!
0A!
09!
17!
15!
#960000
0!
0G!
0H!
1\
#970000
1!
1G!
1H!
0\
1V"
1{
0D!
12!
#980000
0!
0G!
0H!
1\
#990000
1!
1G!
1H!
0\
0V"
1U"
0{
1D!
0|
02!
1|
12!
1}
0}
#1000000
0!
0G!
0H!
1\
#1010000
1!
1G!
1H!
0\
1V"
1{
0D!
0|
02!
1}
#1020000
0!
0G!
0H!
1\
#1030000
1!
1G!
1H!
0\
0V"
0U"
1T"
0{
1D!
1|
12!
1~
0}
02!
0~
1}
1!!
0!!
#1040000
0!
0G!
0H!
1\
#1050000
1!
1G!
1H!
0\
1V"
1{
0D!
12!
#1060000
0!
0G!
0H!
1\
#1070000
1!
1G!
1H!
0\
0V"
1U"
0{
1D!
0|
02!
1|
12!
1~
0}
0~
1}
1!!
0!!
#1080000
0!
0G!
0H!
1\
#1090000
1!
1G!
1H!
0\
1V"
1E!
1{
0D!
0|
02!
1~
0}
1!!
#1100000
0!
0G!
0H!
1\
#1110000
1!
1G!
1H!
0\
0V"
0U"
0T"
1S"
0{
1D!
1|
12!
0~
1}
0"!
0!!
02!
0}
1"!
1!!
1#!
0#!
#1120000
0!
0G!
0H!
1\
#1130000
1!
1G!
1H!
0\
1V"
1{
0D!
12!
#1140000
0!
0G!
0H!
1\
#1150000
1!
1G!
1H!
0\
0V"
1U"
0{
1D!
0|
02!
1|
12!
1}
0}
#1160000
0!
0G!
0H!
1\
#1170000
1!
1G!
1H!
0\
1V"
0E!
1{
0D!
0|
02!
1}
#1180000
0!
0G!
0H!
1\
#1190000
1!
1G!
1H!
0\
0V"
0U"
1T"
0{
1D!
1|
12!
1~
0}
02!
0~
1}
0"!
0!!
1"!
1!!
1#!
0#!
#1200000
0!
0G!
0H!
1\
#1210000
1!
1G!
1H!
0\
1V"
1{
0D!
12!
#1220000
0!
0G!
0H!
1\
#1230000
1!
1G!
1H!
0\
0V"
1U"
0{
1D!
0|
02!
1|
12!
1~
0}
0~
1}
0"!
0!!
1"!
1!!
1#!
0#!
#1240000
0!
0G!
0H!
1\
#1250000
1!
1G!
1H!
0\
1V"
13!
1{
0D!
14!
11!
0|
02!
1A!
19!
07!
05!
1~
0}
0"!
0!!
1#!
#1260000
0!
0G!
0H!
1\
#1270000
1!
1G!
1H!
0\
0V"
1X"
0Y"
0Z"
0U"
0T"
0S"
0`"
1a"
0b"
1d"
03!
0{
1D!
09!
08!
15!
1|
12!
0~
1}
1"!
1!!
0l
1k
0j
1@!
04!
01!
02!
19!
0}
0!!
0#!
0A!
09!
18!
05!
19!
#1280000
0!
0G!
0H!
1\
#1290000
1!
1G!
1H!
0\
1V"
1{
0D!
12!
#1300000
0!
0G!
0H!
1\
#1310000
1!
1G!
1H!
0\
0V"
1U"
0{
1D!
0|
02!
1|
12!
1}
0}
#1320000
0!
0G!
0H!
1\
#1330000
1!
1G!
1H!
0\
1V"
1{
0D!
0|
02!
1}
#1340000
0!
0G!
0H!
1\
#1350000
1!
1G!
1H!
0\
0V"
0U"
1T"
0{
1D!
1|
12!
1~
0}
02!
0~
1}
1!!
0!!
#1360000
0!
0G!
0H!
1\
#1370000
1!
1G!
1H!
0\
1V"
1{
0D!
12!
#1380000
0!
0G!
0H!
1\
#1390000
1!
1G!
1H!
0\
0V"
1U"
0{
1D!
0|
02!
1|
12!
1~
0}
0~
1}
1!!
0!!
#1400000
0!
0G!
0H!
1\
#1410000
1!
1G!
1H!
0\
1V"
1E!
1{
0D!
0|
02!
1~
0}
1!!
#1420000
0!
0G!
0H!
1\
#1430000
1!
1G!
1H!
0\
0V"
0U"
0T"
1S"
0{
1D!
1|
12!
0~
1}
0"!
0!!
02!
0}
1"!
1!!
1#!
0#!
#1440000
0!
0G!
0H!
1\
#1450000
1!
1G!
1H!
0\
1V"
1{
0D!
12!
#1460000
0!
0G!
0H!
1\
#1470000
1!
1G!
1H!
0\
0V"
1U"
0{
1D!
0|
02!
1|
12!
1}
0}
#1480000
0!
0G!
0H!
1\
#1490000
1!
1G!
1H!
0\
1V"
0E!
1{
0D!
0|
02!
1}
#1500000
0!
0G!
0H!
1\
#1510000
1!
1G!
1H!
0\
0V"
0U"
1T"
0{
1D!
1|
12!
1~
0}
02!
0~
1}
0"!
0!!
1"!
1!!
1#!
0#!
#1520000
0!
0G!
0H!
1\
#1530000
1!
1G!
1H!
0\
1V"
1{
0D!
12!
#1540000
0!
0G!
0H!
1\
#1550000
1!
1G!
1H!
0\
0V"
1U"
0{
1D!
0|
02!
1|
12!
1~
0}
0~
1}
0"!
0!!
1"!
1!!
1#!
0#!
#1560000
0!
0G!
0H!
1\
#1570000
1!
1G!
1H!
0\
1V"
13!
1{
0D!
14!
11!
0|
02!
1A!
09!
08!
15!
1~
0}
19!
0"!
0!!
1#!
#1580000
0!
0G!
0H!
1\
