rx_shift_register/simulation/qsim/rx_shift_register.msim.vcd
$comment
	File created using the following command:
		vcd file rx_shift_register.msim.vcd -direction
$end
$date
	Tue Feb 06 21:18:36 2024
$end
$version
	ModelSim Version 10.1d
$end
$timescale
	1ps
$end
$scope module rx_shift_register_vlg_vec_tst $end
$var reg 1 ! clk $end
$var reg 1 " reset $end
$var reg 1 # rx_sr_in $end
$var reg 1 $ rx_sr_load $end
$var wire 1 % rx_sr_out [10] $end
$var wire 1 & rx_sr_out [9] $end
$var wire 1 ' rx_sr_out [8] $end
$var wire 1 ( rx_sr_out [7] $end
$var wire 1 ) rx_sr_out [6] $end
$var wire 1 * rx_sr_out [5] $end
$var wire 1 + rx_sr_out [4] $end
$var wire 1 , rx_sr_out [3] $end
$var wire 1 - rx_sr_out [2] $end
$var wire 1 . rx_sr_out [1] $end
$var wire 1 / rx_sr_out [0] $end
$var wire 1 0 sampler $end
$scope module i1 $end
$var wire 1 1 gnd $end
$var wire 1 2 vcc $end
$var wire 1 3 unknown $end
$var tri1 1 4 devclrn $end
$var tri1 1 5 devpor $end
$var tri1 1 6 devoe $end
$var wire 1 7 rx_sr_out[0]~output_o $end
$var wire 1 8 rx_sr_out[1]~output_o $end
$var wire 1 9 rx_sr_out[2]~output_o $end
$var wire 1 : rx_sr_out[3]~output_o $end
$var wire 1 ; rx_sr_out[4]~output_o $end
$var wire 1 < rx_sr_out[5]~output_o $end
$var wire 1 = rx_sr_out[6]~output_o $end
$var wire 1 > rx_sr_out[7]~output_o $end
$var wire 1 ? rx_sr_out[8]~output_o $end
$var wire 1 @ rx_sr_out[9]~output_o $end
$var wire 1 A rx_sr_out[10]~output_o $end
$var wire 1 B clk~input_o $end
$var wire 1 C clk~inputclkctrl_outclk $end
$var wire 1 D rx_sr_in~input_o $end
$var wire 1 E reset~input_o $end
$var wire 1 F tmp_data~11_combout $end
$var wire 1 G rx_sr_load~input_o $end
$var wire 1 H tmp_data[0]~1_combout $end
$var wire 1 I tmp_data~10_combout $end
$var wire 1 J tmp_data~9_combout $end
$var wire 1 K tmp_data~8_combout $end
$var wire 1 L tmp_data~7_combout $end
$var wire 1 M tmp_data~6_combout $end
$var wire 1 N tmp_data~5_combout $end
$var wire 1 O tmp_data~4_combout $end
$var wire 1 P tmp_data~3_combout $end
$var wire 1 Q tmp_data~2_combout $end
$var wire 1 R tmp_data~0_combout $end
$var wire 1 S tmp_data [10] $end
$var wire 1 T tmp_data [9] $end
$var wire 1 U tmp_data [8] $end
$var wire 1 V tmp_data [7] $end
$var wire 1 W tmp_data [6] $end
$var wire 1 X tmp_data [5] $end
$var wire 1 Y tmp_data [4] $end
$var wire 1 Z tmp_data [3] $end
$var wire 1 [ tmp_data [2] $end
$var wire 1 \ tmp_data [1] $end
$var wire 1 ] tmp_data [0] $end
$upscope $end
$upscope $end
$enddefinitions $end
#0
$dumpvars
0!
1"
1#
0$
1/
1.
1-
1,
1+
1*
1)
1(
1'
1&
1%
x0
01
12
x3
14
15
16
17
18
19
1:
1;
1<
1=
1>
1?
1@
1A
0B
0C
1D
1E
0F
0G
0H
0I
0J
0K
0L
0M
0N
0O
0P
0Q
0R
0]
0\
0[
0Z
0Y
0X
0W
0V
0U
0T
0S
$end
#10000
1!
1B
1C
00
#20000
0#
0!
0D
0B
0C
10
1F
#30000
1$
1!
1G
1B
1C
00
1H
#40000
0!
0B
0C
10
#50000
0$
1!
0G
1B
1C
00
0H
1S
1I
0A
0%
#60000
1#
0!
1D
0B
0C
10
0F
#70000
1$
1!
1G
1B
1C
00
1H
#80000
0!
0B
0C
10
#90000
0$
1!
0G
1B
1C
00
0H
1T
0S
1J
0I
0@
1A
0&
1%
#100000
0!
0B
0C
10
#110000
1$
1!
1G
1B
1C
00
1H
#120000
0!
0B
0C
10
#130000
0$
1!
0G
1B
1C
00
0H
1U
0T
1K
0J
0?
1@
0'
1&
#140000
0!
0B
0C
10
#150000
1$
1!
1G
1B
1C
00
1H
#160000
0!
0B
0C
10
#170000
0$
1!
0G
1B
1C
00
0H
1V
0U
1L
0K
0>
1?
0(
1'
#180000
0#
0!
0D
0B
0C
10
1F
#190000
1$
1!
1G
1B
1C
00
1H
#200000
0!
0B
0C
10
#210000
0$
1!
0G
1B
1C
00
0H
1W
0V
1S
1M
0L
1I
0=
1>
0A
0)
1(
0%
#220000
0!
0B
0C
10
#230000
1$
1!
1G
1B
1C
00
1H
#240000
0!
0B
0C
10
#250000
0$
1!
0G
1B
1C
00
0H
1X
0W
1T
1N
0M
1J
0<
1=
0@
0*
1)
0&
#260000
1#
0!
1D
0B
0C
10
0F
#270000
1$
1!
1G
1B
1C
00
1H
#280000
0!
0B
0C
10
#290000
0$
1!
0G
1B
1C
00
0H
1Y
0X
1U
0S
1O
0N
1K
0I
0;
1<
0?
1A
0+
1*
0'
1%
#300000
0#
0!
0D
0B
0C
10
1F
#310000
1$
1!
1G
1B
1C
00
1H
#320000
0!
0B
0C
10
#330000
0$
1!
0G
1B
1C
00
0H
1Z
0Y
1V
0T
1S
1P
0O
1L
0J
1I
0:
1;
0>
1@
0A
0,
1+
0(
1&
0%
#340000
1#
0!
1D
0B
0C
10
0F
#350000
1$
1!
1G
1B
1C
00
1H
#360000
0!
0B
0C
10
#370000
0$
1!
0G
1B
1C
00
0H
1[
0Z
1W
0U
1T
0S
1Q
0P
1M
0K
1J
0I
09
1:
0=
1?
0@
1A
0-
1,
0)
1'
0&
1%
#380000
0!
0B
0C
10
#390000
1$
1!
1G
1B
1C
00
1H
#400000
0!
0B
0C
10
#410000
0$
1!
0G
1B
1C
00
0H
1\
0[
1X
0V
1U
0T
1R
0Q
1N
0L
1K
0J
08
19
0<
1>
0?
1@
0.
1-
0*
1(
0'
1&
#420000
0!
0B
0C
10
#430000
1$
1!
1G
1B
1C
00
1H
#440000
0!
0B
0C
10
#450000
0$
1!
0G
1B
1C
00
0H
1]
0\
1Y
0W
1V
0U
0R
1O
0M
1L
0K
07
18
0;
1=
0>
1?
0/
1.
0+
1)
0(
1'
#460000
0!
0B
0C
10
#470000
1!
1B
1C
00
#480000
0!
0B
0C
10
#490000
1!
1B
1C
00
#500000
0!
0B
0C
10
#510000
1!
1B
1C
00
#520000
0!
0B
0C
10
#530000
1!
1B
1C
00
#540000
0!
0B
0C
10
#550000
1!
1B
1C
00
#560000
0!
0B
0C
10
#570000
1!
1B
1C
00
#580000
0!
0B
0C
10
#590000
1!
1B
1C
00
#600000
0!
0B
0C
10
#610000
1!
1B
1C
00
#620000
0!
0B
0C
10
#630000
1!
1B
1C
00
#640000
0!
0B
0C
10
#650000
1!
1B
1C
00
#660000
0!
0B
0C
10
#670000
1!
1B
1C
00
#680000
0!
0B
0C
10
#690000
1!
1B
1C
00
#700000
0!
0B
0C
10
#710000
1!
1B
1C
00
#720000
0!
0B
0C
10
#730000
1!
1B
1C
00
#740000
0!
0B
0C
10
#750000
1!
1B
1C
00
#760000
0!
0B
0C
10
#770000
1!
1B
1C
00
#780000
0!
0B
0C
10
#790000
1!
1B
1C
00
#800000
0!
0B
0C
10
#810000
1!
1B
1C
00
#820000
0!
0B
0C
10
#830000
1!
1B
1C
00
#840000
0!
0B
0C
10
#850000
1!
1B
1C
00
#860000
0!
0B
0C
10
#870000
1!
1B
1C
00
#880000
0!
0B
0C
10
#890000
1!
1B
1C
00
#900000
0!
0B
0C
10
#910000
1!
1B
1C
00
#920000
0!
0B
0C
10
#930000
1!
1B
1C
00
#940000
0!
0B
0C
10
#950000
1!
1B
1C
00
#960000
0!
0B
0C
10
#970000
1!
1B
1C
00
#980000
0!
0B
0C
10
#990000
1!
1B
1C
00
