tx_baud_counter/simulation/qsim/tx_baud_counter.msim.vcd
$comment
	File created using the following command:
		vcd file tx_baud_counter.msim.vcd -direction
$end
$date
	Tue Feb 06 14:42:23 2024
$end
$version
	ModelSim Version 10.1d
$end
$timescale
	1ps
$end
$scope module tx_baud_counter_vlg_vec_tst $end
$var reg 1 ! clk $end
$var reg 1 " reset $end
$var reg 1 # reset_count $end
$var wire 1 $ baud_output $end
$var wire 1 % half_baud_output $end
$var wire 1 & sampler $end
$scope module i1 $end
$var wire 1 ' gnd $end
$var wire 1 ( vcc $end
$var wire 1 ) unknown $end
$var tri1 1 * devclrn $end
$var tri1 1 + devpor $end
$var tri1 1 , devoe $end
$var wire 1 - count[5]~21_combout $end
$var wire 1 . clk~combout $end
$var wire 1 / clk~clkctrl_outclk $end
$var wire 1 0 count[0]~12 $end
$var wire 1 1 count[1]~14 $end
$var wire 1 2 count[2]~15_combout $end
$var wire 1 3 reset_count~combout $end
$var wire 1 4 reset~combout $end
$var wire 1 5 count[10]~31_combout $end
$var wire 1 6 count[2]~16 $end
$var wire 1 7 count[3]~18 $end
$var wire 1 8 count[4]~19_combout $end
$var wire 1 9 count[4]~20 $end
$var wire 1 : count[5]~22 $end
$var wire 1 ; count[6]~23_combout $end
$var wire 1 < count[6]~24 $end
$var wire 1 = count[7]~25_combout $end
$var wire 1 > count[7]~26 $end
$var wire 1 ? count[8]~28 $end
$var wire 1 @ count[9]~29_combout $end
$var wire 1 A count[9]~30 $end
$var wire 1 B count[10]~32_combout $end
$var wire 1 C count[8]~27_combout $end
$var wire 1 D Equal0~1_combout $end
$var wire 1 E count[1]~13_combout $end
$var wire 1 F Equal0~0_combout $end
$var wire 1 G count[3]~17_combout $end
$var wire 1 H Equal1~0_combout $end
$var wire 1 I Equal0~2_combout $end
$var wire 1 J Equal1~2_combout $end
$var wire 1 K count[0]~11_combout $end
$var wire 1 L Equal1~1_combout $end
$var wire 1 M Equal1~3_combout $end
$var wire 1 N count [10] $end
$var wire 1 O count [9] $end
$var wire 1 P count [8] $end
$var wire 1 Q count [7] $end
$var wire 1 R count [6] $end
$var wire 1 S count [5] $end
$var wire 1 T count [4] $end
$var wire 1 U count [3] $end
$var wire 1 V count [2] $end
$var wire 1 W count [1] $end
$var wire 1 X count [0] $end
$upscope $end
$upscope $end
$enddefinitions $end
#0
$dumpvars
0!
1"
0#
0$
0%
x&
0'
1(
x)
1*
1+
1,
0-
0.
0/
00
11
02
03
14
05
06
17
08
09
1:
0;
0<
0=
1>
0?
0@
1A
0B
0C
1D
0E
1F
0G
1H
1I
1J
1K
0L
0M
0X
0W
0V
0U
0T
0S
0R
0Q
0P
0O
0N
$end
#10000
1!
1.
1/
0&
1X
10
0K
1E
#20000
0!
0.
0/
1&
#30000
1!
1.
1/
0&
0X
1W
1L
00
1K
01
0E
1M
11
1E
12
02
1%
#40000
0!
0.
0/
1&
#50000
1!
1.
1/
0&
1X
0L
10
0K
0M
01
0E
12
0%
#60000
0!
0.
0/
1&
#70000
1!
1.
1/
0&
0X
0W
1V
00
1K
11
1E
16
02
0E
06
12
1G
0G
#80000
0!
0.
0/
1&
#90000
1!
1.
1/
0&
1X
10
0K
1E
#100000
0"
0!
04
0.
0/
1&
15
#110000
1!
1.
1/
0&
0X
0V
00
1K
02
0E
#120000
1"
0!
14
0.
0/
1&
05
#130000
1!
1.
1/
0&
1X
10
0K
1E
#140000
0!
0.
0/
1&
#150000
1!
1.
1/
0&
0X
1W
1L
00
1K
01
0E
1M
11
1E
12
02
1%
#160000
0!
0.
0/
1&
#170000
1!
1.
1/
0&
1X
0L
10
0K
0M
01
0E
12
0%
#180000
0!
0.
0/
1&
#190000
1!
1.
1/
0&
0X
0W
1V
00
1K
11
1E
16
02
0E
06
12
1G
0G
#200000
0!
0.
0/
1&
#210000
1!
1.
1/
0&
1X
10
0K
1E
#220000
1#
0!
13
0.
0/
1&
15
#230000
1!
1.
1/
0&
0X
0V
00
1K
02
0E
#240000
0#
0!
03
0.
0/
1&
05
#250000
1!
1.
1/
0&
1X
10
0K
1E
#260000
0!
0.
0/
1&
#270000
1!
1.
1/
0&
0X
1W
1L
00
1K
01
0E
1M
11
1E
12
02
1%
#280000
0!
0.
0/
1&
#290000
1!
1.
1/
0&
1X
0L
10
0K
0M
01
0E
12
0%
#300000
0!
0.
0/
1&
#310000
1!
1.
1/
0&
0X
0W
1V
00
1K
11
1E
16
02
0E
06
12
1G
0G
#320000
0!
0.
0/
1&
#330000
1!
1.
1/
0&
1X
10
0K
1E
#340000
0!
0.
0/
1&
#350000
1!
1.
1/
0&
0X
1W
00
1K
01
0E
11
1E
16
02
06
12
1G
0G
#360000
0!
0.
0/
1&
#370000
1!
1.
1/
0&
1X
10
0K
01
0E
16
02
1G
#380000
0!
0.
0/
1&
#390000
1!
1.
1/
0&
0X
1U
0W
0V
00
1K
0H
07
0G
11
1E
06
12
0E
18
02
17
1G
08
#400000
0!
0.
0/
1&
#410000
1!
1.
1/
0&
1X
10
0K
1E
#420000
0!
0.
0/
1&
#430000
1!
1.
1/
0&
0X
1W
1L
00
1K
01
0E
11
1E
12
02
#440000
0!
0.
0/
1&
#450000
1!
1.
1/
0&
1X
0L
10
0K
01
0E
12
#460000
0!
0.
0/
1&
#470000
1!
1.
1/
0&
0X
0W
1V
00
1K
11
1E
16
02
0E
06
12
07
0G
17
1G
18
08
#480000
0!
0.
0/
1&
#490000
1!
1.
1/
0&
1X
10
0K
1E
#500000
0!
0.
0/
1&
#510000
1!
1.
1/
0&
0X
1W
00
1K
01
0E
11
1E
16
02
06
12
07
0G
17
1G
18
08
#520000
0!
0.
0/
1&
#530000
1!
1.
1/
0&
1X
10
0K
01
0E
16
02
07
0G
18
#540000
0!
0.
0/
1&
#550000
1!
1.
1/
0&
0X
0U
0W
1T
0V
00
1K
1H
17
1G
11
1E
19
08
06
12
0E
09
18
02
1-
0G
0-
#560000
0!
0.
0/
1&
#570000
1!
1.
1/
0&
1X
10
0K
1E
#580000
0!
0.
0/
1&
#590000
1!
1.
1/
0&
0X
1W
00
1K
01
0E
11
1E
12
02
#600000
0!
0.
0/
1&
#610000
1!
1.
1/
0&
1X
10
0K
01
0E
12
#620000
0!
0.
0/
1&
#630000
1!
1.
1/
0&
0X
0W
1V
00
1K
11
1E
16
02
0E
06
12
1G
0G
#640000
0!
0.
0/
1&
#650000
1!
1.
1/
0&
1X
0F
10
0K
1E
#660000
0!
0.
0/
1&
#670000
1!
1.
1/
0&
0X
1W
1F
00
1K
01
0E
11
1E
16
02
06
12
1G
0G
#680000
0!
0.
0/
1&
#690000
1!
1.
1/
0&
1X
10
0K
01
0E
16
02
1G
#700000
0!
0.
0/
1&
#710000
1!
1.
1/
0&
0X
1U
0W
0V
00
1K
0H
07
0G
11
1E
06
12
0E
19
08
02
17
1G
1-
09
18
0-
#720000
0!
0.
0/
1&
#730000
1!
1.
1/
0&
1X
10
0K
1E
#740000
0!
0.
0/
1&
#750000
1!
1.
1/
0&
0X
1W
00
1K
01
0E
11
1E
12
02
#760000
0!
0.
0/
1&
#770000
1!
1.
1/
0&
1X
10
0K
01
0E
12
#780000
0!
0.
0/
1&
#790000
1!
1.
1/
0&
0X
0W
1V
00
1K
11
1E
16
02
0E
06
12
07
0G
17
1G
19
08
09
18
1-
0-
#800000
0!
0.
0/
1&
#810000
1!
1.
1/
0&
1X
0F
10
0K
1E
#820000
0!
0.
0/
1&
#830000
1!
1.
1/
0&
0X
1W
1F
00
1K
01
0E
11
1E
16
02
06
12
07
0G
17
1G
19
08
09
18
1-
0-
#840000
0!
0.
0/
1&
#850000
1!
1.
1/
0&
1X
10
0K
01
0E
16
02
07
0G
19
08
1-
#860000
0!
0.
0/
1&
#870000
1!
1.
1/
0&
0X
0U
0W
0T
0V
1S
00
1K
17
1G
11
1E
09
18
06
12
0:
0-
0E
08
02
1:
1-
0G
1;
0;
#880000
0!
0.
0/
1&
#890000
1!
1.
1/
0&
1X
10
0K
1E
#900000
0!
0.
0/
1&
#910000
1!
1.
1/
0&
0X
1W
1L
00
1K
01
0E
11
1E
12
02
#920000
0!
0.
0/
1&
#930000
1!
1.
1/
0&
1X
0L
10
0K
01
0E
12
#940000
0!
0.
0/
1&
#950000
1!
1.
1/
0&
0X
0W
1V
00
1K
11
1E
16
02
0E
06
12
1G
0G
#960000
0!
0.
0/
1&
#970000
1!
1.
1/
0&
1X
10
0K
1E
#980000
0!
0.
0/
1&
#990000
1!
1.
1/
0&
0X
1W
00
1K
01
0E
11
1E
16
02
06
12
1G
0G
#1000000
0!
0.
0/
1&
#1010000
1!
1.
1/
0&
1X
10
0K
01
0E
16
02
1G
#1020000
0!
0.
0/
1&
#1030000
1!
1.
1/
0&
0X
1U
0W
0V
00
1K
07
0G
11
1E
06
12
0E
18
02
17
1G
08
#1040000
0!
0.
0/
1&
#1050000
1!
1.
1/
0&
1X
10
0K
1E
#1060000
0!
0.
0/
1&
#1070000
1!
1.
1/
0&
0X
1W
1L
00
1K
01
0E
11
1E
12
02
#1080000
0!
0.
0/
1&
#1090000
1!
1.
1/
0&
1X
0L
10
0K
01
0E
12
#1100000
0!
0.
0/
1&
#1110000
1!
1.
1/
0&
0X
0W
1V
00
1K
11
1E
16
02
0E
06
12
07
0G
17
1G
18
08
#1120000
0!
0.
0/
1&
#1130000
1!
1.
1/
0&
1X
10
0K
1E
#1140000
0!
0.
0/
1&
#1150000
1!
1.
1/
0&
0X
1W
00
1K
01
0E
11
1E
16
02
06
12
07
0G
17
1G
18
08
#1160000
0!
0.
0/
1&
#1170000
1!
1.
1/
0&
1X
10
0K
01
0E
16
02
07
0G
18
#1180000
0!
0.
0/
1&
#1190000
1!
1.
1/
0&
0X
0U
0W
1T
0V
00
1K
17
1G
11
1E
19
08
06
12
0E
09
18
02
0:
0-
0G
1:
1-
1;
0;
#1200000
0!
0.
0/
1&
#1210000
1!
1.
1/
0&
1X
10
0K
1E
#1220000
0!
0.
0/
1&
#1230000
1!
1.
1/
0&
0X
1W
00
1K
01
0E
11
1E
12
02
#1240000
0!
0.
0/
1&
#1250000
1!
1.
1/
0&
1X
10
0K
01
0E
12
#1260000
0!
0.
0/
1&
#1270000
1!
1.
1/
0&
0X
0W
1V
00
1K
11
1E
16
02
0E
06
12
1G
0G
#1280000
0!
0.
0/
1&
#1290000
1!
1.
1/
0&
1X
0F
10
0K
1E
#1300000
0!
0.
0/
1&
#1310000
1!
1.
1/
0&
0X
1W
1F
00
1K
01
0E
11
1E
16
02
06
12
1G
0G
#1320000
0!
0.
0/
1&
#1330000
1!
1.
1/
0&
1X
10
0K
01
0E
16
02
1G
#1340000
0!
0.
0/
1&
#1350000
1!
1.
1/
0&
0X
1U
0W
0V
00
1K
07
0G
11
1E
06
12
0E
19
08
02
17
1G
0:
0-
09
18
1;
1:
1-
0;
#1360000
0!
0.
0/
1&
#1370000
1!
1.
1/
0&
1X
10
0K
1E
#1380000
0!
0.
0/
1&
#1390000
1!
1.
1/
0&
0X
1W
00
1K
01
0E
11
1E
12
02
#1400000
0!
0.
0/
1&
#1410000
1!
1.
1/
0&
1X
10
0K
01
0E
12
#1420000
0!
0.
0/
1&
#1430000
1!
1.
1/
0&
0X
0W
1V
00
1K
11
1E
16
02
0E
06
12
07
0G
17
1G
19
08
09
18
0:
0-
1:
1-
1;
0;
#1440000
0!
0.
0/
1&
#1450000
1!
1.
1/
0&
1X
0F
10
0K
1E
#1460000
0!
0.
0/
1&
#1470000
1!
1.
1/
0&
0X
1W
1F
00
1K
01
0E
11
1E
16
02
06
12
07
0G
17
1G
19
08
09
18
0:
0-
1:
1-
1;
0;
#1480000
0!
0.
0/
1&
#1490000
1!
1.
1/
0&
1X
10
0K
01
0E
16
02
07
0G
19
08
0:
0-
1;
#1500000
0!
0.
0/
1&
#1510000
1!
1.
1/
0&
0X
0U
0W
1R
0T
0V
0S
00
1K
17
1G
11
1E
1<
0;
09
18
06
12
1:
1-
0E
08
02
1=
0-
0G
0<
1;
0=
#1520000
0!
0.
0/
1&
#1530000
1!
1.
1/
0&
1X
10
0K
1E
#1540000
0!
0.
0/
1&
#1550000
1!
1.
1/
0&
0X
1W
1L
00
1K
01
0E
11
1E
12
02
#1560000
0!
0.
0/
1&
#1570000
1!
1.
1/
0&
1X
0L
10
0K
01
0E
12
#1580000
0!
0.
0/
1&
#1590000
1!
1.
1/
0&
0X
0W
1V
00
1K
11
1E
16
02
0E
06
12
1G
0G
#1600000
0!
0.
0/
1&
#1610000
1!
1.
1/
0&
1X
10
0K
1E
#1620000
0!
0.
0/
1&
#1630000
1!
1.
1/
0&
0X
1W
00
1K
01
0E
11
1E
16
02
06
12
1G
0G
#1640000
0!
0.
0/
1&
#1650000
1!
1.
1/
0&
1X
10
0K
01
0E
16
02
1G
#1660000
0!
0.
0/
1&
#1670000
1!
1.
1/
0&
0X
1U
0W
0V
00
1K
07
0G
11
1E
06
12
0E
18
02
17
1G
08
#1680000
0!
0.
0/
1&
#1690000
1!
1.
1/
0&
1X
10
0K
1E
#1700000
0!
0.
0/
1&
#1710000
1!
1.
1/
0&
0X
1W
1L
00
1K
01
0E
11
1E
12
02
#1720000
0!
0.
0/
1&
#1730000
1!
1.
1/
0&
1X
0L
10
0K
01
0E
12
#1740000
0!
0.
0/
1&
#1750000
1!
1.
1/
0&
0X
0W
1V
00
1K
11
1E
16
02
0E
06
12
07
0G
17
1G
18
08
#1760000
0!
0.
0/
1&
#1770000
1!
1.
1/
0&
1X
10
0K
1E
#1780000
0!
0.
0/
1&
#1790000
1!
1.
1/
0&
0X
1W
00
1K
01
0E
11
1E
16
02
06
12
07
0G
17
1G
18
08
#1800000
0!
0.
0/
1&
#1810000
1!
1.
1/
0&
1X
10
0K
01
0E
16
02
07
0G
18
#1820000
0!
0.
0/
1&
#1830000
1!
1.
1/
0&
0X
0U
0W
1T
0V
00
1K
17
1G
11
1E
19
08
06
12
0E
09
18
02
1-
0G
0-
#1840000
0!
0.
0/
1&
#1850000
1!
1.
1/
0&
1X
10
0K
1E
#1860000
0!
0.
0/
1&
#1870000
1!
1.
1/
0&
0X
1W
00
1K
01
0E
11
1E
12
02
#1880000
0!
0.
0/
1&
#1890000
1!
1.
1/
0&
1X
10
0K
01
0E
12
#1900000
0!
0.
0/
1&
#1910000
1!
1.
1/
0&
0X
0W
1V
00
1K
11
1E
16
02
0E
06
12
1G
0G
#1920000
0!
0.
0/
1&
#1930000
1!
1.
1/
0&
1X
0F
10
0K
1E
#1940000
0!
0.
0/
1&
#1950000
1!
1.
1/
0&
0X
1W
1F
00
1K
01
0E
11
1E
16
02
06
12
1G
0G
#1960000
0!
0.
0/
1&
#1970000
1!
1.
1/
0&
1X
10
0K
01
0E
16
02
1G
#1980000
0!
0.
0/
1&
#1990000
1!
1.
1/
0&
0X
1U
0W
0V
00
1K
07
0G
11
1E
06
12
0E
19
08
02
17
1G
1-
09
18
0-
#2000000
0!
0.
0/
1&
#2010000
1!
1.
1/
0&
1X
10
0K
1E
#2020000
0!
0.
0/
1&
#2030000
1!
1.
1/
0&
0X
1W
00
1K
01
0E
11
1E
12
02
#2040000
0!
0.
0/
1&
#2050000
1!
1.
1/
0&
1X
10
0K
01
0E
12
#2060000
0!
0.
0/
1&
#2070000
1!
1.
1/
0&
0X
0W
1V
00
1K
11
1E
16
02
0E
06
12
07
0G
17
1G
19
08
09
18
1-
0-
#2080000
0!
0.
0/
1&
#2090000
1!
1.
1/
0&
1X
0F
10
0K
1E
#2100000
0!
0.
0/
1&
#2110000
1!
1.
1/
0&
0X
1W
1F
00
1K
01
0E
11
1E
16
02
06
12
07
0G
17
1G
19
08
09
18
1-
0-
#2120000
0!
0.
0/
1&
#2130000
1!
1.
1/
0&
1X
10
0K
01
0E
16
02
07
0G
19
08
1-
#2140000
0!
0.
0/
1&
#2150000
1!
1.
1/
0&
0X
0U
0W
0T
0V
1S
00
1K
17
1G
11
1E
09
18
06
12
0:
0-
0E
08
02
1:
1-
0G
1<
0;
0<
1;
1=
0=
#2160000
0!
0.
0/
1&
#2170000
1!
1.
1/
0&
1X
10
0K
1E
#2180000
0!
0.
0/
1&
#2190000
1!
1.
1/
0&
0X
1W
1L
00
1K
01
0E
11
1E
12
02
#2200000
0!
0.
0/
1&
#2210000
1!
1.
1/
0&
1X
0L
10
0K
01
0E
12
#2220000
0!
0.
0/
1&
#2230000
1!
1.
1/
0&
0X
0W
1V
00
1K
11
1E
16
02
0E
06
12
1G
0G
#2240000
0!
0.
0/
1&
#2250000
1!
1.
1/
0&
1X
10
0K
1E
#2260000
0!
0.
0/
1&
#2270000
1!
1.
1/
0&
0X
1W
00
1K
01
0E
11
1E
16
02
06
12
1G
0G
#2280000
0!
0.
0/
1&
#2290000
1!
1.
1/
0&
1X
10
0K
01
0E
16
02
1G
#2300000
0!
0.
0/
1&
#2310000
1!
1.
1/
0&
0X
1U
0W
0V
00
1K
07
0G
11
1E
06
12
0E
18
02
17
1G
08
#2320000
0!
0.
0/
1&
#2330000
1!
1.
1/
0&
1X
10
0K
1E
#2340000
0!
0.
0/
1&
#2350000
1!
1.
1/
0&
0X
1W
1L
00
1K
01
0E
11
1E
12
02
#2360000
0!
0.
0/
1&
#2370000
1!
1.
1/
0&
1X
0L
10
0K
01
0E
12
#2380000
0!
0.
0/
1&
#2390000
1!
1.
1/
0&
0X
0W
1V
00
1K
11
1E
16
02
0E
06
12
07
0G
17
1G
18
08
#2400000
0!
0.
0/
1&
#2410000
1!
1.
1/
0&
1X
10
0K
1E
#2420000
0!
0.
0/
1&
#2430000
1!
1.
1/
0&
0X
1W
00
1K
01
0E
11
1E
16
02
06
12
07
0G
17
1G
18
08
#2440000
0!
0.
0/
1&
#2450000
1!
1.
1/
0&
1X
10
0K
01
0E
16
02
07
0G
18
#2460000
0!
0.
0/
1&
#2470000
1!
1.
1/
0&
0X
0U
0W
1T
0V
00
1K
17
1G
11
1E
19
08
06
12
0E
09
18
02
0:
0-
0G
1:
1-
1<
0;
0<
1;
1=
0=
#2480000
0!
0.
0/
1&
#2490000
1!
1.
1/
0&
1X
10
0K
1E
#2500000
0!
0.
0/
1&
#2510000
1!
1.
1/
0&
0X
1W
00
1K
01
0E
11
1E
12
02
#2520000
0!
0.
0/
1&
#2530000
1!
1.
1/
0&
1X
10
0K
01
0E
12
#2540000
0!
0.
0/
1&
#2550000
1!
1.
1/
0&
0X
0W
1V
00
1K
11
1E
16
02
0E
06
12
1G
0G
#2560000
0!
0.
0/
1&
#2570000
1!
1.
1/
0&
1X
0F
10
0K
1E
#2580000
0!
0.
0/
1&
#2590000
1!
1.
1/
0&
0X
1W
1F
00
1K
01
0E
11
1E
16
02
06
12
1G
0G
#2600000
0!
0.
0/
1&
#2610000
1!
1.
1/
0&
1X
10
0K
01
0E
16
02
1G
#2620000
0!
0.
0/
1&
#2630000
1!
1.
1/
0&
0X
1U
0W
0V
00
1K
07
0G
11
1E
06
12
0E
19
08
02
17
1G
0:
0-
09
18
1<
0;
1:
1-
1=
0<
1;
0=
#2640000
0!
0.
0/
1&
#2650000
1!
1.
1/
0&
1X
10
0K
1E
#2660000
0!
0.
0/
1&
#2670000
1!
1.
1/
0&
0X
1W
00
1K
01
0E
11
1E
12
02
#2680000
0!
0.
0/
1&
#2690000
1!
1.
1/
0&
1X
10
0K
01
0E
12
#2700000
0!
0.
0/
1&
#2710000
1!
1.
1/
0&
0X
0W
1V
00
1K
11
1E
16
02
0E
06
12
07
0G
17
1G
19
08
09
18
0:
0-
1:
1-
1<
0;
0<
1;
1=
0=
#2720000
0!
0.
0/
1&
#2730000
1!
1.
1/
0&
1X
0F
10
0K
1E
#2740000
0!
0.
0/
1&
#2750000
1!
1.
1/
0&
0X
1W
1F
00
1K
01
0E
11
1E
16
02
06
12
07
0G
17
1G
19
08
09
18
0:
0-
1:
1-
1<
0;
0<
1;
1=
0=
#2760000
0!
0.
0/
1&
#2770000
1!
1.
1/
0&
1X
10
0K
01
0E
16
02
07
0G
19
08
0:
0-
1<
0;
1=
#2780000
0!
0.
0/
1&
#2790000
1!
1.
1/
0&
0X
0U
0W
1Q
0R
0T
0V
0S
00
1K
17
1G
11
1E
0>
0=
0<
1;
09
18
06
12
1:
1-
0E
08
02
1C
1>
1=
0-
0G
0;
0C
#2800000
0!
0.
0/
1&
#2810000
1!
1.
1/
0&
1X
10
0K
1E
#2820000
0!
0.
0/
1&
#2830000
1!
1.
1/
0&
0X
1W
1L
00
1K
01
0E
11
1E
12
02
#2840000
0!
0.
0/
1&
#2850000
1!
1.
1/
0&
1X
0L
10
0K
01
0E
12
#2860000
0!
0.
0/
1&
#2870000
1!
1.
1/
0&
0X
0W
1V
00
1K
11
1E
16
02
0E
06
12
1G
0G
#2880000
0!
0.
0/
1&
#2890000
1!
1.
1/
0&
1X
10
0K
1E
#2900000
0!
0.
0/
1&
#2910000
1!
1.
1/
0&
0X
1W
00
1K
01
0E
11
1E
16
02
06
12
1G
0G
#2920000
0!
0.
0/
1&
#2930000
1!
1.
1/
0&
1X
10
0K
01
0E
16
02
1G
#2940000
0!
0.
0/
1&
#2950000
1!
1.
1/
0&
0X
1U
0W
0V
00
1K
07
0G
11
1E
06
12
0E
18
02
17
1G
08
#2960000
0!
0.
0/
1&
#2970000
1!
1.
1/
0&
1X
10
0K
1E
#2980000
0!
0.
0/
1&
#2990000
1!
1.
1/
0&
0X
1W
1L
00
1K
01
0E
11
1E
12
02
#3000000
0!
0.
0/
1&
#3010000
1!
1.
1/
0&
1X
0L
10
0K
01
0E
12
#3020000
0!
0.
0/
1&
#3030000
1!
1.
1/
0&
0X
0W
1V
00
1K
11
1E
16
02
0E
06
12
07
0G
17
1G
18
08
#3040000
0!
0.
0/
1&
#3050000
1!
1.
1/
0&
1X
10
0K
1E
#3060000
0!
0.
0/
1&
#3070000
1!
1.
1/
0&
0X
1W
00
1K
01
0E
11
1E
16
02
06
12
07
0G
17
1G
18
08
#3080000
0!
0.
0/
1&
#3090000
1!
1.
1/
0&
1X
10
0K
01
0E
16
02
07
0G
18
#3100000
0!
0.
0/
1&
#3110000
1!
1.
1/
0&
0X
0U
0W
1T
0V
00
1K
17
1G
11
1E
19
08
06
12
0E
09
18
02
1-
0G
0-
#3120000
0!
0.
0/
1&
#3130000
1!
1.
1/
0&
1X
10
0K
1E
#3140000
0!
0.
0/
1&
#3150000
1!
1.
1/
0&
0X
1W
00
1K
01
0E
11
1E
12
02
#3160000
0!
0.
0/
1&
#3170000
1!
1.
1/
0&
1X
10
0K
01
0E
12
#3180000
0!
0.
0/
1&
#3190000
1!
1.
1/
0&
0X
0W
1V
00
1K
11
1E
16
02
0E
06
12
1G
0G
#3200000
0!
0.
0/
1&
#3210000
1!
1.
1/
0&
1X
0F
10
0K
1E
#3220000
0!
0.
0/
1&
#3230000
1!
1.
1/
0&
0X
1W
1F
00
1K
01
0E
11
1E
16
02
06
12
1G
0G
#3240000
0!
0.
0/
1&
#3250000
1!
1.
1/
0&
1X
10
0K
01
0E
16
02
1G
#3260000
0!
0.
0/
1&
#3270000
1!
1.
1/
0&
0X
1U
0W
0V
00
1K
07
0G
11
1E
06
12
0E
19
08
02
17
1G
1-
09
18
0-
#3280000
0!
0.
0/
1&
#3290000
1!
1.
1/
0&
1X
10
0K
1E
#3300000
0!
0.
0/
1&
#3310000
1!
1.
1/
0&
0X
1W
00
1K
01
0E
11
1E
12
02
#3320000
0!
0.
0/
1&
#3330000
1!
1.
1/
0&
1X
10
0K
01
0E
12
#3340000
0!
0.
0/
1&
#3350000
1!
1.
1/
0&
0X
0W
1V
00
1K
11
1E
16
02
0E
06
12
07
0G
17
1G
19
08
09
18
1-
0-
#3360000
0!
0.
0/
1&
#3370000
1!
1.
1/
0&
1X
0F
10
0K
1E
#3380000
0!
0.
0/
1&
#3390000
1!
1.
1/
0&
0X
1W
1F
00
1K
01
0E
11
1E
16
02
06
12
07
0G
17
1G
19
08
09
18
1-
0-
#3400000
0!
0.
0/
1&
#3410000
1!
1.
1/
0&
1X
10
0K
01
0E
16
02
07
0G
19
08
1-
#3420000
0!
0.
0/
1&
#3430000
1!
1.
1/
0&
0X
0U
0W
0T
0V
1S
00
1K
17
1G
11
1E
09
18
06
12
0:
0-
0E
08
02
1:
1-
0G
1;
0;
#3440000
0!
0.
0/
1&
#3450000
1!
1.
1/
0&
1X
10
0K
1E
#3460000
0!
0.
0/
1&
#3470000
1!
1.
1/
0&
0X
1W
1L
00
1K
01
0E
11
1E
12
02
#3480000
0!
0.
0/
1&
#3490000
1!
1.
1/
0&
1X
0L
10
0K
01
0E
12
#3500000
0!
0.
0/
1&
#3510000
1!
1.
1/
0&
0X
0W
1V
00
1K
11
1E
16
02
0E
06
12
1G
0G
#3520000
0!
0.
0/
1&
#3530000
1!
1.
1/
0&
1X
10
0K
1E
#3540000
0!
0.
0/
1&
#3550000
1!
1.
1/
0&
0X
1W
00
1K
01
0E
11
1E
16
02
06
12
1G
0G
#3560000
0!
0.
0/
1&
#3570000
1!
1.
1/
0&
1X
10
0K
01
0E
16
02
1G
#3580000
0!
0.
0/
1&
#3590000
1!
1.
1/
0&
0X
1U
0W
0V
00
1K
07
0G
11
1E
06
12
0E
18
02
17
1G
08
#3600000
0!
0.
0/
1&
#3610000
1!
1.
1/
0&
1X
10
0K
1E
#3620000
0!
0.
0/
1&
#3630000
1!
1.
1/
0&
0X
1W
1L
00
1K
01
0E
11
1E
12
02
#3640000
0!
0.
0/
1&
#3650000
1!
1.
1/
0&
1X
0L
10
0K
01
0E
12
#3660000
0!
0.
0/
1&
#3670000
1!
1.
1/
0&
0X
0W
1V
00
1K
11
1E
16
02
0E
06
12
07
0G
17
1G
18
08
#3680000
0!
0.
0/
1&
#3690000
1!
1.
1/
0&
1X
10
0K
1E
#3700000
0!
0.
0/
1&
#3710000
1!
1.
1/
0&
0X
1W
00
1K
01
0E
11
1E
16
02
06
12
07
0G
17
1G
18
08
#3720000
0!
0.
0/
1&
#3730000
1!
1.
1/
0&
1X
10
0K
01
0E
16
02
07
0G
18
#3740000
0!
0.
0/
1&
#3750000
1!
1.
1/
0&
0X
0U
0W
1T
0V
00
1K
17
1G
11
1E
19
08
06
12
0E
09
18
02
0:
0-
0G
1:
1-
1;
0;
#3760000
0!
0.
0/
1&
#3770000
1!
1.
1/
0&
1X
10
0K
1E
#3780000
0!
0.
0/
1&
#3790000
1!
1.
1/
0&
0X
1W
00
1K
01
0E
11
1E
12
02
#3800000
0!
0.
0/
1&
#3810000
1!
1.
1/
0&
1X
10
0K
01
0E
12
#3820000
0!
0.
0/
1&
#3830000
1!
1.
1/
0&
0X
0W
1V
00
1K
11
1E
16
02
0E
06
12
1G
0G
#3840000
0!
0.
0/
1&
#3850000
1!
1.
1/
0&
1X
0F
10
0K
1E
#3860000
0!
0.
0/
1&
#3870000
1!
1.
1/
0&
0X
1W
1F
00
1K
01
0E
11
1E
16
02
06
12
1G
0G
#3880000
0!
0.
0/
1&
#3890000
1!
1.
1/
0&
1X
10
0K
01
0E
16
02
1G
#3900000
0!
0.
0/
1&
#3910000
1!
1.
1/
0&
0X
1U
0W
0V
00
1K
07
0G
11
1E
06
12
0E
19
08
02
17
1G
0:
0-
09
18
1;
1:
1-
0;
#3920000
0!
0.
0/
1&
#3930000
1!
1.
1/
0&
1X
10
0K
1E
#3940000
0!
0.
0/
1&
#3950000
1!
1.
1/
0&
0X
1W
00
1K
01
0E
11
1E
12
02
#3960000
0!
0.
0/
1&
#3970000
1!
1.
1/
0&
1X
10
0K
01
0E
12
#3980000
0!
0.
0/
1&
#3990000
1!
1.
1/
0&
0X
0W
1V
00
1K
11
1E
16
02
0E
06
12
07
0G
17
1G
19
08
09
18
0:
0-
1:
1-
1;
0;
#4000000
0!
0.
0/
1&
#4010000
1!
1.
1/
0&
1X
0F
10
0K
1E
#4020000
0!
0.
0/
1&
#4030000
1!
1.
1/
0&
0X
1W
1F
00
1K
01
0E
11
1E
16
02
06
12
07
0G
17
1G
19
08
09
18
0:
0-
1:
1-
1;
0;
#4040000
0!
0.
0/
1&
#4050000
1!
1.
1/
0&
1X
10
0K
01
0E
16
02
07
0G
19
08
0:
0-
1;
#4060000
0!
0.
0/
1&
#4070000
1!
1.
1/
0&
0X
0U
0W
1R
0T
0V
0S
00
1K
17
1G
11
1E
1<
0;
09
18
06
12
1:
1-
0E
08
02
0>
0=
0-
0G
0<
1;
1C
1>
1=
0C
#4080000
0!
0.
0/
1&
#4090000
1!
1.
1/
0&
1X
10
0K
1E
#4100000
0!
0.
0/
1&
#4110000
1!
1.
1/
0&
0X
1W
1L
00
1K
01
0E
11
1E
12
02
#4120000
0!
0.
0/
1&
#4130000
1!
1.
1/
0&
1X
0L
10
0K
01
0E
12
#4140000
0!
0.
0/
1&
#4150000
1!
1.
1/
0&
0X
0W
1V
00
1K
11
1E
16
02
0E
06
12
1G
0G
#4160000
0!
0.
0/
1&
#4170000
1!
1.
1/
0&
1X
10
0K
1E
#4180000
0!
0.
0/
1&
#4190000
1!
1.
1/
0&
0X
1W
00
1K
01
0E
11
1E
16
02
06
12
1G
0G
#4200000
0!
0.
0/
1&
#4210000
1!
1.
1/
0&
1X
10
0K
01
0E
16
02
1G
#4220000
0!
0.
0/
1&
#4230000
1!
1.
1/
0&
0X
1U
0W
0V
00
1K
07
0G
11
1E
06
12
0E
18
02
17
1G
08
#4240000
0!
0.
0/
1&
#4250000
1!
1.
1/
0&
1X
10
0K
1E
#4260000
0!
0.
0/
1&
#4270000
1!
1.
1/
0&
0X
1W
1L
00
1K
01
0E
11
1E
12
02
#4280000
0!
0.
0/
1&
#4290000
1!
1.
1/
0&
1X
0L
10
0K
01
0E
12
#4300000
0!
0.
0/
1&
