tx_baud_counter/simulation/qsim/tx_baud_counter.msim.vcd
$comment
	File created using the following command:
		vcd file tx_baud_counter.msim.vcd -direction
$end
$date
	Wed Feb 07 18:14:42 2024
$end
$version
	ModelSim Version 10.1d
$end
$timescale
	1ps
$end
$scope module tx_baud_counter_vlg_vec_tst $end
$var reg 1 ! clk $end
$var reg 1 " reset $end
$var reg 1 # reset_count $end
$var wire 1 $ baud_output $end
$var wire 1 % half_baud_output $end
$var wire 1 & irda_baud_output $end
$var wire 1 ' sampler $end
$scope module i1 $end
$var wire 1 ( gnd $end
$var wire 1 ) vcc $end
$var wire 1 * unknown $end
$var tri1 1 + devclrn $end
$var tri1 1 , devpor $end
$var tri1 1 - devoe $end
$var wire 1 . count[10]~23_combout $end
$var wire 1 / clk~combout $end
$var wire 1 0 reset~combout $end
$var wire 1 1 reset_count~combout $end
$var wire 1 2 clk~clkctrl_outclk $end
$var wire 1 3 count[0]~11_combout $end
$var wire 1 4 count[5]~22 $end
$var wire 1 5 count[6]~26 $end
$var wire 1 6 count[7]~27_combout $end
$var wire 1 7 count[7]~28 $end
$var wire 1 8 count[8]~30 $end
$var wire 1 9 count[9]~31_combout $end
$var wire 1 : count[8]~29_combout $end
$var wire 1 ; count[9]~32 $end
$var wire 1 < count[10]~33_combout $end
$var wire 1 = Equal0~2_combout $end
$var wire 1 > count[4]~19_combout $end
$var wire 1 ? Equal0~1_combout $end
$var wire 1 @ count[10]~24_combout $end
$var wire 1 A count[0]~12 $end
$var wire 1 B count[1]~14 $end
$var wire 1 C count[2]~16 $end
$var wire 1 D count[3]~17_combout $end
$var wire 1 E count[3]~18 $end
$var wire 1 F count[4]~20 $end
$var wire 1 G count[5]~21_combout $end
$var wire 1 H count[6]~25_combout $end
$var wire 1 I Equal0~0_combout $end
$var wire 1 J Equal0~3_combout $end
$var wire 1 K count[1]~13_combout $end
$var wire 1 L Equal1~1_combout $end
$var wire 1 M count[2]~15_combout $end
$var wire 1 N Equal1~2_combout $end
$var wire 1 O Equal1~0_combout $end
$var wire 1 P Equal1~3_combout $end
$var wire 1 Q irda_baud_output~0_combout $end
$var wire 1 R irda_baud_output~1_combout $end
$var wire 1 S irda_baud_output~2_combout $end
$var wire 1 T count [10] $end
$var wire 1 U count [9] $end
$var wire 1 V count [8] $end
$var wire 1 W count [7] $end
$var wire 1 X count [6] $end
$var wire 1 Y count [5] $end
$var wire 1 Z count [4] $end
$var wire 1 [ count [3] $end
$var wire 1 \ count [2] $end
$var wire 1 ] count [1] $end
$var wire 1 ^ count [0] $end
$upscope $end
$upscope $end
$enddefinitions $end
#0
$dumpvars
0!
1"
0#
0$
0%
0&
x'
0(
1)
x*
1+
1,
1-
1.
0/
10
01
02
13
14
05
06
17
08
09
0:
1;
0<
1=
0>
1?
0@
0A
1B
0C
0D
1E
0F
0G
0H
1I
1J
0K
0L
0M
0N
1O
0P
1Q
1R
1S
0^
0]
0\
0[
0Z
0Y
0X
0W
0V
0U
0T
$end
#10000
1!
1/
12
0'
1^
0I
1A
03
1K
#20000
0!
0/
02
1'
#30000
1!
1/
12
0'
1]
0^
1I
0B
0K
0A
13
1M
1B
1K
0M
#40000
0!
0/
02
1'
#50000
1!
1/
12
0'
1^
1A
03
0B
0K
1M
#60000
0!
0/
02
1'
#70000
1!
1/
12
0'
1\
0]
0^
1C
0M
1B
1K
0A
13
1D
0C
1M
0K
0D
#80000
0!
0/
02
1'
#90000
1!
1/
12
0'
1^
0I
1A
03
1K
#100000
0"
0!
00
0/
02
1'
0.
1@
#110000
1!
1/
12
0'
0\
0^
0M
1I
0A
13
0K
#120000
1"
0!
10
0/
02
1'
1.
0@
#130000
1!
1/
12
0'
1^
0I
1A
03
1K
#140000
0!
0/
02
1'
#150000
1!
1/
12
0'
1]
0^
1I
0B
0K
0A
13
1M
1B
1K
0M
#160000
0!
0/
02
1'
#170000
1!
1/
12
0'
1^
1A
03
0B
0K
1M
#180000
0!
0/
02
1'
#190000
1!
1/
12
0'
1\
0]
0^
1C
0M
1B
1K
0A
13
1D
0C
1M
0K
0D
#200000
0!
0/
02
1'
#210000
1!
1/
12
0'
1^
0I
1A
03
1K
#220000
1#
0!
11
0/
02
1'
0.
1@
#230000
1!
1/
12
0'
0\
0^
0M
1I
0A
13
0K
#240000
0#
0!
01
0/
02
1'
1.
0@
#250000
1!
1/
12
0'
1^
0I
1A
03
1K
#260000
0!
0/
02
1'
#270000
1!
1/
12
0'
1]
0^
1I
0B
0K
0A
13
1M
1B
1K
0M
#280000
0!
0/
02
1'
#290000
1!
1/
12
0'
1^
1A
03
0B
0K
1M
#300000
0!
0/
02
1'
#310000
1!
1/
12
0'
1\
0]
0^
1C
0M
1B
1K
0A
13
1D
0C
1M
0K
0D
#320000
0!
0/
02
1'
#330000
1!
1/
12
0'
1^
0I
1A
03
1K
#340000
0!
0/
02
1'
#350000
1!
1/
12
0'
1]
0^
1I
0B
0K
0A
13
1C
0M
1B
1K
1D
0C
1M
0D
#360000
0!
0/
02
1'
#370000
1!
1/
12
0'
1^
1A
03
0B
0K
1C
0M
1D
#380000
0!
0/
02
1'
#390000
1!
1/
12
0'
0\
0]
1[
0^
0C
1M
1B
1K
0E
0D
0A
13
1E
1D
0M
1>
0K
0>
#400000
0!
0/
02
1'
#410000
1!
1/
12
0'
1^
0I
1A
03
1K
#420000
0!
0/
02
1'
#430000
1!
1/
12
0'
1]
0^
1I
0B
0K
0A
13
1M
1B
1K
0M
#440000
0!
0/
02
1'
#450000
1!
1/
12
0'
1^
0R
1A
03
0B
0K
1M
#460000
0!
0/
02
1'
#470000
1!
1/
12
0'
1\
0]
0^
1C
0M
1B
1K
0A
13
0E
0D
0C
1M
0K
1>
1E
1D
0>
#480000
0!
0/
02
1'
#490000
1!
1/
12
0'
1^
0I
1A
03
1K
#500000
0!
0/
02
1'
#510000
1!
1/
12
0'
1]
0^
1I
0B
0K
0A
13
1C
0M
1B
1K
0E
0D
0C
1M
1>
1E
1D
0>
#520000
0!
0/
02
1'
#530000
1!
1/
12
0'
1^
1A
03
0B
0K
1C
0M
0E
0D
1>
#540000
0!
0/
02
1'
#550000
1!
1/
12
0'
0\
0]
0[
0^
1Z
1R
0C
1M
1B
1K
1E
1D
0A
13
0O
1F
0>
0D
0M
0F
1>
0K
1G
0G
#560000
0!
0/
02
1'
#570000
1!
1/
12
0'
1^
0I
1A
03
1K
#580000
0!
0/
02
1'
#590000
1!
1/
12
0'
1]
0^
1I
0B
0K
0A
13
1M
1B
1K
0M
#600000
0!
0/
02
1'
#610000
1!
1/
12
0'
1^
1A
03
0B
0K
1M
#620000
0!
0/
02
1'
#630000
1!
1/
12
0'
1\
0]
0^
1C
0M
0?
1B
1K
0A
13
1D
0C
1M
0K
0D
#640000
0!
0/
02
1'
#650000
1!
1/
12
0'
1^
0I
1A
03
1K
#660000
0!
0/
02
1'
#670000
1!
1/
12
0'
1]
0^
1I
0B
0K
0A
13
1C
0M
1B
1K
1D
0C
1M
0D
#680000
0!
0/
02
1'
#690000
1!
1/
12
0'
1^
1A
03
0B
0K
1C
0M
1D
#700000
0!
0/
02
1'
#710000
1!
1/
12
0'
0\
0]
1[
0^
0C
1M
1?
1B
1K
0E
0D
0A
13
1E
1D
0M
1F
0>
0K
0F
1>
1G
0G
#720000
0!
0/
02
1'
#730000
1!
1/
12
0'
1^
0I
1A
03
1K
#740000
0!
0/
02
1'
#750000
1!
1/
12
0'
1]
0^
1I
0B
0K
0A
13
1M
1B
1K
0M
#760000
0!
0/
02
1'
#770000
1!
1/
12
0'
1^
0R
1A
03
0B
0K
1M
#780000
0!
0/
02
1'
#790000
1!
1/
12
0'
1\
0]
0^
1C
0M
1B
1K
0A
13
0E
0D
0C
1M
0K
1F
0>
1E
1D
1G
0F
1>
0G
#800000
0!
0/
02
1'
#810000
1!
1/
12
0'
1^
0I
1A
03
1K
#820000
0!
0/
02
1'
#830000
1!
1/
12
0'
1]
0^
1I
0B
0K
0A
13
1C
0M
1B
1K
0E
0D
0C
1M
1F
0>
1E
1D
1G
0F
1>
0G
#840000
0!
0/
02
1'
#850000
1!
1/
12
0'
1^
1A
03
0B
0K
1C
0M
0E
0D
1F
0>
1G
#860000
0!
0/
02
1'
#870000
1!
1/
12
0'
0\
0]
1Y
0[
0^
0Z
1R
0C
1M
1B
1K
04
0G
1E
1D
0A
13
0F
1>
0D
0M
1H
0>
0K
14
1G
0H
#880000
0!
0/
02
1'
#890000
1!
1/
12
0'
1^
1A
03
1K
#900000
0!
0/
02
1'
#910000
1!
1/
12
0'
1]
0^
0B
0K
0A
13
1M
1B
1K
0M
#920000
0!
0/
02
1'
#930000
1!
1/
12
0'
1^
1A
03
0B
0K
1M
#940000
0!
0/
02
1'
#950000
1!
1/
12
0'
1\
0]
0^
1C
0M
1B
1K
0A
13
1D
0C
1M
0K
0D
#960000
0!
0/
02
1'
#970000
1!
1/
12
0'
1^
1A
03
1K
#980000
0!
0/
02
1'
#990000
1!
1/
12
0'
1]
0^
0B
0K
0A
13
1C
0M
1B
1K
1D
0C
1M
0D
#1000000
0!
0/
02
1'
#1010000
1!
1/
12
0'
1^
1A
03
0B
0K
1C
0M
1D
#1020000
0!
0/
02
1'
#1030000
1!
1/
12
0'
0\
0]
1[
0^
0C
1M
1B
1K
0E
0D
0A
13
1E
1D
0M
1>
0K
0>
#1040000
0!
0/
02
1'
#1050000
1!
1/
12
0'
1^
1A
03
1K
#1060000
0!
0/
02
1'
#1070000
1!
1/
12
0'
1]
0^
0B
0K
0A
13
1M
1B
1K
0M
#1080000
0!
0/
02
1'
#1090000
1!
1/
12
0'
1^
0R
1A
03
0B
0K
1M
#1100000
0!
0/
02
1'
#1110000
1!
1/
12
0'
1\
0]
0^
1C
0M
1B
1K
0A
13
0E
0D
0C
1M
0K
1>
1E
1D
0>
#1120000
0!
0/
02
1'
#1130000
1!
1/
12
0'
1^
1A
03
1K
#1140000
0!
0/
02
1'
#1150000
1!
1/
12
0'
1]
0^
0B
0K
0A
13
1C
0M
1B
1K
0E
0D
0C
1M
1>
1E
1D
0>
#1160000
0!
0/
02
1'
#1170000
1!
1/
12
0'
1^
1A
03
0B
0K
1C
0M
0E
0D
1>
#1180000
0!
0/
02
1'
#1190000
1!
1/
12
0'
0\
0]
0[
0^
1Z
1R
0C
1M
1B
1K
1E
1D
0A
13
1F
0>
0D
0M
0F
1>
0K
04
0G
14
1G
1H
0H
#1200000
0!
0/
02
1'
#1210000
1!
1/
12
0'
1^
1A
03
1K
#1220000
0!
0/
02
1'
#1230000
1!
1/
12
0'
1]
0^
0B
0K
0A
13
1M
1B
1K
0M
#1240000
0!
0/
02
1'
#1250000
1!
1/
12
0'
1^
1A
03
0B
0K
1M
#1260000
0!
0/
02
1'
#1270000
1!
1/
12
0'
1\
0]
0^
1C
0M
0?
1B
1K
0A
13
1D
0C
1M
0K
0D
#1280000
0!
0/
02
1'
#1290000
1!
1/
12
0'
1^
1A
03
1K
#1300000
0!
0/
02
1'
#1310000
1!
1/
12
0'
1]
0^
0B
0K
0A
13
1C
0M
1B
1K
1D
0C
1M
0D
#1320000
0!
0/
02
1'
#1330000
1!
1/
12
0'
1^
1A
03
0B
0K
1C
0M
1D
#1340000
0!
0/
02
1'
#1350000
1!
1/
12
0'
0\
0]
1[
0^
0C
1M
1?
1B
1K
0E
0D
0A
13
1E
1D
0M
1F
0>
0K
0F
1>
04
0G
14
1G
1H
0H
#1360000
0!
0/
02
1'
#1370000
1!
1/
12
0'
1^
1A
03
1K
#1380000
0!
0/
02
1'
#1390000
1!
1/
12
0'
1]
0^
0B
0K
0A
13
1M
1B
1K
0M
#1400000
0!
0/
02
1'
#1410000
1!
1/
12
0'
1^
0R
1A
03
0B
0K
1M
#1420000
0!
0/
02
1'
#1430000
1!
1/
12
0'
1\
0]
0^
1C
0M
1B
1K
0A
13
0E
0D
0C
1M
0K
1F
0>
1E
1D
04
0G
0F
1>
1H
14
1G
0H
#1440000
0!
0/
02
1'
#1450000
1!
1/
12
0'
1^
1A
03
1K
#1460000
0!
0/
02
1'
#1470000
1!
1/
12
0'
1]
0^
0B
0K
0A
13
1C
0M
1B
1K
0E
0D
0C
1M
1F
0>
1E
1D
04
0G
0F
1>
1H
14
1G
0H
#1480000
0!
0/
02
1'
#1490000
1!
1/
12
0'
1^
1A
03
0B
0K
1C
0M
0E
0D
1F
0>
04
0G
1H
#1500000
0!
0/
02
1'
#1510000
1!
1/
12
0'
0\
0]
1X
0Y
0[
0^
0Z
1R
0C
1M
1B
1K
15
0H
14
1G
1E
1D
0A
13
0F
1>
0D
0M
16
05
1H
0>
0K
0G
06
#1520000
0!
0/
02
1'
#1530000
1!
1/
12
0'
1^
1A
03
1K
#1540000
0!
0/
02
1'
#1550000
1!
1/
12
0'
1]
0^
0B
0K
0A
13
1M
1B
1K
0M
#1560000
0!
0/
02
1'
#1570000
1!
1/
12
0'
1^
1A
03
0B
0K
1M
#1580000
0!
0/
02
1'
#1590000
1!
1/
12
0'
1\
0]
0^
1C
0M
1B
1K
0A
13
1D
0C
1M
0K
0D
#1600000
0!
0/
02
1'
#1610000
1!
1/
12
0'
1^
1A
03
1K
#1620000
0!
0/
02
1'
#1630000
1!
1/
12
0'
1]
0^
0B
0K
0A
13
1C
0M
1B
1K
1D
0C
1M
0D
#1640000
0!
0/
02
1'
#1650000
1!
1/
12
0'
1^
1A
03
0B
0K
1C
0M
1D
#1660000
0!
0/
02
1'
#1670000
1!
1/
12
0'
0\
0]
1[
0^
0C
1M
1B
1K
0E
0D
0A
13
1E
1D
0M
1>
0K
0>
#1680000
0!
0/
02
1'
#1690000
1!
1/
12
0'
1^
1A
03
1K
#1700000
0!
0/
02
1'
#1710000
1!
1/
12
0'
1]
0^
0B
0K
0A
13
1M
1B
1K
0M
#1720000
0!
0/
02
1'
#1730000
1!
1/
12
0'
1^
0R
1A
03
0B
0K
1M
#1740000
0!
0/
02
1'
#1750000
1!
1/
12
0'
1\
0]
0^
1C
0M
1B
1K
0A
13
0E
0D
0C
1M
0K
1>
1E
1D
0>
#1760000
0!
0/
02
1'
#1770000
1!
1/
12
0'
1^
1A
03
1K
#1780000
0!
0/
02
1'
#1790000
1!
1/
12
0'
1]
0^
0B
0K
0A
13
1C
0M
1B
1K
0E
0D
0C
1M
1>
1E
1D
0>
#1800000
0!
0/
02
1'
#1810000
1!
1/
12
0'
1^
1A
03
0B
0K
1C
0M
0E
0D
1>
#1820000
0!
0/
02
1'
#1830000
1!
1/
12
0'
0\
0]
0[
0^
1Z
1R
0C
1M
1B
1K
1E
1D
0A
13
1F
0>
0D
0M
0F
1>
0K
1G
0G
#1840000
0!
0/
02
1'
#1850000
1!
1/
12
0'
1^
1A
03
1K
#1860000
0!
0/
02
1'
#1870000
1!
1/
12
0'
1]
0^
0B
0K
0A
13
1M
1B
1K
0M
#1880000
0!
0/
02
1'
#1890000
1!
1/
12
0'
1^
1A
03
0B
0K
1M
#1900000
0!
0/
02
1'
#1910000
1!
1/
12
0'
1\
0]
0^
1C
0M
0?
1B
1K
0A
13
1D
0C
1M
0K
0D
#1920000
0!
0/
02
1'
#1930000
1!
1/
12
0'
1^
1A
03
1K
#1940000
0!
0/
02
1'
#1950000
1!
1/
12
0'
1]
0^
0B
0K
0A
13
1C
0M
1B
1K
1D
0C
1M
0D
#1960000
0!
0/
02
1'
#1970000
1!
1/
12
0'
1^
1A
03
0B
0K
1C
0M
1D
#1980000
0!
0/
02
1'
#1990000
1!
1/
12
0'
0\
0]
1[
0^
0C
1M
1?
1B
1K
0E
0D
0A
13
1E
1D
0M
1F
0>
0K
0F
1>
1G
0G
#2000000
0!
0/
02
1'
#2010000
1!
1/
12
0'
1^
1A
03
1K
#2020000
0!
0/
02
1'
#2030000
1!
1/
12
0'
1]
0^
0B
0K
0A
13
1M
1B
1K
0M
#2040000
0!
0/
02
1'
#2050000
1!
1/
12
0'
1^
0R
1A
03
0B
0K
1M
#2060000
0!
0/
02
1'
#2070000
1!
1/
12
0'
1\
0]
0^
1C
0M
1B
1K
0A
13
0E
0D
0C
1M
0K
1F
0>
1E
1D
1G
0F
1>
0G
#2080000
0!
0/
02
1'
#2090000
1!
1/
12
0'
1^
1A
03
1K
#2100000
0!
0/
02
1'
#2110000
1!
1/
12
0'
1]
0^
0B
0K
0A
13
1C
0M
1B
1K
0E
0D
0C
1M
1F
0>
1E
1D
1G
0F
1>
0G
#2120000
0!
0/
02
1'
#2130000
1!
1/
12
0'
1^
1A
03
0B
0K
1C
0M
0E
0D
1F
0>
1G
#2140000
0!
0/
02
1'
#2150000
1!
1/
12
0'
0\
0]
1Y
0[
0^
0Z
1R
0C
1M
1B
1K
04
0G
1E
1D
0A
13
0F
1>
0D
0M
15
0H
0>
0K
14
1G
16
05
1H
06
#2160000
0!
0/
02
1'
#2170000
1!
1/
12
0'
1^
1A
03
1K
#2180000
0!
0/
02
1'
#2190000
1!
1/
12
0'
1]
0^
0B
0K
0A
13
1M
1B
1K
0M
#2200000
0!
0/
02
1'
#2210000
1!
1/
12
0'
1^
1A
03
0B
0K
1M
#2220000
0!
0/
02
1'
#2230000
1!
1/
12
0'
1\
0]
0^
1C
0M
1B
1K
0A
13
1D
0C
1M
0K
0D
#2240000
0!
0/
02
1'
#2250000
1!
1/
12
0'
1^
1A
03
1K
#2260000
0!
0/
02
1'
#2270000
1!
1/
12
0'
1]
0^
0B
0K
0A
13
1C
0M
1B
1K
1D
0C
1M
0D
#2280000
0!
0/
02
1'
#2290000
1!
1/
12
0'
1^
1A
03
0B
0K
1C
0M
1D
#2300000
0!
0/
02
1'
#2310000
1!
1/
12
0'
0\
0]
1[
0^
0C
1M
1B
1K
0E
0D
0A
13
1E
1D
0M
1>
0K
0>
#2320000
0!
0/
02
1'
#2330000
1!
1/
12
0'
1^
1A
03
1K
#2340000
0!
0/
02
1'
#2350000
1!
1/
12
0'
1]
0^
0B
0K
0A
13
1M
1B
1K
0M
#2360000
0!
0/
02
1'
#2370000
1!
1/
12
0'
1^
0R
1A
03
0B
0K
1M
#2380000
0!
0/
02
1'
#2390000
1!
1/
12
0'
1\
0]
0^
1C
0M
1B
1K
0A
13
0E
0D
0C
1M
0K
1>
1E
1D
0>
#2400000
0!
0/
02
1'
#2410000
1!
1/
12
0'
1^
1A
03
1K
#2420000
0!
0/
02
1'
#2430000
1!
1/
12
0'
1]
0^
0B
0K
0A
13
1C
0M
1B
1K
0E
0D
0C
1M
1>
1E
1D
0>
#2440000
0!
0/
02
1'
#2450000
1!
1/
12
0'
1^
1A
03
0B
0K
1C
0M
0E
0D
1>
#2460000
0!
0/
02
1'
#2470000
1!
1/
12
0'
0\
0]
0[
0^
1Z
1R
0C
1M
1B
1K
1E
1D
0A
13
1F
0>
0D
0M
0F
1>
0K
04
0G
14
1G
15
0H
05
1H
16
06
#2480000
0!
0/
02
1'
#2490000
1!
1/
12
0'
1^
1A
03
1K
#2500000
0!
0/
02
1'
#2510000
1!
1/
12
0'
1]
0^
0B
0K
0A
13
1M
1B
1K
0M
#2520000
0!
0/
02
1'
#2530000
1!
1/
12
0'
1^
1A
03
0B
0K
1M
#2540000
0!
0/
02
1'
#2550000
1!
1/
12
0'
1\
0]
0^
1C
0M
0?
1B
1K
0A
13
1D
0C
1M
0K
0D
#2560000
0!
0/
02
1'
#2570000
1!
1/
12
0'
1^
1A
03
1K
#2580000
0!
0/
02
1'
#2590000
1!
1/
12
0'
1]
0^
0B
0K
0A
13
1C
0M
1B
1K
1D
0C
1M
0D
#2600000
0!
0/
02
1'
#2610000
1!
1/
12
0'
1^
1A
03
0B
0K
1C
0M
1D
#2620000
0!
0/
02
1'
#2630000
1!
1/
12
0'
0\
0]
1[
0^
0C
1M
1?
1B
1K
0E
0D
0A
13
1E
1D
0M
1F
0>
0K
0F
1>
04
0G
14
1G
15
0H
05
1H
16
06
#2640000
0!
0/
02
1'
#2650000
1!
1/
12
0'
1^
1A
03
1K
#2660000
0!
0/
02
1'
#2670000
1!
1/
12
0'
1]
0^
0B
0K
0A
13
1M
1B
1K
0M
#2680000
0!
0/
02
1'
#2690000
1!
1/
12
0'
1^
0R
1A
03
0B
0K
1M
#2700000
0!
0/
02
1'
#2710000
1!
1/
12
0'
1\
0]
0^
1C
0M
1B
1K
0A
13
0E
0D
0C
1M
0K
1F
0>
1E
1D
04
0G
0F
1>
15
0H
14
1G
16
05
1H
06
#2720000
0!
0/
02
1'
#2730000
1!
1/
12
0'
1^
1A
03
1K
#2740000
0!
0/
02
1'
#2750000
1!
1/
12
0'
1]
0^
0B
0K
0A
13
1C
0M
1B
1K
0E
0D
0C
1M
1F
0>
1E
1D
04
0G
0F
1>
15
0H
14
1G
16
05
1H
06
#2760000
0!
0/
02
1'
#2770000
1!
1/
12
0'
1^
1A
03
0B
0K
1C
0M
0E
0D
1F
0>
04
0G
15
0H
16
#2780000
0!
0/
02
1'
#2790000
1!
1/
12
0'
0\
0]
0X
0Y
0[
0^
0Z
1W
1R
0C
1M
1B
1K
1O
05
1H
14
1G
1E
1D
0A
13
0F
1>
07
06
0D
0M
17
16
0H
0>
0K
0G
1:
0:
#2800000
0!
0/
02
1'
#2810000
1!
1/
12
0'
1^
0I
1A
03
1K
#2820000
0!
0/
02
1'
#2830000
1!
1/
12
0'
1]
0^
1I
0B
0K
0A
13
1M
1B
1K
0M
#2840000
0!
0/
02
1'
#2850000
1!
1/
12
0'
1^
1A
03
0B
0K
1M
#2860000
0!
0/
02
1'
#2870000
1!
1/
12
0'
1\
0]
0^
1C
0M
1B
1K
0A
13
1D
0C
1M
0K
0D
#2880000
0!
0/
02
1'
#2890000
1!
1/
12
0'
1^
0I
1A
03
1K
#2900000
0!
0/
02
1'
#2910000
1!
1/
12
0'
1]
0^
1I
0B
0K
0A
13
1C
0M
1B
1K
1D
0C
1M
0D
#2920000
0!
0/
02
1'
#2930000
1!
1/
12
0'
1^
1A
03
0B
0K
1C
0M
1D
#2940000
0!
0/
02
1'
#2950000
1!
1/
12
0'
0\
0]
1[
0^
1N
0C
1M
1B
1K
0E
0D
0A
13
1E
1D
0M
1>
0K
0>
#2960000
0!
0/
02
1'
#2970000
1!
1/
12
0'
1^
0I
1A
03
1K
#2980000
0!
0/
02
1'
#2990000
1!
1/
12
0'
1]
0^
1I
0B
0K
0A
13
1M
1B
1K
0M
#3000000
0!
0/
02
1'
#3010000
1!
1/
12
0'
1^
0R
1A
03
0B
0K
1M
#3020000
0!
0/
02
1'
#3030000
1!
1/
12
0'
1\
0]
0^
0N
1C
0M
1B
1K
0A
13
0E
0D
0C
1M
0K
1>
1E
1D
0>
#3040000
0!
0/
02
1'
#3050000
1!
1/
12
0'
1^
0I
1A
03
1K
#3060000
0!
0/
02
1'
#3070000
1!
1/
12
0'
1]
0^
1I
0B
0K
0A
13
1C
0M
1B
1K
0E
0D
0C
1M
1>
1E
1D
0>
#3080000
0!
0/
02
1'
#3090000
1!
1/
12
0'
1^
1A
03
0B
0K
1C
0M
0E
0D
1>
#3100000
0!
0/
02
1'
#3110000
1!
1/
12
0'
0\
0]
0[
0^
1Z
1R
0C
1M
1B
1K
1E
1D
0A
13
0O
1F
0>
0D
0M
0F
1>
0K
1G
0G
#3120000
0!
0/
02
1'
#3130000
1!
1/
12
0'
1^
0I
1A
03
1K
#3140000
0!
0/
02
1'
#3150000
1!
1/
12
0'
1]
0^
1I
0B
0K
0A
13
1M
1B
1K
0M
#3160000
0!
0/
02
1'
#3170000
1!
1/
12
0'
1^
1A
03
0B
0K
1M
#3180000
0!
0/
02
1'
#3190000
1!
1/
12
0'
1\
0]
0^
1C
0M
1B
1K
0A
13
1D
0C
1M
0K
0D
#3200000
0!
0/
02
1'
#3210000
1!
1/
12
0'
1^
0I
1A
03
1K
#3220000
0!
0/
02
1'
#3230000
1!
1/
12
0'
1]
0^
1I
0B
0K
0A
13
1C
0M
1B
1K
1D
0C
1M
0D
#3240000
0!
0/
02
1'
#3250000
1!
1/
12
0'
1^
1A
03
0B
0K
1C
0M
1D
#3260000
0!
0/
02
1'
#3270000
1!
1/
12
0'
0\
0]
1[
0^
1N
0C
1M
1B
1K
0E
0D
0A
13
1E
1D
0M
1F
0>
0K
0F
1>
1G
0G
#3280000
0!
0/
02
1'
#3290000
1!
1/
12
0'
1^
0I
1A
03
1K
#3300000
0!
0/
02
1'
#3310000
1!
1/
12
0'
1]
0^
1I
0B
0K
0A
13
1M
1B
1K
0M
#3320000
0!
0/
02
1'
#3330000
1!
1/
12
0'
1^
0R
1A
03
0B
0K
1M
#3340000
0!
0/
02
1'
#3350000
1!
1/
12
0'
1\
0]
0^
0N
1C
0M
1B
1K
0A
13
0E
0D
0C
1M
0K
1F
0>
1E
1D
1G
0F
1>
0G
#3360000
0!
0/
02
1'
#3370000
1!
1/
12
0'
1^
0I
1A
03
1K
#3380000
0!
0/
02
1'
#3390000
1!
1/
12
0'
1]
0^
1I
0B
0K
0A
13
1C
0M
1B
1K
0E
0D
0C
1M
1F
0>
1E
1D
1G
0F
1>
0G
#3400000
0!
0/
02
1'
#3410000
1!
1/
12
0'
1^
1A
03
0B
0K
1C
0M
0E
0D
1F
0>
1G
#3420000
0!
0/
02
1'
#3430000
1!
1/
12
0'
0\
0]
1Y
0[
0^
0Z
1R
0C
1M
1B
1K
04
0G
1E
1D
0A
13
0F
1>
0D
0M
1H
0>
0K
14
1G
0H
#3440000
0!
0/
02
1'
#3450000
1!
1/
12
0'
1^
1A
03
1K
#3460000
0!
0/
02
1'
#3470000
1!
1/
12
0'
1]
0^
0B
0K
0A
13
1M
1B
1K
0M
#3480000
0!
0/
02
1'
#3490000
1!
1/
12
0'
1^
1A
03
0B
0K
1M
#3500000
0!
0/
02
1'
#3510000
1!
1/
12
0'
1\
0]
0^
1C
0M
1B
1K
0A
13
1D
0C
1M
0K
0D
#3520000
0!
0/
02
1'
#3530000
1!
1/
12
0'
1^
1A
03
1K
#3540000
0!
0/
02
1'
#3550000
1!
1/
12
0'
1]
0^
0B
0K
0A
13
1C
0M
1B
1K
1D
0C
1M
0D
#3560000
0!
0/
02
1'
#3570000
1!
1/
12
0'
1^
1A
03
0B
0K
1C
0M
1D
#3580000
0!
0/
02
1'
#3590000
1!
1/
12
0'
0\
0]
1[
0^
1N
0C
1M
1B
1K
0E
0D
0A
13
1E
1D
0M
1>
0K
0>
#3600000
0!
0/
02
1'
#3610000
1!
1/
12
0'
1^
1A
03
1K
#3620000
0!
0/
02
1'
#3630000
1!
1/
12
0'
1]
0^
0B
0K
0A
13
1M
1B
1K
0M
#3640000
0!
0/
02
1'
#3650000
1!
1/
12
0'
1^
0R
1A
03
0B
0K
1M
#3660000
0!
0/
02
1'
#3670000
1!
1/
12
0'
1\
0]
0^
0N
1C
0M
1B
1K
0A
13
0E
0D
0C
1M
0K
1>
1E
1D
0>
#3680000
0!
0/
02
1'
#3690000
1!
1/
12
0'
1^
1A
03
1K
#3700000
0!
0/
02
1'
#3710000
1!
1/
12
0'
1]
0^
0B
0K
0A
13
1C
0M
1B
1K
0E
0D
0C
1M
1>
1E
1D
0>
#3720000
0!
0/
02
1'
#3730000
1!
1/
12
0'
1^
1A
03
0B
0K
1C
0M
0E
0D
1>
#3740000
0!
0/
02
1'
#3750000
1!
1/
12
0'
0\
0]
0[
0^
1Z
1R
0C
1M
1B
1K
1E
1D
0A
13
1F
0>
0D
0M
0F
1>
0K
04
0G
14
1G
1H
0H
#3760000
0!
0/
02
1'
#3770000
1!
1/
12
0'
1^
1A
03
1K
#3780000
0!
0/
02
1'
#3790000
1!
1/
12
0'
1]
0^
0B
0K
0A
13
1M
1B
1K
0M
#3800000
0!
0/
02
1'
#3810000
1!
1/
12
0'
1^
1A
03
0B
0K
1M
#3820000
0!
0/
02
1'
#3830000
1!
1/
12
0'
1\
0]
0^
1C
0M
1B
1K
0A
13
1D
0C
1M
0K
0D
#3840000
0!
0/
02
1'
#3850000
1!
1/
12
0'
1^
1A
03
1K
#3860000
0!
0/
02
1'
#3870000
1!
1/
12
0'
1]
0^
0B
0K
0A
13
1C
0M
1B
1K
1D
0C
1M
0D
#3880000
0!
0/
02
1'
#3890000
1!
1/
12
0'
1^
1A
03
0B
0K
1C
0M
1D
#3900000
0!
0/
02
1'
#3910000
1!
1/
12
0'
0\
0]
1[
0^
1N
0C
1M
1B
1K
0E
0D
0A
13
1E
1D
0M
1F
0>
0K
0F
1>
04
0G
14
1G
1H
0H
#3920000
0!
0/
02
1'
#3930000
1!
1/
12
0'
1^
1A
03
1K
#3940000
0!
0/
02
1'
#3950000
1!
1/
12
0'
1]
0^
0B
0K
0A
13
1M
1B
1K
0M
#3960000
0!
0/
02
1'
#3970000
1!
1/
12
0'
1^
0R
1A
03
0B
0K
1M
#3980000
0!
0/
02
1'
#3990000
1!
1/
12
0'
1\
0]
0^
0N
1C
0M
1B
1K
0A
13
0E
0D
0C
1M
0K
1F
0>
1E
1D
04
0G
0F
1>
1H
14
1G
0H
#4000000
0!
0/
02
1'
#4010000
1!
1/
12
0'
1^
1A
03
1K
#4020000
0!
0/
02
1'
#4030000
1!
1/
12
0'
1]
0^
0B
0K
0A
13
1C
0M
1B
1K
0E
0D
0C
1M
1F
0>
1E
1D
04
0G
0F
1>
1H
14
1G
0H
#4040000
0!
0/
02
1'
#4050000
1!
1/
12
0'
1^
1A
03
0B
0K
1C
0M
0E
0D
1F
0>
04
0G
1H
#4060000
0!
0/
02
1'
#4070000
1!
1/
12
0'
0\
0]
1X
0Y
0[
0^
0Z
1R
0C
1M
1B
1K
15
0H
14
1G
1E
1D
0A
13
0F
1>
0D
0M
07
06
05
1H
0>
0K
0G
1:
17
16
0:
#4080000
0!
0/
02
1'
#4090000
1!
1/
12
0'
1^
1A
03
1K
